31.13.110.97
31.13.110.99
31.13.113.64
31.13.113.65
31.13.113.66
31.13.113.67
31.13.113.68
31.13.113.69
31.13.113.70
31.13.113.71
31.13.113.76
31.13.113.77
31.13.113.79
31.13.113.81
31.13.113.82
31.13.113.84
31.13.113.85
31.13.113.86
31.13.113.87
31.13.113.88
31.13.113.89
31.13.113.90
31.13.113.92
31.13.113.93
31.13.113.94
31.13.113.95
31.13.110.101
31.13.110.110
31.13.110.116
31.13.110.117
31.13.110.118
31.13.110.119
31.13.110.120
31.13.110.122
31.13.110.123
31.13.110.126
