10.50.0.39 31.13.75.37 / content) 29.6280384064 592.972993851 789.951086044 43.662071228 4.94718551636 28.6340713501
10.50.0.39 31.13.75.37 /welcome?next=https%3A%2F%2F0.freebasics.com%2F 28.89 31.8198204041 297.420978546 660.003185272 33.0278873444 5.40590286255 424.510002136
10.50.0.39 31.13.75.37 /welcome?next=https%3A%2F%2F0.freebasics.com%2F content) 33.8418483734 554.002046585 898.071050644 27.2450447083 6.61301612854 27.4648666382
10.50.0.39 31.13.75.37 / content) 31.4810276031 323.246955872 705.692052841 35.4330539703 9.15598869324 48.2409000397
10.50.0.39 31.13.75.37 /?_h=1 65.22 29.5701026917 360.363960266 765.669107437 28.6149978638 7.03406333923 1881.49905205
10.50.0.39 31.13.75.37 /searchservices 55.76 35.9199047089 267.727136612 730.048894882 26.1659622192 6.14500045776 1653.93805504
10.50.0.39 31.13.75.37 /searchservices?offset=0&next=%D8%A7%DA%AF%D9%84%D8%A7 57.66 35.8998775482 361.123085022 630.86104393 34.6279144287 6.18886947632 2776.25203133
10.50.0.39 31.13.93.37 /searchservices?offset=20&next=%D8%A7%DA%AF%D9%84%D8%A7 57.57 33.0450534821 195.178985596 462.10193634 46.3211536407 14.1379833221 845.409870148
10.50.0.39 31.13.75.37 /searchservices?offset=40&next=%D8%A7%DA%AF%D9%84%D8%A7 57.47 27.5659561157 278.586149216 759.388923645 34.453868866 8.83603096008 2657.42182732
10.50.0.39 31.13.75.37 /addservice?service_id=253471785031826&previous_url=https%3A%2F%2F0.freebasics.com%2Fsearchservices%3Foffset%3D40%26next%3D%25D8%25A7%25DA%25AF%25D9%2584%25D8%25A7 28.52 42.5000190735 601.382017136 1266.24488831 35.0730419159 8.13603401184 314.753055573
10.50.0.39 31.13.75.37 /addservice?service_id=253471785031826&previous_url=https%3A%2F%2F0.freebasics.com%2Fsearchservices%3Foffset%3D40%26next%3D%25D8%25A7%25DA%25AF%25D9%2584%25D8%25A7 content) 29.7350883484 370.513916016 647.578954697 34.8579883575 12.3631954193 45.0780391693
10.50.0.39 31.13.75.37 /l?next=https%3A%2F%2Fhttp-learnbasics-mpi--sws-org.0.freebasics.com%2F%3Fiorg_service_id_internal%3D253471785031826%253BAfqKHLXzwPur_SHR&h=AXTcDGeOUnc257rl&ref=add_service&service_id=253471785031826 content) 32.1588516235 372.63917923 905.835866928 32.3359966278 18.6250209808 35.6848239899
10.50.0.39 31.13.75.37 /?iorg_service_id_internal=253471785031826%3BAfqKHLXzwPur_SHR 10.43 24.1379737854 269.494056702 712.553024292 39.2668247223 9.28807258606 54.1930198669
10.50.0.39 31.13.75.37 /available-courses.html?iorg_service_id_internal=253471785031826%3BAfqKHLXzwPur_SHR 10.68 27.3230075836 324.792861938 717.612981796 28.2771587372 5.29098510742 38.3458137512
10.50.0.39 31.13.93.37 /stand-up-and-speak-out-the-practice-and-ethics-of-public-speaking.html?iorg_service_id_internal=253471785031826%3BAfqKHLXzwPur_SHR 16.41 28.2921791077 1206.13884926 524.477005005 31.25 10.0150108337 253.551006317
10.50.0.39 31.13.75.37 /writing-for-success-learn-english-writing.html?iorg_service_id_internal=253471785031826%3BAfqKHLXzwPur_SHR 14.09 31.4249992371 271.119117737 871.187925339 26.9529819489 10.057926178 387.525081635
10.50.0.39 31.13.75.37 /communication-skills-for-academics.html?iorg_service_id_internal=253471785031826%3BAfqKHLXzwPur_SHR 9.84 26.8001556396 450.985908508 790.479898453 32.1660041809 10.9858512878 39.736032486
10.50.0.39 31.13.75.37 /english-listening-speaking-and-pronunciation.html?iorg_service_id_internal=253471785031826%3BAfqKHLXzwPur_SHR 16.01 32.4499607086 459.796190262 788.349866867 28.8920402527 10.2000236511 370.903015137
10.50.0.39 31.13.75.37 /basic-algebra.html?iorg_service_id_internal=253471785031826%3BAfqKHLXzwPur_SHR 12.34 25.074005127 259.216785431 557.898044586 12.3870372772 4.17900085449 394.810914993
10.50.0.39 31.13.75.37 /basic-probability-and-statistics.html?iorg_service_id_internal=253471785031826%3BAfqKHLXzwPur_SHR 12.46 38.6188030243 290.733098984 847.51701355 44.6350574493 9.93299484253 335.901021957
10.50.0.39 31.13.75.37 /geometry.html?iorg_service_id_internal=253471785031826%3BAfqKHLXzwPur_SHR 12.74 32.2420597076 261.620044708 556.499004364 27.804851532 4.0979385376 377.714157104
10.50.0.39 31.13.93.37 /mathematical-proofs.html?iorg_service_id_internal=253471785031826%3BAfqKHLXzwPur_SHR 14.37 24.8329639435 320.526838303 542.261123657 29.2119979858 12.638092041 378.903150558
10.50.0.39 31.13.75.37 /leaving?p=1&continueuri=https%3A%2F%2Fwordpress.org%2F&backuri=https%3A%2F%2Fhttp-learnbasics-mpi--sws-org.0.freebasics.com%2Favailable-courses.html%3Fiorg_service_id_internal%3D253471785031826%253BAfqKHLXzwPur_SHR&why=i_list&service_id=253471785031826 28.87 36.2269878387 270.28298378 797.060966492 31.7668914795 14.1749382019 733.631134033
10.50.0.39 31.13.75.37 /Chapter-1-1/Chapter-1-1.php?iorg_service_id_internal=253471785031826%3BAfqKHLXzwPur_SHR 6.47 28.2709598541 646.617889404 604.525089264 28.7101268768 11.2128257751 49.4959354401
10.50.0.39 31.13.75.37 /-t_48c884f057082803caf37b90838c87af5529d79e-/pngimages/Chapter-1-1/Chapter-1-1-0.png?iorg_service_id_internal=253471785031826%3BAfqKHLXzwPur_SHR 76.82 27.0290374756 347.454071045 667.951822281 38.782119751 13.396024704 1912.66012192
10.50.0.39 31.13.75.37 /-t_239aad2c38b911a838e34baef015d58490ae80cc-/pngimages/Chapter-1-1/Chapter-1-1-1.png?iorg_service_id_internal=253471785031826%3BAfqKHLXzwPur_SHR 68.36 29.7300815582 278.950929642 874.759912491 28.9580821991 7.73596763611 1850.0521183
10.50.0.39 31.13.75.37 /-t_51ab70ab5146d5453354693179cb83a9b1971fc5-/pngimages/Chapter-1-1/Chapter-1-1-10.png?iorg_service_id_internal=253471785031826%3BAfqKHLXzwPur_SHR 70.42 23.9419937134 360.524177551 861.479997635 39.3199920654 7.87496566772 1469.21014786
10.50.0.39 31.13.93.37 /-t_c84dfd060c4a779facd5f75d18d761092172cdda-/pngimages/Chapter-1-1/Chapter-1-1-11.png?iorg_service_id_internal=253471785031826%3BAfqKHLXzwPur_SHR 61.95 33.6039066315 238.631010056 1469.40207481 33.1249237061 9.65189933777 2933.93397331
10.50.0.39 31.13.75.37 /-t_ba807859e26d5e6571b0a3f7e67d5c86b2285c5f-/pngimages/Chapter-1-1/Chapter-1-1-12.png?iorg_service_id_internal=253471785031826%3BAfqKHLXzwPur_SHR 57.53 28.3420085907 301.958799362 841.418027878 46.1890697479 13.7820243835 2006.74295425
10.50.0.39 31.13.75.37 /-t_51a06c89751f672f88f45bdec218457334126f20-/pngimages/Chapter-1-1/Chapter-1-1-13.png?iorg_service_id_internal=253471785031826%3BAfqKHLXzwPur_SHR 50.63 28.9151668549 486.587047577 1032.4139595 32.644033432 7.7850818634 1495.73707581
10.50.0.39 31.13.75.37 /-t_f8fa29b0a029fcd136011f89d301b66a6234a554-/pngimages/Chapter-1-1/Chapter-1-1-14.png?iorg_service_id_internal=253471785031826%3BAfqKHLXzwPur_SHR 6.74 30.1198959351 318.084001541 689.985990524 35.9101295471 14.0299797058 45.3898906708
10.50.0.39 31.13.75.37 /-t_f6cafa07db6e2154ed4643f8dbf47421c11555dd-/pngimages/Chapter-1-1/Chapter-1-1-2.png?iorg_service_id_internal=253471785031826%3BAfqKHLXzwPur_SHR 63.5 32.0210456848 385.113954544 759.099006653 34.8489284515 7.59792327881 1974.04408455
10.50.0.39 31.13.93.37 /-t_9b2485a7decf90b9d80de0e2ca48aaf0a9eb4002-/pngimages/Chapter-1-1/Chapter-1-1-3.png?iorg_service_id_internal=253471785031826%3BAfqKHLXzwPur_SHR 68.53 32.0858955383 232.637166977 812.659978867 28.815984726 7.39693641663 1023.00405502
10.50.0.39 31.13.75.37 /-t_3751f9b88c23e65d6f4577a9f7a863111888c003-/pngimages/Chapter-1-1/Chapter-1-1-4.png?iorg_service_id_internal=253471785031826%3BAfqKHLXzwPur_SHR 68.71 28.0699729919 271.968126297 749.34387207 29.1669368744 10.7550621033 1377.69508362
10.50.0.39 31.13.75.37 /-t_aa7aeafc761cfcc38648c326f0e9f2b7a3fcc40c-/pngimages/Chapter-1-1/Chapter-1-1-5.png?iorg_service_id_internal=253471785031826%3BAfqKHLXzwPur_SHR 85.38 31.8720340729 451.951980591 710.428953171 40.2660369873 14.8839950562 1937.27421761
10.50.0.39 31.13.75.37 /-t_7508eec5ec2cedaff8eb0b3f8b76b8bd4e204feb-/pngimages/Chapter-1-1/Chapter-1-1-6.png?iorg_service_id_internal=253471785031826%3BAfqKHLXzwPur_SHR 74.49 30.7729244232 271.270990372 818.41301918 28.2571315765 12.1819972992 1853.26099396
10.50.0.39 31.13.93.37 /-t_bc37b138ad423886a6cd7dec28360f771d77017b-/pngimages/Chapter-1-1/Chapter-1-1-7.png?iorg_service_id_internal=253471785031826%3BAfqKHLXzwPur_SHR 106.83 35.5570316315 406.01682663 600.615978241 39.0501022339 12.463092804 2756.57510757
10.50.0.39 31.13.75.37 /-t_29923b2c0deb20544ff42c12e6e02418f9d56400-/pngimages/Chapter-1-1/Chapter-1-1-8.png?iorg_service_id_internal=253471785031826%3BAfqKHLXzwPur_SHR 61.18 33.4548950195 261.218070984 621.66595459 28.037071228 5.46622276306 1682.67011642
10.50.0.39 31.13.75.37 /-t_2706929da2f72584ec770c7ae471d78e81a5e213-/pngimages/Chapter-1-1/Chapter-1-1-9.png?iorg_service_id_internal=253471785031826%3BAfqKHLXzwPur_SHR 69.48 33.4141254425 269.6788311 852.515935898 32.172203064 9.3948841095 2127.55393982
10.50.0.39 31.13.75.37 /Chapter-2-1/Chapter-2-1.php?iorg_service_id_internal=253471785031826%3BAfqKHLXzwPur_SHR 9 31.3889980316 318.65811348 758.848905563 29.9501419067 10.0510120392 42.2990322113
10.50.0.39 31.13.75.37 /-t_3e68154781c7f2554f8e236d09d701e4801a7860-/pngimages/Chapter-2-1/Chapter-2-1-0.png?iorg_service_id_internal=253471785031826%3BAfqKHLXzwPur_SHR 51.23 36.1590385437 265.382051468 1067.92092323 34.8060131073 10.8540058136 676.87702179
10.50.0.39 31.13.93.37 /-t_f4f9b775801ce2e1d0ca26fe46c06e81ef1b433b-/pngimages/Chapter-2-1/Chapter-2-1-1.png?iorg_service_id_internal=253471785031826%3BAfqKHLXzwPur_SHR 72.52 32.5350761414 392.00091362 1634.29307938 32.8278541565 7.23195075989 2635.76602936
10.50.0.39 31.13.75.37 /-t_840f36f2560a4b80243bd63aad9a58fd4a68c9e2-/pngimages/Chapter-2-1/Chapter-2-1-10.png?iorg_service_id_internal=253471785031826%3BAfqKHLXzwPur_SHR 75.02 31.259059906 285.840988159 707.43894577 38.1262302399 14.0869617462 1956.38418198
10.50.0.39 31.13.75.37 /-t_51b7946a394a81382cc0348bddbe02fad620880a-/pngimages/Chapter-2-1/Chapter-2-1-11.png?iorg_service_id_internal=253471785031826%3BAfqKHLXzwPur_SHR 72.8 29.8500061035 364.475011826 881.278991699 34.8470211029 7.86089897156 1804.68988419
10.50.0.39 31.13.75.37 /-t_cdf7048815fa882a9cd1f1e3cef60992bc0d49d0-/pngimages/Chapter-2-1/Chapter-2-1-12.png?iorg_service_id_internal=253471785031826%3BAfqKHLXzwPur_SHR 70.92 31.5959453583 282.670021057 936.545848846 32.9442024231 5.00702857971 1869.61197853
10.50.0.39 31.13.75.37 /-t_4f30b6b562401b8f98554fabfa3627b6acd0fac6-/pngimages/Chapter-2-1/Chapter-2-1-13.png?iorg_service_id_internal=253471785031826%3BAfqKHLXzwPur_SHR 67.7 23.9400863647 260.550022125 977.011919022 30.7149887085 8.70394706726 1374.73106384
10.50.0.39 31.13.75.37 /-t_7c1d88f6233fbfdd678b2a25f8d9e6b245b68f16-/pngimages/Chapter-2-1/Chapter-2-1-14.png?iorg_service_id_internal=253471785031826%3BAfqKHLXzwPur_SHR 66.55 35.206079483 242.424964905 913.094043732 23.8189697266 8.13913345337 1654.21891212
10.50.0.39 31.13.75.37 /-t_a37717138dfd39d12905dbfd2e2a0e403f48dffd-/pngimages/Chapter-2-1/Chapter-2-1-15.png?iorg_service_id_internal=253471785031826%3BAfqKHLXzwPur_SHR 70.84 33.4730148315 363.6739254 772.344112396 34.3780517578 13.0920410156 1882.27391243
10.50.0.39 31.13.75.37 /-t_fa4eb8212a77636a50f4b15ec4cdd5557e5df184-/pngimages/Chapter-2-1/Chapter-2-1-16.png?iorg_service_id_internal=253471785031826%3BAfqKHLXzwPur_SHR 64.71 35.1088047028 458.159208298 864.233016968 40.6627655029 14.4820213318 1089.82086182
10.50.0.39 31.13.75.37 /-t_2a892ee456e025805848bbe56b51aff15737aaac-/pngimages/Chapter-2-1/Chapter-2-1-17.png?iorg_service_id_internal=253471785031826%3BAfqKHLXzwPur_SHR 67.03 33.6129665375 283.705949783 605.774879456 32.6039791107 9.35697555542 1601.24921799
10.50.0.39 31.13.93.37 /-t_afcf1096e006d2a19e3e68de2e2cc20a1f73d069-/pngimages/Chapter-2-1/Chapter-2-1-18.png?iorg_service_id_internal=253471785031826%3BAfqKHLXzwPur_SHR 74.03 38.3780002594 1357.75899887 613.499879837 37.5092029572 9.06109809875 1735.16893387
10.50.0.39 31.13.75.37 /-t_6a6d326af750b6d336bffe753984fc32bb5fcc0b-/pngimages/Chapter-2-1/Chapter-2-1-19.png?iorg_service_id_internal=253471785031826%3BAfqKHLXzwPur_SHR 60.77 30.6539535522 264.595985413 606.034994125 35.9880924225 8.36205482483 1439.48912621
10.50.0.39 31.13.75.37 /-t_9d2632065dd1cfd2a1f48ab92f4974ac11c6d4a2-/pngimages/Chapter-2-1/Chapter-2-1-2.png?iorg_service_id_internal=253471785031826%3BAfqKHLXzwPur_SHR 69.16 25.8610248566 379.760980606 827.267169952 33.3638191223 10.5900764465 1768.65410805
10.50.0.39 31.13.75.37 /-t_003854b3065e17ffdca319b9e4eb8dcee979b926-/pngimages/Chapter-2-1/Chapter-2-1-20.png?iorg_service_id_internal=253471785031826%3BAfqKHLXzwPur_SHR 52.73 37.4348163605 429.150104523 829.86998558 42.6700115204 7.83705711365 1074.11503792
10.50.0.39 31.13.75.37 /-t_7c44abd0f81aa612738998cdaa99cef584acf3a0-/pngimages/Chapter-2-1/Chapter-2-1-21.png?iorg_service_id_internal=253471785031826%3BAfqKHLXzwPur_SHR 58.92 34.835100174 1184.47899818 815.6478405 35.5970859528 9.56702232361 2899.71590042
10.50.0.39 31.13.93.37 /-t_4c57008ae6495567aa3a82ffeb3c8a6d7fa7ce93-/pngimages/Chapter-2-1/Chapter-2-1-22.png?iorg_service_id_internal=253471785031826%3BAfqKHLXzwPur_SHR 63.48 41.0830974579 385.030984879 809.715032578 35.4068279266 9.90581512451 1585.44397354
10.50.0.39 31.13.75.37 /-t_3a1a1845bee65d3d512f6ca9b0521e588cacd1b6-/pngimages/Chapter-2-1/Chapter-2-1-23.png?iorg_service_id_internal=253471785031826%3BAfqKHLXzwPur_SHR 64.7 37.7531051636 313.495874405 864.902973175 38.7861728668 8.29195976257 1945.00589371
10.50.0.39 31.13.75.37 /-t_446b55e1dc438717deaa29b4a5ccc42c4edf4036-/pngimages/Chapter-2-1/Chapter-2-1-24.png?iorg_service_id_internal=253471785031826%3BAfqKHLXzwPur_SHR 58.88 25.0201225281 539.337873459 787.384033203 41.8310165405 8.59093666077 2695.17803192
10.50.0.39 31.13.75.37 /-t_430c02850d8a2977918d0bb003bec762d082e627-/pngimages/Chapter-2-1/Chapter-2-1-25.png?iorg_service_id_internal=253471785031826%3BAfqKHLXzwPur_SHR 28.69 29.2251110077 374.78685379 852.749109268 29.1168689728 8.15200805664 297.89686203
10.50.0.39 31.13.75.37 /-t_9705a600e5f5a3b377c7b991e0cef204de1a2141-/pngimages/Chapter-2-1/Chapter-2-1-26.png?iorg_service_id_internal=253471785031826%3BAfqKHLXzwPur_SHR 6.39 30.403137207 380.220890045 810.935974121 32.3419570923 8.44097137451 43.7078475952
10.50.0.39 31.13.93.37 /-t_c0140fa05c8f7750587f62dbdafe731164a119d5-/pngimages/Chapter-2-1/Chapter-2-1-3.png?iorg_service_id_internal=253471785031826%3BAfqKHLXzwPur_SHR 70.96 34.9669456482 476.823091507 808.560848236 34.7650051117 10.0071430206 1736.31000519
10.50.0.39 31.13.75.37 /-t_a337ddf160732e59eeb35c0b52c01c2f2f08a847-/pngimages/Chapter-2-1/Chapter-2-1-4.png?iorg_service_id_internal=253471785031826%3BAfqKHLXzwPur_SHR 54.66 38.2809638977 365.927934647 824.39494133 40.6551361084 13.3221149445 766.496896744
10.50.0.39 31.13.75.37 /-t_68926a6f065839e10b38d6765c41f72e22afee78-/pngimages/Chapter-2-1/Chapter-2-1-5.png?iorg_service_id_internal=253471785031826%3BAfqKHLXzwPur_SHR 47.37 28.9680957794 373.279094696 875.694036484 24.2118835449 9.01508331299 758.460044861
10.50.0.39 31.13.75.37 /-t_77a8e9381333f198d32a9fdb61fef50aec883d80-/pngimages/Chapter-2-1/Chapter-2-1-6.png?iorg_service_id_internal=253471785031826%3BAfqKHLXzwPur_SHR 61.97 30.1148891449 482.933044434 649.248123169 33.7979793549 9.63997840881 1138.80300522
10.50.0.39 31.13.75.37 /-t_4f3ed3c48faff7c6e2c6b2b8c678f028ee364938-/pngimages/Chapter-2-1/Chapter-2-1-7.png?iorg_service_id_internal=253471785031826%3BAfqKHLXzwPur_SHR 62 31.0041904449 271.745920181 592.120885849 36.1461639404 13.6229991913 1617.09904671
10.50.0.39 31.13.93.37 /-t_89ad8be55b5f92c0dd48cb7997d84ab3a010b858-/pngimages/Chapter-2-1/Chapter-2-1-8.png?iorg_service_id_internal=253471785031826%3BAfqKHLXzwPur_SHR 70.46 32.0551395416 1201.01094246 471.974849701 19.9480056763 3.9529800415 2646.44289017
10.50.0.39 31.13.75.37 /-t_6a2cc070393406f0e30e853056f928a29fd16179-/pngimages/Chapter-2-1/Chapter-2-1-9.png?iorg_service_id_internal=253471785031826%3BAfqKHLXzwPur_SHR 76.07 28.167963028 416.839122772 882.215023041 33.8909626007 7.24697113037 1709.5849514
10.50.0.39 31.13.75.37 /Chapter-3-1/Chapter-3-1.php?iorg_service_id_internal=253471785031826%3BAfqKHLXzwPur_SHR 8.58 36.6129875183 551.03802681 711.889028549 21.2709903717 5.40995597839 52.3860454559
10.50.0.39 31.13.75.37 /-t_7c8ed2af30b42ff75238df4f50ecc5d4d02dee1f-/pngimages/Chapter-3-1/Chapter-3-1-0.png?iorg_service_id_internal=253471785031826%3BAfqKHLXzwPur_SHR 6.39 28.6440849304 288.013935089 832.154035568 24.8670578003 11.2328529358 45.6500053406
10.50.0.39 31.13.75.37 /-t_189f01c6e9bea10f9489fe47c2a589b64946d652-/pngimages/Chapter-3-1/Chapter-3-1-1.png?iorg_service_id_internal=253471785031826%3BAfqKHLXzwPur_SHR 62.09 27.6350975037 363.265037537 746.643066406 28.6469459534 7.39097595215 3141.59989357
10.50.0.39 31.13.93.37 /-t_250dc7ce98afa972fff8bba5d8a79c5293a329ad-/pngimages/Chapter-3-1/Chapter-3-1-10.png?iorg_service_id_internal=253471785031826%3BAfqKHLXzwPur_SHR 64.38 34.628868103 219.890117645 713.230848312 35.8910560608 8.85105133057 2108.67118835
10.50.0.39 31.13.75.37 /-t_d354ebf49a67488d39244024187fda876b07eba8-/pngimages/Chapter-3-1/Chapter-3-1-11.png?iorg_service_id_internal=253471785031826%3BAfqKHLXzwPur_SHR 67.07 35.1500511169 264.474868774 628.781080246 30.5769443512 9.38296318054 1955.13796806
10.50.0.39 31.13.75.37 /-t_cb88999b10143347c0ee09986bb38a34e3a1b398-/pngimages/Chapter-3-1/Chapter-3-1-12.png?iorg_service_id_internal=253471785031826%3BAfqKHLXzwPur_SHR 56.21 32.1269035339 413.534879684 1080.71017265 30.2288532257 13.3619308472 1569.98491287
10.50.0.39 31.13.75.37 /-t_1a190f35eb133d0c299d4e098c8825b5247fe812-/pngimages/Chapter-3-1/Chapter-3-1-13.png?iorg_service_id_internal=253471785031826%3BAfqKHLXzwPur_SHR 72.23 36.828994751 309.223890305 2408.79416466 37.6789569855 8.76402854919 2240.00883102
10.50.0.39 31.13.75.37 /-t_a0ec4a2786251bc4fdd2a19ebe1a3f15d43979d1-/pngimages/Chapter-3-1/Chapter-3-1-14.png?iorg_service_id_internal=253471785031826%3BAfqKHLXzwPur_SHR 63.76 30.9720039368 1271.19684219 650.995016098 36.731004715 7.84206390381 2646.38495445
10.50.0.39 31.13.93.37 /-t_f782020c321afcb2246ceaa756e57a1e52b6c3ca-/pngimages/Chapter-3-1/Chapter-3-1-15.png?iorg_service_id_internal=253471785031826%3BAfqKHLXzwPur_SHR 67.5 30.797958374 224.406003952 542.132854462 34.252166748 8.33296775818 1132.08794594
10.50.0.39 31.13.75.37 /-t_6e3324b6f966660b172b9f5fb1abeb443e20d763-/pngimages/Chapter-3-1/Chapter-3-1-16.png?iorg_service_id_internal=253471785031826%3BAfqKHLXzwPur_SHR 69.54 25.8269309998 408.720016479 712.061882019 29.9999713898 8.54110717773 1525.75707436
10.50.0.39 31.13.75.37 /-t_9c4e1f022f8cdf94b962559d3b3aa93de51a0a32-/pngimages/Chapter-3-1/Chapter-3-1-17.png?iorg_service_id_internal=253471785031826%3BAfqKHLXzwPur_SHR 62.34 31.8059921265 277.406930923 812.251091003 43.6358451843 9.69004631042 3950.20794868
10.50.0.39 31.13.75.37 /-t_7d8647697ec992763bcf6b56bf113b61bcc0af02-/pngimages/Chapter-3-1/Chapter-3-1-18.png?iorg_service_id_internal=253471785031826%3BAfqKHLXzwPur_SHR 67.63 34.2609882355 488.952875137 799.79801178 35.7141494751 9.57489013672 1674.11899567
10.50.0.39 31.13.75.37 /-t_b6a3ad0e05ffd27629b3060f35ad6ad0234e93aa-/pngimages/Chapter-3-1/Chapter-3-1-19.png?iorg_service_id_internal=253471785031826%3BAfqKHLXzwPur_SHR 63.23 30.1971435547 347.988843918 1096.8580246 55.0730228424 4.81700897217 1929.36086655
10.50.0.39 31.13.75.37 /-t_45dd1cdca43bb504dc9f5be1db64d3c5d721821e-/pngimages/Chapter-3-1/Chapter-3-1-2.png?iorg_service_id_internal=253471785031826%3BAfqKHLXzwPur_SHR 69.62 33.8499546051 273.005008698 858.443021774 24.7621536255 4.61602210999 1999.68695641
10.50.0.39 31.13.75.37 /-t_5975a720fe9d383bfbf2e1e80371db68c387d25b-/pngimages/Chapter-3-1/Chapter-3-1-20.png?iorg_service_id_internal=253471785031826%3BAfqKHLXzwPur_SHR 74.29 34.3000888824 275.579929352 611.005067825 28.9399623871 9.25993919373 1533.49900246
10.50.0.39 31.13.75.37 /-t_48bd9e693ef6ba216641a3029b9e114f26631c45-/pngimages/Chapter-3-1/Chapter-3-1-21.png?iorg_service_id_internal=253471785031826%3BAfqKHLXzwPur_SHR 61.27 35.4659557343 305.255889893 887.098073959 16.2100791931 4.27293777466 1554.85296249
10.50.0.39 31.13.75.37 /-t_7937a2c78c3ce3e3ecbda07e54eb4bd0e186f348-/pngimages/Chapter-3-1/Chapter-3-1-22.png?iorg_service_id_internal=253471785031826%3BAfqKHLXzwPur_SHR 58.38 32.1898460388 274.384975433 673.210144043 38.4058952332 9.65595245361 1981.13703728
10.50.0.39 31.13.75.37 /-t_f332f56b38d00a7b1590640a95214d91da80d02c-/pngimages/Chapter-3-1/Chapter-3-1-23.png?iorg_service_id_internal=253471785031826%3BAfqKHLXzwPur_SHR 65.71 31.7349433899 406.279087067 755.834102631 33.4060192108 7.16495513916 3581.79712296
10.50.0.39 31.13.93.37 /-t_c8d5e926de32fd2514111a092ca514dcf1679788-/pngimages/Chapter-3-1/Chapter-3-1-24.png?iorg_service_id_internal=253471785031826%3BAfqKHLXzwPur_SHR 57.36 33.3058834076 212.30006218 853.867053986 34.6548557281 6.5438747406 1865.37480354
10.50.0.39 31.13.75.37 /-t_9265011c4e5a1492f539a59a69cd1d5b40179949-/pngimages/Chapter-3-1/Chapter-3-1-3.png?iorg_service_id_internal=253471785031826%3BAfqKHLXzwPur_SHR 70.19 30.256986618 360.847949982 769.467115402 32.821893692 6.99305534363 2067.21496582
10.50.0.39 31.13.75.37 /-t_53ff8861d309ce85d13bd31fa2ff28808c03207d-/pngimages/Chapter-3-1/Chapter-3-1-4.png?iorg_service_id_internal=253471785031826%3BAfqKHLXzwPur_SHR 69.17 36.4730358124 263.710975647 811.054944992 39.8199558258 16.6058540344 1677.21414566
10.50.0.39 31.13.75.37 /-t_c592a7afa36dad5d5096b331132402bb2bca1c61-/pngimages/Chapter-3-1/Chapter-3-1-5.png?iorg_service_id_internal=253471785031826%3BAfqKHLXzwPur_SHR 71.29 30.0419330597 269.062042236 975.885868073 33.2379341125 13.6499404907 3132.46798515
10.50.0.39 31.13.75.37 /-t_8b742532527bdb11660592d1115947993fb3096d-/pngimages/Chapter-3-1/Chapter-3-1-6.png?iorg_service_id_internal=253471785031826%3BAfqKHLXzwPur_SHR 69.37 31.6660404205 1322.80302048 4261.67082787 41.435956955 9.33313369751 1325.02317429
10.50.0.39 31.13.93.37 /-t_06bc0fc052e5faff22b3913585f50e134194254f-/pngimages/Chapter-3-1/Chapter-3-1-7.png?iorg_service_id_internal=253471785031826%3BAfqKHLXzwPur_SHR 50.96 27.899980545 200.792074203 502.058029175 35.4619026184 6.33811950684 765.051841736
10.50.0.39 31.13.75.37 /-t_94b723057fba86e2ee38a588f9a79fabaa357fc8-/pngimages/Chapter-3-1/Chapter-3-1-8.png?iorg_service_id_internal=253471785031826%3BAfqKHLXzwPur_SHR 69.96 35.3240966797 305.860996246 579.583883286 28.862953186 13.1380558014 1350.82292557
10.50.0.39 31.13.75.37 /-t_5d6832d23bb4e9dbde58855a1fb398afb6b754e9-/pngimages/Chapter-3-1/Chapter-3-1-9.png?iorg_service_id_internal=253471785031826%3BAfqKHLXzwPur_SHR 58.62 43.1180000305 434.380054474 767.489910126 34.2400074005 8.48388671875 1693.36700439
10.50.0.39 31.13.75.37 /Chapter-4-1/Chapter-4-1.php?iorg_service_id_internal=253471785031826%3BAfqKHLXzwPur_SHR 10.69 27.0628929138 336.302042007 797.938108444 24.8680114746 8.42094421387 35.2399349213
10.50.0.39 31.13.75.37 /-t_e65cb3d2060b8a9f34a79835d4890b8660b2e5b0-/pngimages/Chapter-4-1/Chapter-4-1-0.png?iorg_service_id_internal=253471785031826%3BAfqKHLXzwPur_SHR 62.53 27.7149677277 297.034978867 746.948003769 40.3130054474 9.04393196106 1951.597929
10.50.0.39 31.13.93.37 /-t_b51335ea3f94a4aabe01fb6265ac34b3e8f9e713-/pngimages/Chapter-4-1/Chapter-4-1-1.png?iorg_service_id_internal=253471785031826%3BAfqKHLXzwPur_SHR 71.77 27.4369716644 291.083812714 1057.48200417 36.2601280212 9.61208343506 1892.31586456
10.50.0.39 31.13.75.37 /-t_b57caf5c7744298f18c24bcf41b20ffac85613c4-/pngimages/Chapter-4-1/Chapter-4-1-10.png?iorg_service_id_internal=253471785031826%3BAfqKHLXzwPur_SHR 66.62 24.6629714966 399.807929993 819.218873978 28.7351608276 8.0931186676 1380.39398193
10.50.0.39 31.13.75.37 /-t_0365303bd0ce7a50a866d3af343b4110dcbe6478-/pngimages/Chapter-4-1/Chapter-4-1-11.png?iorg_service_id_internal=253471785031826%3BAfqKHLXzwPur_SHR 117.63 27.7371406555 406.177043915 615.218877792 32.280921936 11.0709667206 3293.54405403
10.50.0.39 31.13.75.37 /-t_b67b4a0795f32d980c6919c134aa20b861e8f6db-/pngimages/Chapter-4-1/Chapter-4-1-12.png?iorg_service_id_internal=253471785031826%3BAfqKHLXzwPur_SHR 68.77 24.4331359863 419.101953506 750.063896179 34.6491336823 8.15081596375 2366.78290367
10.50.0.39 31.13.75.37 /-t_185a301911e40dfe078cf959081bcb7b03cfd89a-/pngimages/Chapter-4-1/Chapter-4-1-13.png?iorg_service_id_internal=253471785031826%3BAfqKHLXzwPur_SHR 69.29 29.8049449921 1011.22808456 1947.74699211 31.8291187286 4.87494468689 9279.51812744
10.50.0.39 31.13.93.37 /-t_f45924c7f92fa451592603ff05bfb55309ec5ed5-/pngimages/Chapter-4-1/Chapter-4-1-14.png?iorg_service_id_internal=253471785031826%3BAfqKHLXzwPur_SHR 67.41 40.8890247345 1203.98187637 680.262088776 32.2530269623 8.02206993103 1351.03702545
10.50.0.39 31.13.75.37 /-t_0287bd84420b845d38cf919eab3fcb6acf39fa9a-/pngimages/Chapter-4-1/Chapter-4-1-15.png?iorg_service_id_internal=253471785031826%3BAfqKHLXzwPur_SHR 57.9 28.7210941315 285.644054413 763.842821121 32.2291851044 8.6829662323 2189.79716301
10.50.0.39 31.13.75.37 /-t_13eb0159c00b87a1966b95a8f622c8cd07bdb3c7-/pngimages/Chapter-4-1/Chapter-4-1-16.png?iorg_service_id_internal=253471785031826%3BAfqKHLXzwPur_SHR 106.58 34.2638492584 266.221046448 691.981077194 34.4018936157 10.4241371155 3172.76597023
10.50.0.39 31.13.75.37 /-t_c6ec09e728d6d106f3fa0875c438087c50520b64-/pngimages/Chapter-4-1/Chapter-4-1-17.png?iorg_service_id_internal=253471785031826%3BAfqKHLXzwPur_SHR 72.27 26.4148712158 497.687101364 825.320959091 18.9518928528 6.05988502502 1546.81515694
10.50.0.39 31.13.75.37 /-t_53bb9b10788bf7f51961854ae9b1acdfbc3db576-/pngimages/Chapter-4-1/Chapter-4-1-18.png?iorg_service_id_internal=253471785031826%3BAfqKHLXzwPur_SHR 70.59 29.0138721466 424.546003342 747.37405777 34.4290733337 6.81090354919 1625.14615059
10.50.0.39 31.13.93.37 /-t_d5cf128af7783e382069607ed0451000099d7b25-/pngimages/Chapter-4-1/Chapter-4-1-19.png?iorg_service_id_internal=253471785031826%3BAfqKHLXzwPur_SHR 63.47 28.7990570068 473.463058472 1956.29096031 23.745059967 10.4558467865 1914.89911079
10.50.0.39 31.13.75.37 /-t_76d99843784f318b51c93e97cb28ef74e02c833f-/pngimages/Chapter-4-1/Chapter-4-1-2.png?iorg_service_id_internal=253471785031826%3BAfqKHLXzwPur_SHR 62.8 30.9660434723 362.498998642 747.277021408 27.3540019989 10.7839107513 1317.72089005
10.50.0.39 31.13.75.37 /-t_61da80c1533f2866a448f8c0c1d68c18782d6058-/pngimages/Chapter-4-1/Chapter-4-1-20.png?iorg_service_id_internal=253471785031826%3BAfqKHLXzwPur_SHR 68.96 38.9680862427 294.015884399 618.07012558 26.2229442596 8.38708877563 1517.22407341
10.50.0.39 31.13.75.37 /-t_5d1294bf117b4772379ced7a09c54c2bf2b467ae-/pngimages/Chapter-4-1/Chapter-4-1-21.png?iorg_service_id_internal=253471785031826%3BAfqKHLXzwPur_SHR 58.39 31.9349765778 1347.5921154 3055.77301979 26.7660617828 7.36904144287 3103.43003273
10.50.0.39 31.13.93.37 /-t_a99bcddfbfc61acd4f875575904cc14cc225afc1-/pngimages/Chapter-4-1/Chapter-4-1-22.png?iorg_service_id_internal=253471785031826%3BAfqKHLXzwPur_SHR 53.12 23.8981246948 234.690904617 592.941045761 31.9759845734 7.18092918396 1560.04190445
10.50.0.39 31.13.75.37 /-t_cb508467de2ef0c00173fd9e89924f238673dcfa-/pngimages/Chapter-4-1/Chapter-4-1-23.png?iorg_service_id_internal=253471785031826%3BAfqKHLXzwPur_SHR 66.12 31.9249629974 252.307891846 572.436094284 34.2080593109 7.93099403381 4183.98404121
10.50.0.39 31.13.75.37 /-t_358718752c245ba863e2ef2a45466ef18c819f62-/pngimages/Chapter-4-1/Chapter-4-1-24.png?iorg_service_id_internal=253471785031826%3BAfqKHLXzwPur_SHR 70.84 36.0350608826 450.02913475 757.195949554 25.022983551 5.89108467102 1797.81198502
10.50.0.39 31.13.75.37 /-t_fd3cde10833d286e8708f3061444c82f7e5399a0-/pngimages/Chapter-4-1/Chapter-4-1-25.png?iorg_service_id_internal=253471785031826%3BAfqKHLXzwPur_SHR 65.27 37.5778675079 263.736009598 795.511960983 34.8041057587 8.93688201904 1549.41511154
10.50.0.39 31.13.75.37 /-t_437afa0d98d5b33f9e088e441942dec8991277a8-/pngimages/Chapter-4-1/Chapter-4-1-26.png?iorg_service_id_internal=253471785031826%3BAfqKHLXzwPur_SHR 71.04 33.1039428711 456.298112869 1106.13584518 31.0339927673 4.49991226196 1709.05303955
10.50.0.39 31.13.93.37 /-t_c3ea5651b73266c75e342dd4d239bb04a594ff0e-/pngimages/Chapter-4-1/Chapter-4-1-27.png?iorg_service_id_internal=253471785031826%3BAfqKHLXzwPur_SHR 74.42 29.5419692993 222.362041473 696.429014206 29.9479961395 8.10313224792 1851.18103027
10.50.0.39 31.13.75.37 /-t_d7c9827d95baa487ddf9d0e8e7958bf320d8a15b-/pngimages/Chapter-4-1/Chapter-4-1-28.png?iorg_service_id_internal=253471785031826%3BAfqKHLXzwPur_SHR 66.87 29.5288562775 508.619070053 816.245079041 34.6128940582 10.3869438171 1991.30415916
10.50.0.39 31.13.75.37 /-t_cc5a1edfd65aca6c13e4fc0648ad80b009372a01-/pngimages/Chapter-4-1/Chapter-4-1-29.png?iorg_service_id_internal=253471785031826%3BAfqKHLXzwPur_SHR 66.61 31.0430526733 280.204057693 794.744968414 41.690826416 10.4081630707 1476.97615623
10.50.0.39 31.13.75.37 /-t_a1801875a94dcda88b4c7db302e9dd8a76475414-/pngimages/Chapter-4-1/Chapter-4-1-3.png?iorg_service_id_internal=253471785031826%3BAfqKHLXzwPur_SHR 58.42 35.3810787201 272.417068481 956.548929214 33.9140892029 8.28003883362 891.2961483
10.50.0.39 31.13.75.37 /-t_2ba670c0ba2312f25f4bd9124b20187c7496238d-/pngimages/Chapter-4-1/Chapter-4-1-30.png?iorg_service_id_internal=253471785031826%3BAfqKHLXzwPur_SHR 66.8 33.7908267975 410.170078278 680.903911591 30.1320552826 7.8809261322 4148.96583557
10.50.0.39 31.13.93.37 /-t_3c2d717041254d0e2376174f331e56feefb70f32-/pngimages/Chapter-4-1/Chapter-4-1-31.png?iorg_service_id_internal=253471785031826%3BAfqKHLXzwPur_SHR 50.41 26.7570018768 199.706792831 973.318099976 35.5570316315 15.3548717499 1743.33190918
10.50.0.39 31.13.75.37 /-t_ed1a034e0310721db794dab0e113369fff59894c-/pngimages/Chapter-4-1/Chapter-4-1-32.png?iorg_service_id_internal=253471785031826%3BAfqKHLXzwPur_SHR 53.48 30.0550460815 272.163152695 633.045911789 34.9988937378 10.0049972534 1195.75190544
10.50.0.39 31.13.75.37 /-t_e36aa35153c9072e843524bd6cad3253efd80b7d-/pngimages/Chapter-4-1/Chapter-4-1-33.png?iorg_service_id_internal=253471785031826%3BAfqKHLXzwPur_SHR 44.21 26.3140201569 488.931894302 775.624990463 39.5331382751 9.11998748779 755.497932434
10.50.0.39 31.13.75.37 /-t_b44f26914e27a14b80bbce8b159f650f1453db2d-/pngimages/Chapter-4-1/Chapter-4-1-34.png?iorg_service_id_internal=253471785031826%3BAfqKHLXzwPur_SHR 7.75 27.8940200806 270.903110504 899.839878082 27.7941226959 6.2198638916 47.8978157043
10.50.0.39 31.13.75.37 /-t_9d163f96ddf4d89e7b168b2e9071352b127b0af2-/pngimages/Chapter-4-1/Chapter-4-1-4.png?iorg_service_id_internal=253471785031826%3BAfqKHLXzwPur_SHR 56.96 31.2099456787 349.949121475 735.893964767 36.1189842224 13.2949352264 2047.51014709
10.50.0.39 31.13.75.37 /-t_70243f7f79e79f00ee8da157c28033a126ee9067-/pngimages/Chapter-4-1/Chapter-4-1-5.png?iorg_service_id_internal=253471785031826%3BAfqKHLXzwPur_SHR 73.67 24.4429111481 488.617897034 900.871992111 31.7912101746 5.44095039368 1642.38905907
10.50.0.39 31.13.93.37 /-t_72239d369e847ae3c9bc4cc51b912f4a0d6934c5-/pngimages/Chapter-4-1/Chapter-4-1-6.png?iorg_service_id_internal=253471785031826%3BAfqKHLXzwPur_SHR 65.27 28.8469791412 230.946063995 596.941947937 37.3430252075 8.55398178101 1774.1291523
10.50.0.39 31.13.75.37 /-t_9c668e1f4393f97ceba71a645d3aa365cdcf8662-/pngimages/Chapter-4-1/Chapter-4-1-7.png?iorg_service_id_internal=253471785031826%3BAfqKHLXzwPur_SHR 68.5 28.1929969788 447.439908981 1033.20002556 27.1620750427 4.73594665527 2056.65802956
10.50.0.39 31.13.75.37 /-t_a76920bb9f98424cf649ec27f706e9fc2233a24c-/pngimages/Chapter-4-1/Chapter-4-1-8.png?iorg_service_id_internal=253471785031826%3BAfqKHLXzwPur_SHR 48.82 29.2179584503 441.884994507 851.540088654 16.1039829254 5.6619644165 798.516988754
10.50.0.39 31.13.75.37 /-t_89abdd743703bf415e0d1ec83422b5bae903a011-/pngimages/Chapter-4-1/Chapter-4-1-9.png?iorg_service_id_internal=253471785031826%3BAfqKHLXzwPur_SHR 59.49 29.2241573334 360.519886017 798.732995987 33.1480503082 7.8809261322 1841.90106392
10.50.0.39 31.13.93.37 /Chapter-5-1/Chapter-5-1.php?iorg_service_id_internal=253471785031826%3BAfqKHLXzwPur_SHR 10.9 30.492067337 194.736003876 842.797994614 24.0797996521 4.96792793274 44.8179244995
10.50.0.39 31.13.75.37 /-t_7c2931e3d890eada6090130faa603d5f8d49533a-/pngimages/Chapter-5-1/Chapter-5-1-0.png?iorg_service_id_internal=253471785031826%3BAfqKHLXzwPur_SHR 63.89 35.5350971222 293.256998062 606.606960297 40.5271053314 14.5599842072 3339.67900276
10.50.0.39 31.13.75.37 /-t_25a13a488eddd939babe46c386147736d29f259d-/pngimages/Chapter-5-1/Chapter-5-1-1.png?iorg_service_id_internal=253471785031826%3BAfqKHLXzwPur_SHR 62.9 28.5511016846 483.632802963 823.332071304 32.2289466858 8.99600982666 2139.90497589
10.50.0.39 31.13.75.37 /-t_c6db8dc5beabdad4e43261163b9605f4d13c1327-/pngimages/Chapter-5-1/Chapter-5-1-10.png?iorg_service_id_internal=253471785031826%3BAfqKHLXzwPur_SHR 67.68 27.4469852448 449.69701767 869.338989258 31.5787792206 7.89213180542 1629.16994095
10.50.0.39 31.13.75.37 /-t_f4e956d0f5a15f8ec5f95ed0d1ec29736343e241-/pngimages/Chapter-5-1/Chapter-5-1-11.png?iorg_service_id_internal=253471785031826%3BAfqKHLXzwPur_SHR 53.99 29.247045517 502.321004868 697.886943817 37.5549793243 7.78102874756 982.712984085
10.50.0.39 31.13.93.37 /-t_23adae7e778173666d8ef238bd697ae1e0eebeab-/pngimages/Chapter-5-1/Chapter-5-1-12.png?iorg_service_id_internal=253471785031826%3BAfqKHLXzwPur_SHR 59.63 35.8610153198 208.575963974 794.881820679 33.0400466919 13.9720439911 1903.33104134
10.50.0.39 31.13.75.37 /-t_3dfb3f517f708bf6224ef89a3878c6ee2e5c7a90-/pngimages/Chapter-5-1/Chapter-5-1-13.png?iorg_service_id_internal=253471785031826%3BAfqKHLXzwPur_SHR 63.9 33.3099365234 414.710044861 912.473917007 32.4730873108 8.69798660278 1623.22282791
10.50.0.39 31.13.75.37 /-t_4c1b0acbaabd4710b0165ebcf88f975b8703091a-/pngimages/Chapter-5-1/Chapter-5-1-14.png?iorg_service_id_internal=253471785031826%3BAfqKHLXzwPur_SHR 68.48 35.3000164032 449.314117432 646.944046021 31.6388607025 7.96103477478 2456.09998703
10.50.0.39 31.13.75.37 /-t_84f18728e0732c4fbc2e508b58a8288ff4983675-/pngimages/Chapter-5-1/Chapter-5-1-15.png?iorg_service_id_internal=253471785031826%3BAfqKHLXzwPur_SHR 69.97 30.6079387665 713.778972626 650.971889496 40.5330657959 14.8470401764 1530.54594994
10.50.0.39 31.13.75.37 /-t_f5579d0914cb3fefab121a3b0e7fbea023dc3cab-/pngimages/Chapter-5-1/Chapter-5-1-16.png?iorg_service_id_internal=253471785031826%3BAfqKHLXzwPur_SHR 63.76 36.3659858704 467.083215714 685.8959198 31.8179130554 10.2970600128 1237.65587807
10.50.0.39 31.13.93.37 /-t_f82552fc89bd274ac0ee3d2fd55986d2570aa27f-/pngimages/Chapter-5-1/Chapter-5-1-17.png?iorg_service_id_internal=253471785031826%3BAfqKHLXzwPur_SHR 66.14 30.6179523468 223.51193428 455.446958542 38.5181903839 8.20708274841 1179.91018295
10.50.0.39 31.13.75.37 /-t_686c273524a69158db9fbb0b6065417ad44e0053-/pngimages/Chapter-5-1/Chapter-5-1-18.png?iorg_service_id_internal=253471785031826%3BAfqKHLXzwPur_SHR 68.86 34.7669124603 265.207052231 615.839004517 39.9680137634 8.57400894165 1516.50595665
10.50.0.39 31.13.75.37 /-t_37a9ce70d6fdbd87fc8718efe2490e44e06b2799-/pngimages/Chapter-5-1/Chapter-5-1-19.png?iorg_service_id_internal=253471785031826%3BAfqKHLXzwPur_SHR 70.86 29.7660827637 269.477844238 748.265028 39.0040874481 9.63711738586 1563.67897987
10.50.0.39 31.13.75.37 / content) 29.6280384064 592.972993851 789.951086044 43.662071228 4.94718551636 28.6340713501
10.50.0.39 31.13.75.37 /welcome?next=https%3A%2F%2F0.freebasics.com%2F 28.89 31.8198204041 297.420978546 660.003185272 33.0278873444 5.40590286255 424.510002136
10.50.0.39 31.13.75.37 /welcome?next=https%3A%2F%2F0.freebasics.com%2F content) 33.8418483734 554.002046585 898.071050644 27.2450447083 6.61301612854 27.4648666382
10.50.0.39 31.13.75.37 / content) 31.4810276031 323.246955872 705.692052841 35.4330539703 9.15598869324 48.2409000397
10.50.0.39 31.13.75.37 /?_h=1 65.22 29.5701026917 360.363960266 765.669107437 28.6149978638 7.03406333923 1881.49905205
10.50.0.39 31.13.75.37 /searchservices 55.76 35.9199047089 267.727136612 730.048894882 26.1659622192 6.14500045776 1653.93805504
10.50.0.39 31.13.75.37 /searchservices?offset=0&next=%D8%A7%DA%AF%D9%84%D8%A7 57.66 35.8998775482 361.123085022 630.86104393 34.6279144287 6.18886947632 2776.25203133
10.50.0.39 31.13.93.37 /searchservices?offset=20&next=%D8%A7%DA%AF%D9%84%D8%A7 57.57 33.0450534821 195.178985596 462.10193634 46.3211536407 14.1379833221 845.409870148
10.50.0.39 31.13.75.37 /searchservices?offset=40&next=%D8%A7%DA%AF%D9%84%D8%A7 57.47 27.5659561157 278.586149216 759.388923645 34.453868866 8.83603096008 2657.42182732
10.50.0.39 31.13.75.37 /addservice?service_id=253471785031826&previous_url=https%3A%2F%2F0.freebasics.com%2Fsearchservices%3Foffset%3D40%26next%3D%25D8%25A7%25DA%25AF%25D9%2584%25D8%25A7 28.52 42.5000190735 601.382017136 1266.24488831 35.0730419159 8.13603401184 314.753055573
10.50.0.39 31.13.75.37 /addservice?service_id=253471785031826&previous_url=https%3A%2F%2F0.freebasics.com%2Fsearchservices%3Foffset%3D40%26next%3D%25D8%25A7%25DA%25AF%25D9%2584%25D8%25A7 content) 29.7350883484 370.513916016 647.578954697 34.8579883575 12.3631954193 45.0780391693
10.50.0.39 31.13.75.37 /l?next=https%3A%2F%2Fhttp-learnbasics-mpi--sws-org.0.freebasics.com%2F%3Fiorg_service_id_internal%3D253471785031826%253BAfqKHLXzwPur_SHR&h=AXTcDGeOUnc257rl&ref=add_service&service_id=253471785031826 content) 32.1588516235 372.63917923 905.835866928 32.3359966278 18.6250209808 35.6848239899
10.50.0.39 31.13.75.37 /?iorg_service_id_internal=253471785031826%3BAfqKHLXzwPur_SHR 10.43 24.1379737854 269.494056702 712.553024292 39.2668247223 9.28807258606 54.1930198669
10.50.0.39 31.13.75.37 /available-courses.html?iorg_service_id_internal=253471785031826%3BAfqKHLXzwPur_SHR 10.68 27.3230075836 324.792861938 717.612981796 28.2771587372 5.29098510742 38.3458137512
10.50.0.39 31.13.93.37 /stand-up-and-speak-out-the-practice-and-ethics-of-public-speaking.html?iorg_service_id_internal=253471785031826%3BAfqKHLXzwPur_SHR 16.41 28.2921791077 1206.13884926 524.477005005 31.25 10.0150108337 253.551006317
10.50.0.39 31.13.75.37 /writing-for-success-learn-english-writing.html?iorg_service_id_internal=253471785031826%3BAfqKHLXzwPur_SHR 14.09 31.4249992371 271.119117737 871.187925339 26.9529819489 10.057926178 387.525081635
10.50.0.39 31.13.75.37 /communication-skills-for-academics.html?iorg_service_id_internal=253471785031826%3BAfqKHLXzwPur_SHR 9.84 26.8001556396 450.985908508 790.479898453 32.1660041809 10.9858512878 39.736032486
10.50.0.39 31.13.75.37 /english-listening-speaking-and-pronunciation.html?iorg_service_id_internal=253471785031826%3BAfqKHLXzwPur_SHR 16.01 32.4499607086 459.796190262 788.349866867 28.8920402527 10.2000236511 370.903015137
10.50.0.39 31.13.75.37 /basic-algebra.html?iorg_service_id_internal=253471785031826%3BAfqKHLXzwPur_SHR 12.34 25.074005127 259.216785431 557.898044586 12.3870372772 4.17900085449 394.810914993
10.50.0.39 31.13.75.37 /basic-probability-and-statistics.html?iorg_service_id_internal=253471785031826%3BAfqKHLXzwPur_SHR 12.46 38.6188030243 290.733098984 847.51701355 44.6350574493 9.93299484253 335.901021957
10.50.0.39 31.13.75.37 /geometry.html?iorg_service_id_internal=253471785031826%3BAfqKHLXzwPur_SHR 12.74 32.2420597076 261.620044708 556.499004364 27.804851532 4.0979385376 377.714157104
10.50.0.39 31.13.93.37 /mathematical-proofs.html?iorg_service_id_internal=253471785031826%3BAfqKHLXzwPur_SHR 14.37 24.8329639435 320.526838303 542.261123657 29.2119979858 12.638092041 378.903150558
10.50.0.39 31.13.75.37 /leaving?p=1&continueuri=https%3A%2F%2Fwordpress.org%2F&backuri=https%3A%2F%2Fhttp-learnbasics-mpi--sws-org.0.freebasics.com%2Favailable-courses.html%3Fiorg_service_id_internal%3D253471785031826%253BAfqKHLXzwPur_SHR&why=i_list&service_id=253471785031826 28.87 36.2269878387 270.28298378 797.060966492 31.7668914795 14.1749382019 733.631134033
10.50.0.39 31.13.75.37 /Chapter-1-1/Chapter-1-1.php?iorg_service_id_internal=253471785031826%3BAfqKHLXzwPur_SHR 6.47 28.2709598541 646.617889404 604.525089264 28.7101268768 11.2128257751 49.4959354401
10.50.0.39 31.13.75.37 /-t_48c884f057082803caf37b90838c87af5529d79e-/pngimages/Chapter-1-1/Chapter-1-1-0.png?iorg_service_id_internal=253471785031826%3BAfqKHLXzwPur_SHR 76.82 27.0290374756 347.454071045 667.951822281 38.782119751 13.396024704 1912.66012192
10.50.0.39 31.13.75.37 /-t_239aad2c38b911a838e34baef015d58490ae80cc-/pngimages/Chapter-1-1/Chapter-1-1-1.png?iorg_service_id_internal=253471785031826%3BAfqKHLXzwPur_SHR 68.36 29.7300815582 278.950929642 874.759912491 28.9580821991 7.73596763611 1850.0521183
10.50.0.39 31.13.75.37 /-t_51ab70ab5146d5453354693179cb83a9b1971fc5-/pngimages/Chapter-1-1/Chapter-1-1-10.png?iorg_service_id_internal=253471785031826%3BAfqKHLXzwPur_SHR 70.42 23.9419937134 360.524177551 861.479997635 39.3199920654 7.87496566772 1469.21014786
10.50.0.39 31.13.93.37 /-t_c84dfd060c4a779facd5f75d18d761092172cdda-/pngimages/Chapter-1-1/Chapter-1-1-11.png?iorg_service_id_internal=253471785031826%3BAfqKHLXzwPur_SHR 61.95 33.6039066315 238.631010056 1469.40207481 33.1249237061 9.65189933777 2933.93397331
10.50.0.39 31.13.75.37 /-t_ba807859e26d5e6571b0a3f7e67d5c86b2285c5f-/pngimages/Chapter-1-1/Chapter-1-1-12.png?iorg_service_id_internal=253471785031826%3BAfqKHLXzwPur_SHR 57.53 28.3420085907 301.958799362 841.418027878 46.1890697479 13.7820243835 2006.74295425
10.50.0.39 31.13.75.37 /-t_51a06c89751f672f88f45bdec218457334126f20-/pngimages/Chapter-1-1/Chapter-1-1-13.png?iorg_service_id_internal=253471785031826%3BAfqKHLXzwPur_SHR 50.63 28.9151668549 486.587047577 1032.4139595 32.644033432 7.7850818634 1495.73707581
10.50.0.39 31.13.75.37 /-t_f8fa29b0a029fcd136011f89d301b66a6234a554-/pngimages/Chapter-1-1/Chapter-1-1-14.png?iorg_service_id_internal=253471785031826%3BAfqKHLXzwPur_SHR 6.74 30.1198959351 318.084001541 689.985990524 35.9101295471 14.0299797058 45.3898906708
10.50.0.39 31.13.75.37 /-t_f6cafa07db6e2154ed4643f8dbf47421c11555dd-/pngimages/Chapter-1-1/Chapter-1-1-2.png?iorg_service_id_internal=253471785031826%3BAfqKHLXzwPur_SHR 63.5 32.0210456848 385.113954544 759.099006653 34.8489284515 7.59792327881 1974.04408455
10.50.0.39 31.13.93.37 /-t_9b2485a7decf90b9d80de0e2ca48aaf0a9eb4002-/pngimages/Chapter-1-1/Chapter-1-1-3.png?iorg_service_id_internal=253471785031826%3BAfqKHLXzwPur_SHR 68.53 32.0858955383 232.637166977 812.659978867 28.815984726 7.39693641663 1023.00405502
10.50.0.39 31.13.75.37 /-t_3751f9b88c23e65d6f4577a9f7a863111888c003-/pngimages/Chapter-1-1/Chapter-1-1-4.png?iorg_service_id_internal=253471785031826%3BAfqKHLXzwPur_SHR 68.71 28.0699729919 271.968126297 749.34387207 29.1669368744 10.7550621033 1377.69508362
10.50.0.39 31.13.75.37 /-t_aa7aeafc761cfcc38648c326f0e9f2b7a3fcc40c-/pngimages/Chapter-1-1/Chapter-1-1-5.png?iorg_service_id_internal=253471785031826%3BAfqKHLXzwPur_SHR 85.38 31.8720340729 451.951980591 710.428953171 40.2660369873 14.8839950562 1937.27421761
10.50.0.39 31.13.75.37 /-t_7508eec5ec2cedaff8eb0b3f8b76b8bd4e204feb-/pngimages/Chapter-1-1/Chapter-1-1-6.png?iorg_service_id_internal=253471785031826%3BAfqKHLXzwPur_SHR 74.49 30.7729244232 271.270990372 818.41301918 28.2571315765 12.1819972992 1853.26099396
10.50.0.39 31.13.93.37 /-t_bc37b138ad423886a6cd7dec28360f771d77017b-/pngimages/Chapter-1-1/Chapter-1-1-7.png?iorg_service_id_internal=253471785031826%3BAfqKHLXzwPur_SHR 106.83 35.5570316315 406.01682663 600.615978241 39.0501022339 12.463092804 2756.57510757
10.50.0.39 31.13.75.37 /-t_29923b2c0deb20544ff42c12e6e02418f9d56400-/pngimages/Chapter-1-1/Chapter-1-1-8.png?iorg_service_id_internal=253471785031826%3BAfqKHLXzwPur_SHR 61.18 33.4548950195 261.218070984 621.66595459 28.037071228 5.46622276306 1682.67011642
10.50.0.39 31.13.75.37 /-t_2706929da2f72584ec770c7ae471d78e81a5e213-/pngimages/Chapter-1-1/Chapter-1-1-9.png?iorg_service_id_internal=253471785031826%3BAfqKHLXzwPur_SHR 69.48 33.4141254425 269.6788311 852.515935898 32.172203064 9.3948841095 2127.55393982
10.50.0.39 31.13.75.37 /Chapter-2-1/Chapter-2-1.php?iorg_service_id_internal=253471785031826%3BAfqKHLXzwPur_SHR 9 31.3889980316 318.65811348 758.848905563 29.9501419067 10.0510120392 42.2990322113
10.50.0.39 31.13.75.37 /-t_3e68154781c7f2554f8e236d09d701e4801a7860-/pngimages/Chapter-2-1/Chapter-2-1-0.png?iorg_service_id_internal=253471785031826%3BAfqKHLXzwPur_SHR 51.23 36.1590385437 265.382051468 1067.92092323 34.8060131073 10.8540058136 676.87702179
10.50.0.39 31.13.93.37 /-t_f4f9b775801ce2e1d0ca26fe46c06e81ef1b433b-/pngimages/Chapter-2-1/Chapter-2-1-1.png?iorg_service_id_internal=253471785031826%3BAfqKHLXzwPur_SHR 72.52 32.5350761414 392.00091362 1634.29307938 32.8278541565 7.23195075989 2635.76602936
10.50.0.39 31.13.75.37 /-t_840f36f2560a4b80243bd63aad9a58fd4a68c9e2-/pngimages/Chapter-2-1/Chapter-2-1-10.png?iorg_service_id_internal=253471785031826%3BAfqKHLXzwPur_SHR 75.02 31.259059906 285.840988159 707.43894577 38.1262302399 14.0869617462 1956.38418198
10.50.0.39 31.13.75.37 /-t_51b7946a394a81382cc0348bddbe02fad620880a-/pngimages/Chapter-2-1/Chapter-2-1-11.png?iorg_service_id_internal=253471785031826%3BAfqKHLXzwPur_SHR 72.8 29.8500061035 364.475011826 881.278991699 34.8470211029 7.86089897156 1804.68988419
10.50.0.39 31.13.75.37 /-t_cdf7048815fa882a9cd1f1e3cef60992bc0d49d0-/pngimages/Chapter-2-1/Chapter-2-1-12.png?iorg_service_id_internal=253471785031826%3BAfqKHLXzwPur_SHR 70.92 31.5959453583 282.670021057 936.545848846 32.9442024231 5.00702857971 1869.61197853
10.50.0.39 31.13.75.37 /-t_4f30b6b562401b8f98554fabfa3627b6acd0fac6-/pngimages/Chapter-2-1/Chapter-2-1-13.png?iorg_service_id_internal=253471785031826%3BAfqKHLXzwPur_SHR 67.7 23.9400863647 260.550022125 977.011919022 30.7149887085 8.70394706726 1374.73106384
10.50.0.39 31.13.75.37 /-t_7c1d88f6233fbfdd678b2a25f8d9e6b245b68f16-/pngimages/Chapter-2-1/Chapter-2-1-14.png?iorg_service_id_internal=253471785031826%3BAfqKHLXzwPur_SHR 66.55 35.206079483 242.424964905 913.094043732 23.8189697266 8.13913345337 1654.21891212
10.50.0.39 31.13.75.37 /-t_a37717138dfd39d12905dbfd2e2a0e403f48dffd-/pngimages/Chapter-2-1/Chapter-2-1-15.png?iorg_service_id_internal=253471785031826%3BAfqKHLXzwPur_SHR 70.84 33.4730148315 363.6739254 772.344112396 34.3780517578 13.0920410156 1882.27391243
10.50.0.39 31.13.75.37 /-t_fa4eb8212a77636a50f4b15ec4cdd5557e5df184-/pngimages/Chapter-2-1/Chapter-2-1-16.png?iorg_service_id_internal=253471785031826%3BAfqKHLXzwPur_SHR 64.71 35.1088047028 458.159208298 864.233016968 40.6627655029 14.4820213318 1089.82086182
10.50.0.39 31.13.75.37 /-t_2a892ee456e025805848bbe56b51aff15737aaac-/pngimages/Chapter-2-1/Chapter-2-1-17.png?iorg_service_id_internal=253471785031826%3BAfqKHLXzwPur_SHR 67.03 33.6129665375 283.705949783 605.774879456 32.6039791107 9.35697555542 1601.24921799
10.50.0.39 31.13.93.37 /-t_afcf1096e006d2a19e3e68de2e2cc20a1f73d069-/pngimages/Chapter-2-1/Chapter-2-1-18.png?iorg_service_id_internal=253471785031826%3BAfqKHLXzwPur_SHR 74.03 38.3780002594 1357.75899887 613.499879837 37.5092029572 9.06109809875 1735.16893387
10.50.0.39 31.13.75.37 /-t_6a6d326af750b6d336bffe753984fc32bb5fcc0b-/pngimages/Chapter-2-1/Chapter-2-1-19.png?iorg_service_id_internal=253471785031826%3BAfqKHLXzwPur_SHR 60.77 30.6539535522 264.595985413 606.034994125 35.9880924225 8.36205482483 1439.48912621
10.50.0.39 31.13.75.37 /-t_9d2632065dd1cfd2a1f48ab92f4974ac11c6d4a2-/pngimages/Chapter-2-1/Chapter-2-1-2.png?iorg_service_id_internal=253471785031826%3BAfqKHLXzwPur_SHR 69.16 25.8610248566 379.760980606 827.267169952 33.3638191223 10.5900764465 1768.65410805
10.50.0.39 31.13.75.37 /-t_003854b3065e17ffdca319b9e4eb8dcee979b926-/pngimages/Chapter-2-1/Chapter-2-1-20.png?iorg_service_id_internal=253471785031826%3BAfqKHLXzwPur_SHR 52.73 37.4348163605 429.150104523 829.86998558 42.6700115204 7.83705711365 1074.11503792
10.50.0.39 31.13.75.37 /-t_7c44abd0f81aa612738998cdaa99cef584acf3a0-/pngimages/Chapter-2-1/Chapter-2-1-21.png?iorg_service_id_internal=253471785031826%3BAfqKHLXzwPur_SHR 58.92 34.835100174 1184.47899818 815.6478405 35.5970859528 9.56702232361 2899.71590042
10.50.0.39 31.13.93.37 /-t_4c57008ae6495567aa3a82ffeb3c8a6d7fa7ce93-/pngimages/Chapter-2-1/Chapter-2-1-22.png?iorg_service_id_internal=253471785031826%3BAfqKHLXzwPur_SHR 63.48 41.0830974579 385.030984879 809.715032578 35.4068279266 9.90581512451 1585.44397354
10.50.0.39 31.13.75.37 /-t_3a1a1845bee65d3d512f6ca9b0521e588cacd1b6-/pngimages/Chapter-2-1/Chapter-2-1-23.png?iorg_service_id_internal=253471785031826%3BAfqKHLXzwPur_SHR 64.7 37.7531051636 313.495874405 864.902973175 38.7861728668 8.29195976257 1945.00589371
10.50.0.39 31.13.75.37 /-t_446b55e1dc438717deaa29b4a5ccc42c4edf4036-/pngimages/Chapter-2-1/Chapter-2-1-24.png?iorg_service_id_internal=253471785031826%3BAfqKHLXzwPur_SHR 58.88 25.0201225281 539.337873459 787.384033203 41.8310165405 8.59093666077 2695.17803192
10.50.0.39 31.13.75.37 /-t_430c02850d8a2977918d0bb003bec762d082e627-/pngimages/Chapter-2-1/Chapter-2-1-25.png?iorg_service_id_internal=253471785031826%3BAfqKHLXzwPur_SHR 28.69 29.2251110077 374.78685379 852.749109268 29.1168689728 8.15200805664 297.89686203
10.50.0.39 31.13.75.37 /-t_9705a600e5f5a3b377c7b991e0cef204de1a2141-/pngimages/Chapter-2-1/Chapter-2-1-26.png?iorg_service_id_internal=253471785031826%3BAfqKHLXzwPur_SHR 6.39 30.403137207 380.220890045 810.935974121 32.3419570923 8.44097137451 43.7078475952
10.50.0.39 31.13.93.37 /-t_c0140fa05c8f7750587f62dbdafe731164a119d5-/pngimages/Chapter-2-1/Chapter-2-1-3.png?iorg_service_id_internal=253471785031826%3BAfqKHLXzwPur_SHR 70.96 34.9669456482 476.823091507 808.560848236 34.7650051117 10.0071430206 1736.31000519
10.50.0.39 31.13.75.37 /-t_a337ddf160732e59eeb35c0b52c01c2f2f08a847-/pngimages/Chapter-2-1/Chapter-2-1-4.png?iorg_service_id_internal=253471785031826%3BAfqKHLXzwPur_SHR 54.66 38.2809638977 365.927934647 824.39494133 40.6551361084 13.3221149445 766.496896744
10.50.0.39 31.13.75.37 /-t_68926a6f065839e10b38d6765c41f72e22afee78-/pngimages/Chapter-2-1/Chapter-2-1-5.png?iorg_service_id_internal=253471785031826%3BAfqKHLXzwPur_SHR 47.37 28.9680957794 373.279094696 875.694036484 24.2118835449 9.01508331299 758.460044861
10.50.0.39 31.13.75.37 /-t_77a8e9381333f198d32a9fdb61fef50aec883d80-/pngimages/Chapter-2-1/Chapter-2-1-6.png?iorg_service_id_internal=253471785031826%3BAfqKHLXzwPur_SHR 61.97 30.1148891449 482.933044434 649.248123169 33.7979793549 9.63997840881 1138.80300522
10.50.0.39 31.13.75.37 /-t_4f3ed3c48faff7c6e2c6b2b8c678f028ee364938-/pngimages/Chapter-2-1/Chapter-2-1-7.png?iorg_service_id_internal=253471785031826%3BAfqKHLXzwPur_SHR 62 31.0041904449 271.745920181 592.120885849 36.1461639404 13.6229991913 1617.09904671
10.50.0.39 31.13.93.37 /-t_89ad8be55b5f92c0dd48cb7997d84ab3a010b858-/pngimages/Chapter-2-1/Chapter-2-1-8.png?iorg_service_id_internal=253471785031826%3BAfqKHLXzwPur_SHR 70.46 32.0551395416 1201.01094246 471.974849701 19.9480056763 3.9529800415 2646.44289017
10.50.0.39 31.13.75.37 /-t_6a2cc070393406f0e30e853056f928a29fd16179-/pngimages/Chapter-2-1/Chapter-2-1-9.png?iorg_service_id_internal=253471785031826%3BAfqKHLXzwPur_SHR 76.07 28.167963028 416.839122772 882.215023041 33.8909626007 7.24697113037 1709.5849514
10.50.0.39 31.13.75.37 /Chapter-3-1/Chapter-3-1.php?iorg_service_id_internal=253471785031826%3BAfqKHLXzwPur_SHR 8.58 36.6129875183 551.03802681 711.889028549 21.2709903717 5.40995597839 52.3860454559
10.50.0.39 31.13.75.37 /-t_7c8ed2af30b42ff75238df4f50ecc5d4d02dee1f-/pngimages/Chapter-3-1/Chapter-3-1-0.png?iorg_service_id_internal=253471785031826%3BAfqKHLXzwPur_SHR 6.39 28.6440849304 288.013935089 832.154035568 24.8670578003 11.2328529358 45.6500053406
10.50.0.39 31.13.75.37 /-t_189f01c6e9bea10f9489fe47c2a589b64946d652-/pngimages/Chapter-3-1/Chapter-3-1-1.png?iorg_service_id_internal=253471785031826%3BAfqKHLXzwPur_SHR 62.09 27.6350975037 363.265037537 746.643066406 28.6469459534 7.39097595215 3141.59989357
10.50.0.39 31.13.93.37 /-t_250dc7ce98afa972fff8bba5d8a79c5293a329ad-/pngimages/Chapter-3-1/Chapter-3-1-10.png?iorg_service_id_internal=253471785031826%3BAfqKHLXzwPur_SHR 64.38 34.628868103 219.890117645 713.230848312 35.8910560608 8.85105133057 2108.67118835
10.50.0.39 31.13.75.37 /-t_d354ebf49a67488d39244024187fda876b07eba8-/pngimages/Chapter-3-1/Chapter-3-1-11.png?iorg_service_id_internal=253471785031826%3BAfqKHLXzwPur_SHR 67.07 35.1500511169 264.474868774 628.781080246 30.5769443512 9.38296318054 1955.13796806
10.50.0.39 31.13.75.37 /-t_cb88999b10143347c0ee09986bb38a34e3a1b398-/pngimages/Chapter-3-1/Chapter-3-1-12.png?iorg_service_id_internal=253471785031826%3BAfqKHLXzwPur_SHR 56.21 32.1269035339 413.534879684 1080.71017265 30.2288532257 13.3619308472 1569.98491287
10.50.0.39 31.13.75.37 /-t_1a190f35eb133d0c299d4e098c8825b5247fe812-/pngimages/Chapter-3-1/Chapter-3-1-13.png?iorg_service_id_internal=253471785031826%3BAfqKHLXzwPur_SHR 72.23 36.828994751 309.223890305 2408.79416466 37.6789569855 8.76402854919 2240.00883102
10.50.0.39 31.13.75.37 /-t_a0ec4a2786251bc4fdd2a19ebe1a3f15d43979d1-/pngimages/Chapter-3-1/Chapter-3-1-14.png?iorg_service_id_internal=253471785031826%3BAfqKHLXzwPur_SHR 63.76 30.9720039368 1271.19684219 650.995016098 36.731004715 7.84206390381 2646.38495445
10.50.0.39 31.13.93.37 /-t_f782020c321afcb2246ceaa756e57a1e52b6c3ca-/pngimages/Chapter-3-1/Chapter-3-1-15.png?iorg_service_id_internal=253471785031826%3BAfqKHLXzwPur_SHR 67.5 30.797958374 224.406003952 542.132854462 34.252166748 8.33296775818 1132.08794594
10.50.0.39 31.13.75.37 /-t_6e3324b6f966660b172b9f5fb1abeb443e20d763-/pngimages/Chapter-3-1/Chapter-3-1-16.png?iorg_service_id_internal=253471785031826%3BAfqKHLXzwPur_SHR 69.54 25.8269309998 408.720016479 712.061882019 29.9999713898 8.54110717773 1525.75707436
10.50.0.39 31.13.75.37 /-t_9c4e1f022f8cdf94b962559d3b3aa93de51a0a32-/pngimages/Chapter-3-1/Chapter-3-1-17.png?iorg_service_id_internal=253471785031826%3BAfqKHLXzwPur_SHR 62.34 31.8059921265 277.406930923 812.251091003 43.6358451843 9.69004631042 3950.20794868
10.50.0.39 31.13.75.37 /-t_7d8647697ec992763bcf6b56bf113b61bcc0af02-/pngimages/Chapter-3-1/Chapter-3-1-18.png?iorg_service_id_internal=253471785031826%3BAfqKHLXzwPur_SHR 67.63 34.2609882355 488.952875137 799.79801178 35.7141494751 9.57489013672 1674.11899567
10.50.0.39 31.13.75.37 /-t_b6a3ad0e05ffd27629b3060f35ad6ad0234e93aa-/pngimages/Chapter-3-1/Chapter-3-1-19.png?iorg_service_id_internal=253471785031826%3BAfqKHLXzwPur_SHR 63.23 30.1971435547 347.988843918 1096.8580246 55.0730228424 4.81700897217 1929.36086655
10.50.0.39 31.13.75.37 /-t_45dd1cdca43bb504dc9f5be1db64d3c5d721821e-/pngimages/Chapter-3-1/Chapter-3-1-2.png?iorg_service_id_internal=253471785031826%3BAfqKHLXzwPur_SHR 69.62 33.8499546051 273.005008698 858.443021774 24.7621536255 4.61602210999 1999.68695641
10.50.0.39 31.13.75.37 /-t_5975a720fe9d383bfbf2e1e80371db68c387d25b-/pngimages/Chapter-3-1/Chapter-3-1-20.png?iorg_service_id_internal=253471785031826%3BAfqKHLXzwPur_SHR 74.29 34.3000888824 275.579929352 611.005067825 28.9399623871 9.25993919373 1533.49900246
10.50.0.39 31.13.75.37 /-t_48bd9e693ef6ba216641a3029b9e114f26631c45-/pngimages/Chapter-3-1/Chapter-3-1-21.png?iorg_service_id_internal=253471785031826%3BAfqKHLXzwPur_SHR 61.27 35.4659557343 305.255889893 887.098073959 16.2100791931 4.27293777466 1554.85296249
10.50.0.39 31.13.75.37 /-t_7937a2c78c3ce3e3ecbda07e54eb4bd0e186f348-/pngimages/Chapter-3-1/Chapter-3-1-22.png?iorg_service_id_internal=253471785031826%3BAfqKHLXzwPur_SHR 58.38 32.1898460388 274.384975433 673.210144043 38.4058952332 9.65595245361 1981.13703728
10.50.0.39 31.13.75.37 /-t_f332f56b38d00a7b1590640a95214d91da80d02c-/pngimages/Chapter-3-1/Chapter-3-1-23.png?iorg_service_id_internal=253471785031826%3BAfqKHLXzwPur_SHR 65.71 31.7349433899 406.279087067 755.834102631 33.4060192108 7.16495513916 3581.79712296
10.50.0.39 31.13.93.37 /-t_c8d5e926de32fd2514111a092ca514dcf1679788-/pngimages/Chapter-3-1/Chapter-3-1-24.png?iorg_service_id_internal=253471785031826%3BAfqKHLXzwPur_SHR 57.36 33.3058834076 212.30006218 853.867053986 34.6548557281 6.5438747406 1865.37480354
10.50.0.39 31.13.75.37 /-t_9265011c4e5a1492f539a59a69cd1d5b40179949-/pngimages/Chapter-3-1/Chapter-3-1-3.png?iorg_service_id_internal=253471785031826%3BAfqKHLXzwPur_SHR 70.19 30.256986618 360.847949982 769.467115402 32.821893692 6.99305534363 2067.21496582
10.50.0.39 31.13.75.37 /-t_53ff8861d309ce85d13bd31fa2ff28808c03207d-/pngimages/Chapter-3-1/Chapter-3-1-4.png?iorg_service_id_internal=253471785031826%3BAfqKHLXzwPur_SHR 69.17 36.4730358124 263.710975647 811.054944992 39.8199558258 16.6058540344 1677.21414566
10.50.0.39 31.13.75.37 /-t_c592a7afa36dad5d5096b331132402bb2bca1c61-/pngimages/Chapter-3-1/Chapter-3-1-5.png?iorg_service_id_internal=253471785031826%3BAfqKHLXzwPur_SHR 71.29 30.0419330597 269.062042236 975.885868073 33.2379341125 13.6499404907 3132.46798515
10.50.0.39 31.13.75.37 /-t_8b742532527bdb11660592d1115947993fb3096d-/pngimages/Chapter-3-1/Chapter-3-1-6.png?iorg_service_id_internal=253471785031826%3BAfqKHLXzwPur_SHR 69.37 31.6660404205 1322.80302048 4261.67082787 41.435956955 9.33313369751 1325.02317429
10.50.0.39 31.13.93.37 /-t_06bc0fc052e5faff22b3913585f50e134194254f-/pngimages/Chapter-3-1/Chapter-3-1-7.png?iorg_service_id_internal=253471785031826%3BAfqKHLXzwPur_SHR 50.96 27.899980545 200.792074203 502.058029175 35.4619026184 6.33811950684 765.051841736
10.50.0.39 31.13.75.37 /-t_94b723057fba86e2ee38a588f9a79fabaa357fc8-/pngimages/Chapter-3-1/Chapter-3-1-8.png?iorg_service_id_internal=253471785031826%3BAfqKHLXzwPur_SHR 69.96 35.3240966797 305.860996246 579.583883286 28.862953186 13.1380558014 1350.82292557
10.50.0.39 31.13.75.37 /-t_5d6832d23bb4e9dbde58855a1fb398afb6b754e9-/pngimages/Chapter-3-1/Chapter-3-1-9.png?iorg_service_id_internal=253471785031826%3BAfqKHLXzwPur_SHR 58.62 43.1180000305 434.380054474 767.489910126 34.2400074005 8.48388671875 1693.36700439
10.50.0.39 31.13.75.37 /Chapter-4-1/Chapter-4-1.php?iorg_service_id_internal=253471785031826%3BAfqKHLXzwPur_SHR 10.69 27.0628929138 336.302042007 797.938108444 24.8680114746 8.42094421387 35.2399349213
10.50.0.39 31.13.75.37 /-t_e65cb3d2060b8a9f34a79835d4890b8660b2e5b0-/pngimages/Chapter-4-1/Chapter-4-1-0.png?iorg_service_id_internal=253471785031826%3BAfqKHLXzwPur_SHR 62.53 27.7149677277 297.034978867 746.948003769 40.3130054474 9.04393196106 1951.597929
10.50.0.39 31.13.93.37 /-t_b51335ea3f94a4aabe01fb6265ac34b3e8f9e713-/pngimages/Chapter-4-1/Chapter-4-1-1.png?iorg_service_id_internal=253471785031826%3BAfqKHLXzwPur_SHR 71.77 27.4369716644 291.083812714 1057.48200417 36.2601280212 9.61208343506 1892.31586456
10.50.0.39 31.13.75.37 /-t_b57caf5c7744298f18c24bcf41b20ffac85613c4-/pngimages/Chapter-4-1/Chapter-4-1-10.png?iorg_service_id_internal=253471785031826%3BAfqKHLXzwPur_SHR 66.62 24.6629714966 399.807929993 819.218873978 28.7351608276 8.0931186676 1380.39398193
10.50.0.39 31.13.75.37 /-t_0365303bd0ce7a50a866d3af343b4110dcbe6478-/pngimages/Chapter-4-1/Chapter-4-1-11.png?iorg_service_id_internal=253471785031826%3BAfqKHLXzwPur_SHR 117.63 27.7371406555 406.177043915 615.218877792 32.280921936 11.0709667206 3293.54405403
10.50.0.39 31.13.75.37 /-t_b67b4a0795f32d980c6919c134aa20b861e8f6db-/pngimages/Chapter-4-1/Chapter-4-1-12.png?iorg_service_id_internal=253471785031826%3BAfqKHLXzwPur_SHR 68.77 24.4331359863 419.101953506 750.063896179 34.6491336823 8.15081596375 2366.78290367
10.50.0.39 31.13.75.37 /-t_185a301911e40dfe078cf959081bcb7b03cfd89a-/pngimages/Chapter-4-1/Chapter-4-1-13.png?iorg_service_id_internal=253471785031826%3BAfqKHLXzwPur_SHR 69.29 29.8049449921 1011.22808456 1947.74699211 31.8291187286 4.87494468689 9279.51812744
10.50.0.39 31.13.93.37 /-t_f45924c7f92fa451592603ff05bfb55309ec5ed5-/pngimages/Chapter-4-1/Chapter-4-1-14.png?iorg_service_id_internal=253471785031826%3BAfqKHLXzwPur_SHR 67.41 40.8890247345 1203.98187637 680.262088776 32.2530269623 8.02206993103 1351.03702545
10.50.0.39 31.13.75.37 /-t_0287bd84420b845d38cf919eab3fcb6acf39fa9a-/pngimages/Chapter-4-1/Chapter-4-1-15.png?iorg_service_id_internal=253471785031826%3BAfqKHLXzwPur_SHR 57.9 28.7210941315 285.644054413 763.842821121 32.2291851044 8.6829662323 2189.79716301
10.50.0.39 31.13.75.37 /-t_13eb0159c00b87a1966b95a8f622c8cd07bdb3c7-/pngimages/Chapter-4-1/Chapter-4-1-16.png?iorg_service_id_internal=253471785031826%3BAfqKHLXzwPur_SHR 106.58 34.2638492584 266.221046448 691.981077194 34.4018936157 10.4241371155 3172.76597023
10.50.0.39 31.13.75.37 /-t_c6ec09e728d6d106f3fa0875c438087c50520b64-/pngimages/Chapter-4-1/Chapter-4-1-17.png?iorg_service_id_internal=253471785031826%3BAfqKHLXzwPur_SHR 72.27 26.4148712158 497.687101364 825.320959091 18.9518928528 6.05988502502 1546.81515694
10.50.0.39 31.13.75.37 /-t_53bb9b10788bf7f51961854ae9b1acdfbc3db576-/pngimages/Chapter-4-1/Chapter-4-1-18.png?iorg_service_id_internal=253471785031826%3BAfqKHLXzwPur_SHR 70.59 29.0138721466 424.546003342 747.37405777 34.4290733337 6.81090354919 1625.14615059
10.50.0.39 31.13.93.37 /-t_d5cf128af7783e382069607ed0451000099d7b25-/pngimages/Chapter-4-1/Chapter-4-1-19.png?iorg_service_id_internal=253471785031826%3BAfqKHLXzwPur_SHR 63.47 28.7990570068 473.463058472 1956.29096031 23.745059967 10.4558467865 1914.89911079
10.50.0.39 31.13.75.37 /-t_76d99843784f318b51c93e97cb28ef74e02c833f-/pngimages/Chapter-4-1/Chapter-4-1-2.png?iorg_service_id_internal=253471785031826%3BAfqKHLXzwPur_SHR 62.8 30.9660434723 362.498998642 747.277021408 27.3540019989 10.7839107513 1317.72089005
10.50.0.39 31.13.75.37 /-t_61da80c1533f2866a448f8c0c1d68c18782d6058-/pngimages/Chapter-4-1/Chapter-4-1-20.png?iorg_service_id_internal=253471785031826%3BAfqKHLXzwPur_SHR 68.96 38.9680862427 294.015884399 618.07012558 26.2229442596 8.38708877563 1517.22407341
10.50.0.39 31.13.75.37 /-t_5d1294bf117b4772379ced7a09c54c2bf2b467ae-/pngimages/Chapter-4-1/Chapter-4-1-21.png?iorg_service_id_internal=253471785031826%3BAfqKHLXzwPur_SHR 58.39 31.9349765778 1347.5921154 3055.77301979 26.7660617828 7.36904144287 3103.43003273
10.50.0.39 31.13.93.37 /-t_a99bcddfbfc61acd4f875575904cc14cc225afc1-/pngimages/Chapter-4-1/Chapter-4-1-22.png?iorg_service_id_internal=253471785031826%3BAfqKHLXzwPur_SHR 53.12 23.8981246948 234.690904617 592.941045761 31.9759845734 7.18092918396 1560.04190445
10.50.0.39 31.13.75.37 /-t_cb508467de2ef0c00173fd9e89924f238673dcfa-/pngimages/Chapter-4-1/Chapter-4-1-23.png?iorg_service_id_internal=253471785031826%3BAfqKHLXzwPur_SHR 66.12 31.9249629974 252.307891846 572.436094284 34.2080593109 7.93099403381 4183.98404121
10.50.0.39 31.13.75.37 /-t_358718752c245ba863e2ef2a45466ef18c819f62-/pngimages/Chapter-4-1/Chapter-4-1-24.png?iorg_service_id_internal=253471785031826%3BAfqKHLXzwPur_SHR 70.84 36.0350608826 450.02913475 757.195949554 25.022983551 5.89108467102 1797.81198502
10.50.0.39 31.13.75.37 /-t_fd3cde10833d286e8708f3061444c82f7e5399a0-/pngimages/Chapter-4-1/Chapter-4-1-25.png?iorg_service_id_internal=253471785031826%3BAfqKHLXzwPur_SHR 65.27 37.5778675079 263.736009598 795.511960983 34.8041057587 8.93688201904 1549.41511154
10.50.0.39 31.13.75.37 /-t_437afa0d98d5b33f9e088e441942dec8991277a8-/pngimages/Chapter-4-1/Chapter-4-1-26.png?iorg_service_id_internal=253471785031826%3BAfqKHLXzwPur_SHR 71.04 33.1039428711 456.298112869 1106.13584518 31.0339927673 4.49991226196 1709.05303955
10.50.0.39 31.13.93.37 /-t_c3ea5651b73266c75e342dd4d239bb04a594ff0e-/pngimages/Chapter-4-1/Chapter-4-1-27.png?iorg_service_id_internal=253471785031826%3BAfqKHLXzwPur_SHR 74.42 29.5419692993 222.362041473 696.429014206 29.9479961395 8.10313224792 1851.18103027
10.50.0.39 31.13.75.37 /-t_d7c9827d95baa487ddf9d0e8e7958bf320d8a15b-/pngimages/Chapter-4-1/Chapter-4-1-28.png?iorg_service_id_internal=253471785031826%3BAfqKHLXzwPur_SHR 66.87 29.5288562775 508.619070053 816.245079041 34.6128940582 10.3869438171 1991.30415916
10.50.0.39 31.13.75.37 /-t_cc5a1edfd65aca6c13e4fc0648ad80b009372a01-/pngimages/Chapter-4-1/Chapter-4-1-29.png?iorg_service_id_internal=253471785031826%3BAfqKHLXzwPur_SHR 66.61 31.0430526733 280.204057693 794.744968414 41.690826416 10.4081630707 1476.97615623
10.50.0.39 31.13.75.37 /-t_a1801875a94dcda88b4c7db302e9dd8a76475414-/pngimages/Chapter-4-1/Chapter-4-1-3.png?iorg_service_id_internal=253471785031826%3BAfqKHLXzwPur_SHR 58.42 35.3810787201 272.417068481 956.548929214 33.9140892029 8.28003883362 891.2961483
10.50.0.39 31.13.75.37 /-t_2ba670c0ba2312f25f4bd9124b20187c7496238d-/pngimages/Chapter-4-1/Chapter-4-1-30.png?iorg_service_id_internal=253471785031826%3BAfqKHLXzwPur_SHR 66.8 33.7908267975 410.170078278 680.903911591 30.1320552826 7.8809261322 4148.96583557
10.50.0.39 31.13.93.37 /-t_3c2d717041254d0e2376174f331e56feefb70f32-/pngimages/Chapter-4-1/Chapter-4-1-31.png?iorg_service_id_internal=253471785031826%3BAfqKHLXzwPur_SHR 50.41 26.7570018768 199.706792831 973.318099976 35.5570316315 15.3548717499 1743.33190918
10.50.0.39 31.13.75.37 /-t_ed1a034e0310721db794dab0e113369fff59894c-/pngimages/Chapter-4-1/Chapter-4-1-32.png?iorg_service_id_internal=253471785031826%3BAfqKHLXzwPur_SHR 53.48 30.0550460815 272.163152695 633.045911789 34.9988937378 10.0049972534 1195.75190544
10.50.0.39 31.13.75.37 /-t_e36aa35153c9072e843524bd6cad3253efd80b7d-/pngimages/Chapter-4-1/Chapter-4-1-33.png?iorg_service_id_internal=253471785031826%3BAfqKHLXzwPur_SHR 44.21 26.3140201569 488.931894302 775.624990463 39.5331382751 9.11998748779 755.497932434
10.50.0.39 31.13.75.37 /-t_b44f26914e27a14b80bbce8b159f650f1453db2d-/pngimages/Chapter-4-1/Chapter-4-1-34.png?iorg_service_id_internal=253471785031826%3BAfqKHLXzwPur_SHR 7.75 27.8940200806 270.903110504 899.839878082 27.7941226959 6.2198638916 47.8978157043
10.50.0.39 31.13.75.37 /-t_9d163f96ddf4d89e7b168b2e9071352b127b0af2-/pngimages/Chapter-4-1/Chapter-4-1-4.png?iorg_service_id_internal=253471785031826%3BAfqKHLXzwPur_SHR 56.96 31.2099456787 349.949121475 735.893964767 36.1189842224 13.2949352264 2047.51014709
10.50.0.39 31.13.75.37 /-t_70243f7f79e79f00ee8da157c28033a126ee9067-/pngimages/Chapter-4-1/Chapter-4-1-5.png?iorg_service_id_internal=253471785031826%3BAfqKHLXzwPur_SHR 73.67 24.4429111481 488.617897034 900.871992111 31.7912101746 5.44095039368 1642.38905907
10.50.0.39 31.13.93.37 /-t_72239d369e847ae3c9bc4cc51b912f4a0d6934c5-/pngimages/Chapter-4-1/Chapter-4-1-6.png?iorg_service_id_internal=253471785031826%3BAfqKHLXzwPur_SHR 65.27 28.8469791412 230.946063995 596.941947937 37.3430252075 8.55398178101 1774.1291523
10.50.0.39 31.13.75.37 /-t_9c668e1f4393f97ceba71a645d3aa365cdcf8662-/pngimages/Chapter-4-1/Chapter-4-1-7.png?iorg_service_id_internal=253471785031826%3BAfqKHLXzwPur_SHR 68.5 28.1929969788 447.439908981 1033.20002556 27.1620750427 4.73594665527 2056.65802956
10.50.0.39 31.13.75.37 /-t_a76920bb9f98424cf649ec27f706e9fc2233a24c-/pngimages/Chapter-4-1/Chapter-4-1-8.png?iorg_service_id_internal=253471785031826%3BAfqKHLXzwPur_SHR 48.82 29.2179584503 441.884994507 851.540088654 16.1039829254 5.6619644165 798.516988754
10.50.0.39 31.13.75.37 /-t_89abdd743703bf415e0d1ec83422b5bae903a011-/pngimages/Chapter-4-1/Chapter-4-1-9.png?iorg_service_id_internal=253471785031826%3BAfqKHLXzwPur_SHR 59.49 29.2241573334 360.519886017 798.732995987 33.1480503082 7.8809261322 1841.90106392
10.50.0.39 31.13.93.37 /Chapter-5-1/Chapter-5-1.php?iorg_service_id_internal=253471785031826%3BAfqKHLXzwPur_SHR 10.9 30.492067337 194.736003876 842.797994614 24.0797996521 4.96792793274 44.8179244995
10.50.0.39 31.13.75.37 /-t_7c2931e3d890eada6090130faa603d5f8d49533a-/pngimages/Chapter-5-1/Chapter-5-1-0.png?iorg_service_id_internal=253471785031826%3BAfqKHLXzwPur_SHR 63.89 35.5350971222 293.256998062 606.606960297 40.5271053314 14.5599842072 3339.67900276
10.50.0.39 31.13.75.37 /-t_25a13a488eddd939babe46c386147736d29f259d-/pngimages/Chapter-5-1/Chapter-5-1-1.png?iorg_service_id_internal=253471785031826%3BAfqKHLXzwPur_SHR 62.9 28.5511016846 483.632802963 823.332071304 32.2289466858 8.99600982666 2139.90497589
10.50.0.39 31.13.75.37 /-t_c6db8dc5beabdad4e43261163b9605f4d13c1327-/pngimages/Chapter-5-1/Chapter-5-1-10.png?iorg_service_id_internal=253471785031826%3BAfqKHLXzwPur_SHR 67.68 27.4469852448 449.69701767 869.338989258 31.5787792206 7.89213180542 1629.16994095
10.50.0.39 31.13.75.37 /-t_f4e956d0f5a15f8ec5f95ed0d1ec29736343e241-/pngimages/Chapter-5-1/Chapter-5-1-11.png?iorg_service_id_internal=253471785031826%3BAfqKHLXzwPur_SHR 53.99 29.247045517 502.321004868 697.886943817 37.5549793243 7.78102874756 982.712984085
10.50.0.39 31.13.93.37 /-t_23adae7e778173666d8ef238bd697ae1e0eebeab-/pngimages/Chapter-5-1/Chapter-5-1-12.png?iorg_service_id_internal=253471785031826%3BAfqKHLXzwPur_SHR 59.63 35.8610153198 208.575963974 794.881820679 33.0400466919 13.9720439911 1903.33104134
10.50.0.39 31.13.75.37 /-t_3dfb3f517f708bf6224ef89a3878c6ee2e5c7a90-/pngimages/Chapter-5-1/Chapter-5-1-13.png?iorg_service_id_internal=253471785031826%3BAfqKHLXzwPur_SHR 63.9 33.3099365234 414.710044861 912.473917007 32.4730873108 8.69798660278 1623.22282791
10.50.0.39 31.13.75.37 /-t_4c1b0acbaabd4710b0165ebcf88f975b8703091a-/pngimages/Chapter-5-1/Chapter-5-1-14.png?iorg_service_id_internal=253471785031826%3BAfqKHLXzwPur_SHR 68.48 35.3000164032 449.314117432 646.944046021 31.6388607025 7.96103477478 2456.09998703
10.50.0.39 31.13.75.37 /-t_84f18728e0732c4fbc2e508b58a8288ff4983675-/pngimages/Chapter-5-1/Chapter-5-1-15.png?iorg_service_id_internal=253471785031826%3BAfqKHLXzwPur_SHR 69.97 30.6079387665 713.778972626 650.971889496 40.5330657959 14.8470401764 1530.54594994
10.50.0.39 31.13.75.37 /-t_f5579d0914cb3fefab121a3b0e7fbea023dc3cab-/pngimages/Chapter-5-1/Chapter-5-1-16.png?iorg_service_id_internal=253471785031826%3BAfqKHLXzwPur_SHR 63.76 36.3659858704 467.083215714 685.8959198 31.8179130554 10.2970600128 1237.65587807
10.50.0.39 31.13.93.37 /-t_f82552fc89bd274ac0ee3d2fd55986d2570aa27f-/pngimages/Chapter-5-1/Chapter-5-1-17.png?iorg_service_id_internal=253471785031826%3BAfqKHLXzwPur_SHR 66.14 30.6179523468 223.51193428 455.446958542 38.5181903839 8.20708274841 1179.91018295
10.50.0.39 31.13.75.37 /-t_686c273524a69158db9fbb0b6065417ad44e0053-/pngimages/Chapter-5-1/Chapter-5-1-18.png?iorg_service_id_internal=253471785031826%3BAfqKHLXzwPur_SHR 68.86 34.7669124603 265.207052231 615.839004517 39.9680137634 8.57400894165 1516.50595665
10.50.0.39 31.13.75.37 /-t_37a9ce70d6fdbd87fc8718efe2490e44e06b2799-/pngimages/Chapter-5-1/Chapter-5-1-19.png?iorg_service_id_internal=253471785031826%3BAfqKHLXzwPur_SHR 70.86 29.7660827637 269.477844238 748.265028 39.0040874481 9.63711738586 1563.67897987
