10.50.0.39 31.13.75.37 / content) 34.1579914093 298.202037811 837.169885635 43.7521934509 4.60696220398 28.470993042
10.50.0.39 31.13.75.37 /welcome?next=https%3A%2F%2F0.freebasics.com%2F 28.89 27.1890163422 274.600028992 859.830141068 28.580904007 5.45382499695 316.944122314
10.50.0.39 31.13.75.37 /welcome?next=https%3A%2F%2F0.freebasics.com%2F content) 26.7570018768 281.917095184 677.217006683 32.8288078308 6.94894790649 27.9982089996
10.50.0.39 31.13.75.37 / content) 27.2598266602 343.090057373 715.668916702 30.8492183685 6.49189949036 44.4700717926
10.50.0.39 31.13.75.37 /?_h=1 57.99 36.9670391083 288.460016251 1570.00494003 41.1269664764 5.75995445251 1816.88094139
10.50.0.39 31.13.75.37 /searchservices 55.13 31.6970348358 328.42707634 1265.35987854 33.6420536041 6.36577606201 1731.32920265
10.50.0.39 31.13.93.37 /searchservices?offset=0&next=%D8%A7%DA%AF%D9%84%D8%A7 57.03 23.7550735474 281.81886673 1203.89604568 39.8530960083 7.74598121643 2559.96990204
10.50.0.39 31.13.75.37 /searchservices?offset=20&next=%D8%A7%DA%AF%D9%84%D8%A7 56.95 38.9199256897 1096.9851017 726.054906845 35.7389450073 6.9420337677 1486.4358902
10.50.0.39 31.13.75.37 /searchservices?offset=40&next=%D8%A7%DA%AF%D9%84%D8%A7 56.84 39.1080379486 362.78796196 759.336948395 37.8830432892 7.46321678162 1194.43893433
10.50.0.39 31.13.75.37 /addservice?service_id=253471785031826&previous_url=https%3A%2F%2F0.freebasics.com%2Fsearchservices%3Foffset%3D40%26next%3D%25D8%25A7%25DA%25AF%25D9%2584%25D8%25A7 27.89 26.927947998 363.6739254 977.6699543 28.3560752869 7.3390007019 292.172908783
10.50.0.39 31.13.75.37 /addservice?service_id=253471785031826&previous_url=https%3A%2F%2F0.freebasics.com%2Fsearchservices%3Foffset%3D40%26next%3D%25D8%25A7%25DA%25AF%25D9%2584%25D8%25A7 content) 36.4410877228 512.670993805 3693.60804558 44.517993927 10.2558135986 52.4830818176
10.50.0.39 31.13.93.37 /l?next=https%3A%2F%2Fhttp-learnbasics-mpi--sws-org.0.freebasics.com%2F%3Fiorg_service_id_internal%3D253471785031826%253BAfqB52X2DamHIWXI&h=AXSpSY5hQ-d_mq0L&ref=add_service&service_id=253471785031826 content) 31.2519073486 197.793006897 482.330083847 28.195142746 8.93688201904 40.8902168274
10.50.0.39 31.13.75.37 /?iorg_service_id_internal=253471785031826%3BAfqB52X2DamHIWXI 10.43 29.7720432281 764.516115189 3200.58298111 44.5249080658 10.2670192719 40.7588481903
10.50.0.39 31.13.75.37 /available-courses.html?iorg_service_id_internal=253471785031826%3BAfqB52X2DamHIWXI 10.68 28.0168056488 243.367195129 719.861984253 31.5179824829 13.9451026917 40.4241085052
10.50.0.39 31.13.75.37 /stand-up-and-speak-out-the-practice-and-ethics-of-public-speaking.html?iorg_service_id_internal=253471785031826%3BAfqB52X2DamHIWXI 16.41 30.464887619 493.585109711 797.070026398 32.087802887 14.9021148682 1744.70090866
10.50.0.39 31.13.75.37 /writing-for-success-learn-english-writing.html?iorg_service_id_internal=253471785031826%3BAfqB52X2DamHIWXI 14.09 30.5318832397 315.412998199 666.302204132 40.638923645 11.1010074615 251.535892487
10.50.0.39 31.13.75.37 /communication-skills-for-academics.html?iorg_service_id_internal=253471785031826%3BAfqB52X2DamHIWXI 9.84 30.7772159576 418.113946915 685.824871063 30.3881168365 9.90200042725 38.6459827423
10.50.0.39 31.13.93.37 /english-listening-speaking-and-pronunciation.html?iorg_service_id_internal=253471785031826%3BAfqB52X2DamHIWXI 16.01 26.5491008759 363.309860229 788.75207901 43.4110164642 11.3670825958 1055.13310432
10.50.0.39 31.13.75.37 /basic-algebra.html?iorg_service_id_internal=253471785031826%3BAfqB52X2DamHIWXI 12.34 35.3710651398 409.707069397 656.563997269 45.9949970245 11.2318992615 33.1659317017
10.50.0.39 31.13.75.37 /basic-probability-and-statistics.html?iorg_service_id_internal=253471785031826%3BAfqB52X2DamHIWXI 12.46 32.6619148254 477.462053299 919.486999512 38.5801792145 12.8579139709 355.082035065
10.50.0.39 31.13.75.37 /geometry.html?iorg_service_id_internal=253471785031826%3BAfqB52X2DamHIWXI 12.74 37.3730659485 382.693052292 749.590873718 29.3641090393 9.2511177063 359.732151031
10.50.0.39 31.13.75.37 /mathematical-proofs.html?iorg_service_id_internal=253471785031826%3BAfqB52X2DamHIWXI 14.37 31.7749977112 389.261007309 699.455022812 32.8030586243 14.2590999603 358.994007111
10.50.0.39 31.13.75.37 /leaving?p=1&continueuri=https%3A%2F%2Fwordpress.org%2F&backuri=https%3A%2F%2Fhttp-learnbasics-mpi--sws-org.0.freebasics.com%2Favailable-courses.html%3Fiorg_service_id_internal%3D253471785031826%253BAfqB52X2DamHIWXI&why=i_list&service_id=253471785031826 28.24 30.0788879395 444.445133209 756.397008896 37.556886673 11.3577842712 392.111063004
10.50.0.39 31.13.75.37 /Chapter-1-1/Chapter-1-1.php?iorg_service_id_internal=253471785031826%3BAfqB52X2DamHIWXI 6.47 36.4761352539 399.255037308 759.89484787 41.1269664764 17.2729492188 38.9490127563
10.50.0.39 31.13.93.37 /-t_48c884f057082803caf37b90838c87af5529d79e-/pngimages/Chapter-1-1/Chapter-1-1-0.png?iorg_service_id_internal=253471785031826%3BAfqB52X2DamHIWXI 76.82 32.4440002441 254.021883011 1285.77709198 37.5180244446 11.9252204895 1422.87993431
10.50.0.39 31.13.75.37 /-t_239aad2c38b911a838e34baef015d58490ae80cc-/pngimages/Chapter-1-1/Chapter-1-1-1.png?iorg_service_id_internal=253471785031826%3BAfqB52X2DamHIWXI 68.36 37.5280380249 229.947805405 505.36108017 48.3560562134 9.10902023315 1581.38799667
10.50.0.39 31.13.75.37 /-t_51ab70ab5146d5453354693179cb83a9b1971fc5-/pngimages/Chapter-1-1/Chapter-1-1-10.png?iorg_service_id_internal=253471785031826%3BAfqB52X2DamHIWXI 70.42 31.8031311035 236.335992813 799.133062363 45.6259250641 8.05807113647 1955.08790016
10.50.0.39 31.13.75.37 /-t_c84dfd060c4a779facd5f75d18d761092172cdda-/pngimages/Chapter-1-1/Chapter-1-1-11.png?iorg_service_id_internal=253471785031826%3BAfqB52X2DamHIWXI 61.95 28.5859107971 254.776000977 662.755966187 32.6881408691 15.5460834503 1597.28908539
10.50.0.39 31.13.75.37 /-t_ba807859e26d5e6571b0a3f7e67d5c86b2285c5f-/pngimages/Chapter-1-1/Chapter-1-1-12.png?iorg_service_id_internal=253471785031826%3BAfqB52X2DamHIWXI 57.53 33.4439277649 241.683006287 609.894037247 41.708946228 9.67216491699 773.041963577
10.50.0.39 31.13.75.37 /-t_51a06c89751f672f88f45bdec218457334126f20-/pngimages/Chapter-1-1/Chapter-1-1-13.png?iorg_service_id_internal=253471785031826%3BAfqB52X2DamHIWXI 50.63 34.4681739807 236.793994904 707.380056381 40.5449867249 8.05687904358 521.202087402
10.50.0.39 31.13.93.37 /-t_f8fa29b0a029fcd136011f89d301b66a6234a554-/pngimages/Chapter-1-1/Chapter-1-1-14.png?iorg_service_id_internal=253471785031826%3BAfqB52X2DamHIWXI 6.74 26.5529155731 215.687036514 793.367147446 23.9398479462 5.40804862976 60.8019828796
10.50.0.39 31.13.75.37 /-t_f6cafa07db6e2154ed4643f8dbf47421c11555dd-/pngimages/Chapter-1-1/Chapter-1-1-2.png?iorg_service_id_internal=253471785031826%3BAfqB52X2DamHIWXI 63.5 27.3818969727 229.401111603 713.18602562 37.2908115387 14.4529342651 2773.23508263
10.50.0.39 31.13.75.37 /-t_9b2485a7decf90b9d80de0e2ca48aaf0a9eb4002-/pngimages/Chapter-1-1/Chapter-1-1-3.png?iorg_service_id_internal=253471785031826%3BAfqB52X2DamHIWXI 68.53 33.8850021362 394.881010056 728.419065475 27.2719860077 13.1940841675 1188.01689148
10.50.0.39 31.13.75.37 /-t_3751f9b88c23e65d6f4577a9f7a863111888c003-/pngimages/Chapter-1-1/Chapter-1-1-4.png?iorg_service_id_internal=253471785031826%3BAfqB52X2DamHIWXI 68.71 36.1478328705 444.442033768 712.916135788 35.1579189301 12.8281116486 1838.64116669
10.50.0.39 31.13.75.37 /-t_aa7aeafc761cfcc38648c326f0e9f2b7a3fcc40c-/pngimages/Chapter-1-1/Chapter-1-1-5.png?iorg_service_id_internal=253471785031826%3BAfqB52X2DamHIWXI 85.38 30.4760932922 365.35692215 845.26515007 37.4639034271 3.93104553223 2110.32605171
10.50.0.39 31.13.93.37 /-t_7508eec5ec2cedaff8eb0b3f8b76b8bd4e204feb-/pngimages/Chapter-1-1/Chapter-1-1-6.png?iorg_service_id_internal=253471785031826%3BAfqB52X2DamHIWXI 74.49 34.8019599915 223.411083221 612.864971161 29.8690795898 5.18608093262 2279.63089943
10.50.0.39 31.13.75.37 /-t_bc37b138ad423886a6cd7dec28360f771d77017b-/pngimages/Chapter-1-1/Chapter-1-1-7.png?iorg_service_id_internal=253471785031826%3BAfqB52X2DamHIWXI 106.83 27.8630256653 255.631923676 968.362092972 36.4298820496 9.59205627441 3543.66779327
10.50.0.39 31.13.75.37 /-t_29923b2c0deb20544ff42c12e6e02418f9d56400-/pngimages/Chapter-1-1/Chapter-1-1-8.png?iorg_service_id_internal=253471785031826%3BAfqB52X2DamHIWXI 61.18 27.9819965363 245.209932327 813.592195511 34.2960357666 6.29496574402 764.152050018
10.50.0.39 31.13.75.37 /-t_2706929da2f72584ec770c7ae471d78e81a5e213-/pngimages/Chapter-1-1/Chapter-1-1-9.png?iorg_service_id_internal=253471785031826%3BAfqB52X2DamHIWXI 69.48 30.5910110474 233.675956726 796.412944794 37.5969409943 8.44693183899 1576.22480392
10.50.0.39 31.13.75.37 /Chapter-2-1/Chapter-2-1.php?iorg_service_id_internal=253471785031826%3BAfqB52X2DamHIWXI 9 31.1951637268 340.703010559 694.516897202 27.496099472 9.12308692932 44.1491603851
10.50.0.39 31.13.75.37 /-t_3e68154781c7f2554f8e236d09d701e4801a7860-/pngimages/Chapter-2-1/Chapter-2-1-0.png?iorg_service_id_internal=253471785031826%3BAfqB52X2DamHIWXI 51.23 33.1659317017 235.504150391 661.221027374 27.1179676056 6.2849521637 752.430915833
10.50.0.39 31.13.93.37 /-t_f4f9b775801ce2e1d0ca26fe46c06e81ef1b433b-/pngimages/Chapter-2-1/Chapter-2-1-1.png?iorg_service_id_internal=253471785031826%3BAfqB52X2DamHIWXI 72.52 28.571844101 213.763952255 854.976177216 32.44805336 8.20088386536 1212.05806732
10.50.0.39 31.13.75.37 /-t_840f36f2560a4b80243bd63aad9a58fd4a68c9e2-/pngimages/Chapter-2-1/Chapter-2-1-10.png?iorg_service_id_internal=253471785031826%3BAfqB52X2DamHIWXI 75.02 34.6961021423 789.871931076 645.198106766 19.4878578186 5.77211380005 1496.58298492
10.50.0.39 31.13.75.37 /-t_51b7946a394a81382cc0348bddbe02fad620880a-/pngimages/Chapter-2-1/Chapter-2-1-11.png?iorg_service_id_internal=253471785031826%3BAfqB52X2DamHIWXI 72.8 26.8199443817 347.010135651 652.350902557 29.8409461975 7.248878479 1635.4868412
10.50.0.39 31.13.75.37 /-t_cdf7048815fa882a9cd1f1e3cef60992bc0d49d0-/pngimages/Chapter-2-1/Chapter-2-1-12.png?iorg_service_id_internal=253471785031826%3BAfqB52X2DamHIWXI 70.92 24.7530937195 237.452983856 902.215957642 36.5180969238 9.06014442444 1570.33085823
10.50.0.39 31.13.75.37 /-t_4f30b6b562401b8f98554fabfa3627b6acd0fac6-/pngimages/Chapter-2-1/Chapter-2-1-13.png?iorg_service_id_internal=253471785031826%3BAfqB52X2DamHIWXI 67.7 38.2390022278 337.413072586 828.463077545 32.5930118561 7.78388977051 1285.90297699
10.50.0.39 31.13.75.37 /-t_7c1d88f6233fbfdd678b2a25f8d9e6b245b68f16-/pngimages/Chapter-2-1/Chapter-2-1-14.png?iorg_service_id_internal=253471785031826%3BAfqB52X2DamHIWXI 66.55 32.7229499817 216.021060944 1333.9600563 44.7149276733 9.30190086365 3094.08307076
10.50.0.39 31.13.93.37 /-t_a37717138dfd39d12905dbfd2e2a0e403f48dffd-/pngimages/Chapter-2-1/Chapter-2-1-15.png?iorg_service_id_internal=253471785031826%3BAfqB52X2DamHIWXI 70.84 36.2479686737 524.897813797 807.218074799 17.5421237946 5.10191917419 1242.47598648
10.50.0.39 31.13.75.37 /-t_fa4eb8212a77636a50f4b15ec4cdd5557e5df184-/pngimages/Chapter-2-1/Chapter-2-1-16.png?iorg_service_id_internal=253471785031826%3BAfqB52X2DamHIWXI 64.71 34.5480442047 283.674001694 558.336019516 31.998872757 11.6908550262 1157.3009491
10.50.0.39 31.13.75.37 /-t_2a892ee456e025805848bbe56b51aff15737aaac-/pngimages/Chapter-2-1/Chapter-2-1-17.png?iorg_service_id_internal=253471785031826%3BAfqB52X2DamHIWXI 67.03 29.7470092773 438.853025436 794.616937637 49.339056015 10.9460353851 1892.31514931
10.50.0.39 31.13.75.37 /-t_afcf1096e006d2a19e3e68de2e2cc20a1f73d069-/pngimages/Chapter-2-1/Chapter-2-1-18.png?iorg_service_id_internal=253471785031826%3BAfqB52X2DamHIWXI 74.03 35.4387760162 260.914087296 616.39213562 39.0567779541 9.50598716736 1962.07499504
10.50.0.39 31.13.75.37 /-t_6a6d326af750b6d336bffe753984fc32bb5fcc0b-/pngimages/Chapter-2-1/Chapter-2-1-19.png?iorg_service_id_internal=253471785031826%3BAfqB52X2DamHIWXI 60.77 34.5129966736 309.499025345 580.173015594 30.4129123688 11.0418796539 1401.44300461
10.50.0.39 31.13.75.37 /-t_9d2632065dd1cfd2a1f48ab92f4974ac11c6d4a2-/pngimages/Chapter-2-1/Chapter-2-1-2.png?iorg_service_id_internal=253471785031826%3BAfqB52X2DamHIWXI 69.16 35.0580215454 310.554027557 561.912059784 29.7968387604 10.4510784149 1396.56496048
10.50.0.39 31.13.93.37 /-t_003854b3065e17ffdca319b9e4eb8dcee979b926-/pngimages/Chapter-2-1/Chapter-2-1-20.png?iorg_service_id_internal=253471785031826%3BAfqB52X2DamHIWXI 52.73 26.4580249786 260.516881943 1082.72719383 37.64295578 8.50200653076 1210.5820179
10.50.0.39 31.13.75.37 /-t_7c44abd0f81aa612738998cdaa99cef584acf3a0-/pngimages/Chapter-2-1/Chapter-2-1-21.png?iorg_service_id_internal=253471785031826%3BAfqB52X2DamHIWXI 58.92 30.4608345032 264.080047607 795.925140381 30.0798416138 8.13412666321 1761.80696487
10.50.0.39 31.13.75.37 /-t_4c57008ae6495567aa3a82ffeb3c8a6d7fa7ce93-/pngimages/Chapter-2-1/Chapter-2-1-22.png?iorg_service_id_internal=253471785031826%3BAfqB52X2DamHIWXI 63.48 28.9218425751 238.772153854 957.531929016 36.0848903656 8.9099407196 1342.38600731
10.50.0.39 31.13.75.37 /-t_3a1a1845bee65d3d512f6ca9b0521e588cacd1b6-/pngimages/Chapter-2-1/Chapter-2-1-23.png?iorg_service_id_internal=253471785031826%3BAfqB52X2DamHIWXI 64.7 32.3760509491 264.097929001 555.227041245 35.4990959167 7.96294212341 1318.25494766
10.50.0.39 31.13.75.37 /-t_446b55e1dc438717deaa29b4a5ccc42c4edf4036-/pngimages/Chapter-2-1/Chapter-2-1-24.png?iorg_service_id_internal=253471785031826%3BAfqB52X2DamHIWXI 58.88 30.5118560791 417.750120163 650.898933411 27.6350975037 11.3670825958 1671.19884491
10.50.0.39 31.13.75.37 /-t_430c02850d8a2977918d0bb003bec762d082e627-/pngimages/Chapter-2-1/Chapter-2-1-25.png?iorg_service_id_internal=253471785031826%3BAfqB52X2DamHIWXI 28.69 30.8358669281 242.251157761 652.077913284 35.6659889221 12.6938819885 408.69808197
10.50.0.39 31.13.93.37 /-t_9705a600e5f5a3b377c7b991e0cef204de1a2141-/pngimages/Chapter-2-1/Chapter-2-1-26.png?iorg_service_id_internal=253471785031826%3BAfqB52X2DamHIWXI 6.39 29.5650959015 218.842983246 478.46198082 28.1028747559 7.66897201538 49.8769283295
10.50.0.39 31.13.75.37 /-t_c0140fa05c8f7750587f62dbdafe731164a119d5-/pngimages/Chapter-2-1/Chapter-2-1-3.png?iorg_service_id_internal=253471785031826%3BAfqB52X2DamHIWXI 70.96 24.936914444 303.007125854 597.357034683 36.44490242 7.27486610413 2129.22310829
10.50.0.39 31.13.75.37 /-t_a337ddf160732e59eeb35c0b52c01c2f2f08a847-/pngimages/Chapter-2-1/Chapter-2-1-4.png?iorg_service_id_internal=253471785031826%3BAfqB52X2DamHIWXI 54.66 32.4380397797 248.721837997 860.243082047 19.8578834534 12.1691226959 932.461977005
10.50.0.39 31.13.75.37 /-t_68926a6f065839e10b38d6765c41f72e22afee78-/pngimages/Chapter-2-1/Chapter-2-1-5.png?iorg_service_id_internal=253471785031826%3BAfqB52X2DamHIWXI 47.37 25.6190299988 291.311979294 549.674034119 43.9269542694 11.0919475555 1014.02592659
10.50.0.39 31.13.75.37 /-t_77a8e9381333f198d32a9fdb61fef50aec883d80-/pngimages/Chapter-2-1/Chapter-2-1-6.png?iorg_service_id_internal=253471785031826%3BAfqB52X2DamHIWXI 61.97 27.2588729858 297.065973282 505.867004395 35.5031490326 9.4211101532 1309.75794792
10.50.0.39 31.13.75.37 /-t_4f3ed3c48faff7c6e2c6b2b8c678f028ee364938-/pngimages/Chapter-2-1/Chapter-2-1-7.png?iorg_service_id_internal=253471785031826%3BAfqB52X2DamHIWXI 62 32.4449539185 288.390159607 863.051891327 39.7629737854 8.77714157104 1250.57196617
10.50.0.39 31.13.75.37 /-t_89ad8be55b5f92c0dd48cb7997d84ab3a010b858-/pngimages/Chapter-2-1/Chapter-2-1-8.png?iorg_service_id_internal=253471785031826%3BAfqB52X2DamHIWXI 70.46 23.423910141 509.699106216 773.682117462 31.4228534698 14.9011611938 1650.13599396
10.50.0.39 31.13.93.37 /-t_6a2cc070393406f0e30e853056f928a29fd16179-/pngimages/Chapter-2-1/Chapter-2-1-9.png?iorg_service_id_internal=253471785031826%3BAfqB52X2DamHIWXI 76.07 31.9130420685 216.681957245 756.787061691 43.4939861298 15.1801109314 1990.6539917
10.50.0.39 31.13.75.37 /Chapter-3-1/Chapter-3-1.php?iorg_service_id_internal=253471785031826%3BAfqB52X2DamHIWXI 8.58 29.5650959015 396.98600769 812.796831131 25.2180099487 9.47999954224 48.3369827271
10.50.0.39 31.13.75.37 /-t_7c8ed2af30b42ff75238df4f50ecc5d4d02dee1f-/pngimages/Chapter-3-1/Chapter-3-1-0.png?iorg_service_id_internal=253471785031826%3BAfqB52X2DamHIWXI 6.39 28.0640125275 249.430894852 624.017953873 34.7549915314 9.00292396545 37.4920368195
10.50.0.39 31.13.75.37 /-t_189f01c6e9bea10f9489fe47c2a589b64946d652-/pngimages/Chapter-3-1/Chapter-3-1-1.png?iorg_service_id_internal=253471785031826%3BAfqB52X2DamHIWXI 62.09 29.8500061035 277.348041534 534.065961838 30.3740501404 8.38589668274 1428.92193794
10.50.0.39 31.13.75.37 /-t_250dc7ce98afa972fff8bba5d8a79c5293a329ad-/pngimages/Chapter-3-1/Chapter-3-1-10.png?iorg_service_id_internal=253471785031826%3BAfqB52X2DamHIWXI 64.38 30.3909778595 238.882064819 759.997844696 21.2709903717 4.06789779663 1678.59387398
10.50.0.39 31.13.75.37 /-t_d354ebf49a67488d39244024187fda876b07eba8-/pngimages/Chapter-3-1/Chapter-3-1-11.png?iorg_service_id_internal=253471785031826%3BAfqB52X2DamHIWXI 67.07 29.8209190369 419.811010361 839.482069016 34.7249507904 11.9230747223 2025.35390854
10.50.0.39 31.13.93.37 /-t_cb88999b10143347c0ee09986bb38a34e3a1b398-/pngimages/Chapter-3-1/Chapter-3-1-12.png?iorg_service_id_internal=253471785031826%3BAfqB52X2DamHIWXI 56.21 37.2040271759 1204.54192162 983.241081238 42.9079532623 9.22203063965 934.198141098
10.50.0.39 31.13.75.37 /-t_1a190f35eb133d0c299d4e098c8825b5247fe812-/pngimages/Chapter-3-1/Chapter-3-1-13.png?iorg_service_id_internal=253471785031826%3BAfqB52X2DamHIWXI 72.23 35.2990627289 262.513875961 830.916166306 36.5979671478 7.74884223938 1606.77719116
10.50.0.39 31.13.75.37 /-t_a0ec4a2786251bc4fdd2a19ebe1a3f15d43979d1-/pngimages/Chapter-3-1/Chapter-3-1-14.png?iorg_service_id_internal=253471785031826%3BAfqB52X2DamHIWXI 63.76 31.7649841309 295.745134354 593.46985817 31.6159725189 8.98694992065 1188.48013878
10.50.0.39 31.13.75.37 /-t_f782020c321afcb2246ceaa756e57a1e52b6c3ca-/pngimages/Chapter-3-1/Chapter-3-1-15.png?iorg_service_id_internal=253471785031826%3BAfqB52X2DamHIWXI 67.5 29.0458202362 286.255121231 730.314970016 32.2730541229 9.1860294342 1162.06693649
10.50.0.39 31.13.75.37 /-t_6e3324b6f966660b172b9f5fb1abeb443e20d763-/pngimages/Chapter-3-1/Chapter-3-1-16.png?iorg_service_id_internal=253471785031826%3BAfqB52X2DamHIWXI 69.54 29.0820598602 423.840999603 795.129060745 36.2839698792 8.01801681519 1762.57896423
10.50.0.39 31.13.75.37 /-t_9c4e1f022f8cdf94b962559d3b3aa93de51a0a32-/pngimages/Chapter-3-1/Chapter-3-1-17.png?iorg_service_id_internal=253471785031826%3BAfqB52X2DamHIWXI 62.34 39.1161441803 294.823884964 858.649015427 30.7018756866 8.14080238342 1532.1969986
10.50.0.39 31.13.93.37 /-t_7d8647697ec992763bcf6b56bf113b61bcc0af02-/pngimages/Chapter-3-1/Chapter-3-1-18.png?iorg_service_id_internal=253471785031826%3BAfqB52X2DamHIWXI 67.63 28.1641483307 366.940975189 772.658824921 44.340133667 8.82005691528 1506.34813309
10.50.0.39 31.13.75.37 /-t_b6a3ad0e05ffd27629b3060f35ad6ad0234e93aa-/pngimages/Chapter-3-1/Chapter-3-1-19.png?iorg_service_id_internal=253471785031826%3BAfqB52X2DamHIWXI 63.23 29.3629169464 371.469020844 858.572006226 29.0400981903 8.72707366943 1683.05206299
10.50.0.39 31.13.75.37 /-t_45dd1cdca43bb504dc9f5be1db64d3c5d721821e-/pngimages/Chapter-3-1/Chapter-3-1-2.png?iorg_service_id_internal=253471785031826%3BAfqB52X2DamHIWXI 69.62 37.5621318817 423.554897308 1012.16411591 20.5149650574 7.86209106445 1190.15097618
10.50.0.39 31.13.75.37 /-t_5975a720fe9d383bfbf2e1e80371db68c387d25b-/pngimages/Chapter-3-1/Chapter-3-1-20.png?iorg_service_id_internal=253471785031826%3BAfqB52X2DamHIWXI 74.29 28.2878875732 381.307125092 743.343830109 22.5901603699 12.540102005 1695.66297531
10.50.0.39 31.13.75.37 /-t_48bd9e693ef6ba216641a3029b9e114f26631c45-/pngimages/Chapter-3-1/Chapter-3-1-21.png?iorg_service_id_internal=253471785031826%3BAfqB52X2DamHIWXI 61.27 31.5318107605 243.610143661 549.402952194 16.5429115295 4.86087799072 1701.82085037
10.50.0.39 31.13.93.37 /-t_7937a2c78c3ce3e3ecbda07e54eb4bd0e186f348-/pngimages/Chapter-3-1/Chapter-3-1-22.png?iorg_service_id_internal=253471785031826%3BAfqB52X2DamHIWXI 58.38 32.5000286102 1211.62414551 762.370824814 29.8249721527 8.57305526733 896.953105927
10.50.0.39 31.13.75.37 /-t_f332f56b38d00a7b1590640a95214d91da80d02c-/pngimages/Chapter-3-1/Chapter-3-1-23.png?iorg_service_id_internal=253471785031826%3BAfqB52X2DamHIWXI 65.71 27.7659893036 363.893985748 652.137994766 32.4149131775 8.9271068573 2244.85683441
10.50.0.39 31.13.75.37 /-t_c8d5e926de32fd2514111a092ca514dcf1679788-/pngimages/Chapter-3-1/Chapter-3-1-24.png?iorg_service_id_internal=253471785031826%3BAfqB52X2DamHIWXI 57.36 25.899887085 357.282161713 554.836034775 34.6789360046 9.24611091614 1444.77415085
10.50.0.39 31.13.75.37 /-t_9265011c4e5a1492f539a59a69cd1d5b40179949-/pngimages/Chapter-3-1/Chapter-3-1-3.png?iorg_service_id_internal=253471785031826%3BAfqB52X2DamHIWXI 70.19 26.8311500549 354.818820953 827.522993088 34.9130630493 8.64005088806 1892.27581024
10.50.0.39 31.13.75.37 /-t_53ff8861d309ce85d13bd31fa2ff28808c03207d-/pngimages/Chapter-3-1/Chapter-3-1-4.png?iorg_service_id_internal=253471785031826%3BAfqB52X2DamHIWXI 69.17 31.879901886 370.260000229 636.949062347 30.4539203644 6.43396377563 1725.47984123
10.50.0.39 31.13.75.37 /-t_c592a7afa36dad5d5096b331132402bb2bca1c61-/pngimages/Chapter-3-1/Chapter-3-1-5.png?iorg_service_id_internal=253471785031826%3BAfqB52X2DamHIWXI 71.29 33.5128307343 315.821170807 681.330919266 39.1180515289 9.60516929626 1610.47792435
10.50.0.39 31.13.93.37 /-t_8b742532527bdb11660592d1115947993fb3096d-/pngimages/Chapter-3-1/Chapter-3-1-6.png?iorg_service_id_internal=253471785031826%3BAfqB52X2DamHIWXI 69.37 36.5569591522 335.328102112 883.697986603 29.4599533081 8.42213630676 2018.74780655
10.50.0.39 31.13.75.37 /-t_06bc0fc052e5faff22b3913585f50e134194254f-/pngimages/Chapter-3-1/Chapter-3-1-7.png?iorg_service_id_internal=253471785031826%3BAfqB52X2DamHIWXI 50.96 28.3601284027 263.835906982 622.412919998 35.4931354523 8.79311561584 910.128831863
10.50.0.39 31.13.75.37 /-t_94b723057fba86e2ee38a588f9a79fabaa357fc8-/pngimages/Chapter-3-1/Chapter-3-1-8.png?iorg_service_id_internal=253471785031826%3BAfqB52X2DamHIWXI 69.96 30.4667949677 238.833189011 859.308958054 32.4289798737 15.9320831299 2103.22904587
10.50.0.39 31.13.75.37 /-t_5d6832d23bb4e9dbde58855a1fb398afb6b754e9-/pngimages/Chapter-3-1/Chapter-3-1-9.png?iorg_service_id_internal=253471785031826%3BAfqB52X2DamHIWXI 58.62 28.4960269928 261.558055878 614.578962326 33.5829257965 12.2299194336 982.645988464
10.50.0.39 31.13.75.37 /Chapter-4-1/Chapter-4-1.php?iorg_service_id_internal=253471785031826%3BAfqB52X2DamHIWXI 10.69 25.955915451 1365.90909958 682.976961136 35.7818603516 9.75799560547 37.003993988
10.50.0.39 31.13.75.37 /-t_e65cb3d2060b8a9f34a79835d4890b8660b2e5b0-/pngimages/Chapter-4-1/Chapter-4-1-0.png?iorg_service_id_internal=253471785031826%3BAfqB52X2DamHIWXI 62.53 38.4931564331 236.667871475 410.917043686 35.7921123505 7.42220878601 1213.26899529
10.50.0.39 31.13.75.37 /-t_b51335ea3f94a4aabe01fb6265ac34b3e8f9e713-/pngimages/Chapter-4-1/Chapter-4-1-1.png?iorg_service_id_internal=253471785031826%3BAfqB52X2DamHIWXI 71.77 31.280040741 197.776079178 543.414831161 33.2860946655 8.3179473877 1984.88497734
10.50.0.39 31.13.93.37 /-t_b57caf5c7744298f18c24bcf41b20ffac85613c4-/pngimages/Chapter-4-1/Chapter-4-1-10.png?iorg_service_id_internal=253471785031826%3BAfqB52X2DamHIWXI 66.62 30.2200317383 213.728904724 937.022209167 17.4398422241 3.51119041443 1548.60401154
10.50.0.39 31.13.75.37 /-t_0365303bd0ce7a50a866d3af343b4110dcbe6478-/pngimages/Chapter-4-1/Chapter-4-1-11.png?iorg_service_id_internal=253471785031826%3BAfqB52X2DamHIWXI 117.63 37.8720760345 204.093933105 431.148052216 39.7548675537 8.91613960266 3485.09097099
10.50.0.39 31.13.75.37 /-t_b67b4a0795f32d980c6919c134aa20b861e8f6db-/pngimages/Chapter-4-1/Chapter-4-1-12.png?iorg_service_id_internal=253471785031826%3BAfqB52X2DamHIWXI 68.77 40.0109291077 194.451093674 674.39699173 35.3810787201 7.69805908203 1820.86896896
10.50.0.39 31.13.75.37 /-t_185a301911e40dfe078cf959081bcb7b03cfd89a-/pngimages/Chapter-4-1/Chapter-4-1-13.png?iorg_service_id_internal=253471785031826%3BAfqB52X2DamHIWXI 69.29 35.3970527649 181.924104691 530.851840973 34.243106842 4.3740272522 1520.57600021
10.50.0.39 31.13.75.37 /-t_f45924c7f92fa451592603ff05bfb55309ec5ed5-/pngimages/Chapter-4-1/Chapter-4-1-14.png?iorg_service_id_internal=253471785031826%3BAfqB52X2DamHIWXI 67.41 36.6311073303 196.691989899 1498.48413467 34.4128608704 8.76903533936 1940.57512283
10.50.0.39 31.13.93.37 /-t_0287bd84420b845d38cf919eab3fcb6acf39fa9a-/pngimages/Chapter-4-1/Chapter-4-1-15.png?iorg_service_id_internal=253471785031826%3BAfqB52X2DamHIWXI 57.9 30.4899215698 368.981122971 813.143968582 34.5458984375 9.11688804626 885.421037674
10.50.0.39 31.13.75.37 /-t_13eb0159c00b87a1966b95a8f622c8cd07bdb3c7-/pngimages/Chapter-4-1/Chapter-4-1-16.png?iorg_service_id_internal=253471785031826%3BAfqB52X2DamHIWXI 106.58 29.000043869 416.276931763 595.07894516 26.9520282745 11.1100673676 2841.13001823
10.50.0.39 31.13.75.37 /-t_c6ec09e728d6d106f3fa0875c438087c50520b64-/pngimages/Chapter-4-1/Chapter-4-1-17.png?iorg_service_id_internal=253471785031826%3BAfqB52X2DamHIWXI 72.27 31.1620235443 227.296113968 692.023038864 13.5338306427 6.69598579407 1896.92997932
10.50.0.39 31.13.75.37 /-t_53bb9b10788bf7f51961854ae9b1acdfbc3db576-/pngimages/Chapter-4-1/Chapter-4-1-18.png?iorg_service_id_internal=253471785031826%3BAfqB52X2DamHIWXI 70.59 31.4378738403 193.890094757 556.627035141 29.0379524231 7.76696205139 2199.9900341
10.50.0.39 31.13.75.37 /-t_d5cf128af7783e382069607ed0451000099d7b25-/pngimages/Chapter-4-1/Chapter-4-1-19.png?iorg_service_id_internal=253471785031826%3BAfqB52X2DamHIWXI 63.47 22.5360393524 177.573919296 634.941101074 36.1609458923 12.8259658813 1677.82306671
10.50.0.39 31.13.75.37 / content) 34.1579914093 298.202037811 837.169885635 43.7521934509 4.60696220398 28.470993042
10.50.0.39 31.13.75.37 /welcome?next=https%3A%2F%2F0.freebasics.com%2F 28.89 27.1890163422 274.600028992 859.830141068 28.580904007 5.45382499695 316.944122314
10.50.0.39 31.13.75.37 /welcome?next=https%3A%2F%2F0.freebasics.com%2F content) 26.7570018768 281.917095184 677.217006683 32.8288078308 6.94894790649 27.9982089996
10.50.0.39 31.13.75.37 / content) 27.2598266602 343.090057373 715.668916702 30.8492183685 6.49189949036 44.4700717926
10.50.0.39 31.13.75.37 /?_h=1 57.99 36.9670391083 288.460016251 1570.00494003 41.1269664764 5.75995445251 1816.88094139
10.50.0.39 31.13.75.37 /searchservices 55.13 31.6970348358 328.42707634 1265.35987854 33.6420536041 6.36577606201 1731.32920265
10.50.0.39 31.13.93.37 /searchservices?offset=0&next=%D8%A7%DA%AF%D9%84%D8%A7 57.03 23.7550735474 281.81886673 1203.89604568 39.8530960083 7.74598121643 2559.96990204
10.50.0.39 31.13.75.37 /searchservices?offset=20&next=%D8%A7%DA%AF%D9%84%D8%A7 56.95 38.9199256897 1096.9851017 726.054906845 35.7389450073 6.9420337677 1486.4358902
10.50.0.39 31.13.75.37 /searchservices?offset=40&next=%D8%A7%DA%AF%D9%84%D8%A7 56.84 39.1080379486 362.78796196 759.336948395 37.8830432892 7.46321678162 1194.43893433
10.50.0.39 31.13.75.37 /addservice?service_id=253471785031826&previous_url=https%3A%2F%2F0.freebasics.com%2Fsearchservices%3Foffset%3D40%26next%3D%25D8%25A7%25DA%25AF%25D9%2584%25D8%25A7 27.89 26.927947998 363.6739254 977.6699543 28.3560752869 7.3390007019 292.172908783
10.50.0.39 31.13.75.37 /addservice?service_id=253471785031826&previous_url=https%3A%2F%2F0.freebasics.com%2Fsearchservices%3Foffset%3D40%26next%3D%25D8%25A7%25DA%25AF%25D9%2584%25D8%25A7 content) 36.4410877228 512.670993805 3693.60804558 44.517993927 10.2558135986 52.4830818176
10.50.0.39 31.13.93.37 /l?next=https%3A%2F%2Fhttp-learnbasics-mpi--sws-org.0.freebasics.com%2F%3Fiorg_service_id_internal%3D253471785031826%253BAfqB52X2DamHIWXI&h=AXSpSY5hQ-d_mq0L&ref=add_service&service_id=253471785031826 content) 31.2519073486 197.793006897 482.330083847 28.195142746 8.93688201904 40.8902168274
10.50.0.39 31.13.75.37 /?iorg_service_id_internal=253471785031826%3BAfqB52X2DamHIWXI 10.43 29.7720432281 764.516115189 3200.58298111 44.5249080658 10.2670192719 40.7588481903
10.50.0.39 31.13.75.37 /available-courses.html?iorg_service_id_internal=253471785031826%3BAfqB52X2DamHIWXI 10.68 28.0168056488 243.367195129 719.861984253 31.5179824829 13.9451026917 40.4241085052
10.50.0.39 31.13.75.37 /stand-up-and-speak-out-the-practice-and-ethics-of-public-speaking.html?iorg_service_id_internal=253471785031826%3BAfqB52X2DamHIWXI 16.41 30.464887619 493.585109711 797.070026398 32.087802887 14.9021148682 1744.70090866
10.50.0.39 31.13.75.37 /writing-for-success-learn-english-writing.html?iorg_service_id_internal=253471785031826%3BAfqB52X2DamHIWXI 14.09 30.5318832397 315.412998199 666.302204132 40.638923645 11.1010074615 251.535892487
10.50.0.39 31.13.75.37 /communication-skills-for-academics.html?iorg_service_id_internal=253471785031826%3BAfqB52X2DamHIWXI 9.84 30.7772159576 418.113946915 685.824871063 30.3881168365 9.90200042725 38.6459827423
10.50.0.39 31.13.93.37 /english-listening-speaking-and-pronunciation.html?iorg_service_id_internal=253471785031826%3BAfqB52X2DamHIWXI 16.01 26.5491008759 363.309860229 788.75207901 43.4110164642 11.3670825958 1055.13310432
10.50.0.39 31.13.75.37 /basic-algebra.html?iorg_service_id_internal=253471785031826%3BAfqB52X2DamHIWXI 12.34 35.3710651398 409.707069397 656.563997269 45.9949970245 11.2318992615 33.1659317017
10.50.0.39 31.13.75.37 /basic-probability-and-statistics.html?iorg_service_id_internal=253471785031826%3BAfqB52X2DamHIWXI 12.46 32.6619148254 477.462053299 919.486999512 38.5801792145 12.8579139709 355.082035065
10.50.0.39 31.13.75.37 /geometry.html?iorg_service_id_internal=253471785031826%3BAfqB52X2DamHIWXI 12.74 37.3730659485 382.693052292 749.590873718 29.3641090393 9.2511177063 359.732151031
10.50.0.39 31.13.75.37 /mathematical-proofs.html?iorg_service_id_internal=253471785031826%3BAfqB52X2DamHIWXI 14.37 31.7749977112 389.261007309 699.455022812 32.8030586243 14.2590999603 358.994007111
10.50.0.39 31.13.75.37 /leaving?p=1&continueuri=https%3A%2F%2Fwordpress.org%2F&backuri=https%3A%2F%2Fhttp-learnbasics-mpi--sws-org.0.freebasics.com%2Favailable-courses.html%3Fiorg_service_id_internal%3D253471785031826%253BAfqB52X2DamHIWXI&why=i_list&service_id=253471785031826 28.24 30.0788879395 444.445133209 756.397008896 37.556886673 11.3577842712 392.111063004
10.50.0.39 31.13.75.37 /Chapter-1-1/Chapter-1-1.php?iorg_service_id_internal=253471785031826%3BAfqB52X2DamHIWXI 6.47 36.4761352539 399.255037308 759.89484787 41.1269664764 17.2729492188 38.9490127563
10.50.0.39 31.13.93.37 /-t_48c884f057082803caf37b90838c87af5529d79e-/pngimages/Chapter-1-1/Chapter-1-1-0.png?iorg_service_id_internal=253471785031826%3BAfqB52X2DamHIWXI 76.82 32.4440002441 254.021883011 1285.77709198 37.5180244446 11.9252204895 1422.87993431
10.50.0.39 31.13.75.37 /-t_239aad2c38b911a838e34baef015d58490ae80cc-/pngimages/Chapter-1-1/Chapter-1-1-1.png?iorg_service_id_internal=253471785031826%3BAfqB52X2DamHIWXI 68.36 37.5280380249 229.947805405 505.36108017 48.3560562134 9.10902023315 1581.38799667
10.50.0.39 31.13.75.37 /-t_51ab70ab5146d5453354693179cb83a9b1971fc5-/pngimages/Chapter-1-1/Chapter-1-1-10.png?iorg_service_id_internal=253471785031826%3BAfqB52X2DamHIWXI 70.42 31.8031311035 236.335992813 799.133062363 45.6259250641 8.05807113647 1955.08790016
10.50.0.39 31.13.75.37 /-t_c84dfd060c4a779facd5f75d18d761092172cdda-/pngimages/Chapter-1-1/Chapter-1-1-11.png?iorg_service_id_internal=253471785031826%3BAfqB52X2DamHIWXI 61.95 28.5859107971 254.776000977 662.755966187 32.6881408691 15.5460834503 1597.28908539
10.50.0.39 31.13.75.37 /-t_ba807859e26d5e6571b0a3f7e67d5c86b2285c5f-/pngimages/Chapter-1-1/Chapter-1-1-12.png?iorg_service_id_internal=253471785031826%3BAfqB52X2DamHIWXI 57.53 33.4439277649 241.683006287 609.894037247 41.708946228 9.67216491699 773.041963577
10.50.0.39 31.13.75.37 /-t_51a06c89751f672f88f45bdec218457334126f20-/pngimages/Chapter-1-1/Chapter-1-1-13.png?iorg_service_id_internal=253471785031826%3BAfqB52X2DamHIWXI 50.63 34.4681739807 236.793994904 707.380056381 40.5449867249 8.05687904358 521.202087402
10.50.0.39 31.13.93.37 /-t_f8fa29b0a029fcd136011f89d301b66a6234a554-/pngimages/Chapter-1-1/Chapter-1-1-14.png?iorg_service_id_internal=253471785031826%3BAfqB52X2DamHIWXI 6.74 26.5529155731 215.687036514 793.367147446 23.9398479462 5.40804862976 60.8019828796
10.50.0.39 31.13.75.37 /-t_f6cafa07db6e2154ed4643f8dbf47421c11555dd-/pngimages/Chapter-1-1/Chapter-1-1-2.png?iorg_service_id_internal=253471785031826%3BAfqB52X2DamHIWXI 63.5 27.3818969727 229.401111603 713.18602562 37.2908115387 14.4529342651 2773.23508263
10.50.0.39 31.13.75.37 /-t_9b2485a7decf90b9d80de0e2ca48aaf0a9eb4002-/pngimages/Chapter-1-1/Chapter-1-1-3.png?iorg_service_id_internal=253471785031826%3BAfqB52X2DamHIWXI 68.53 33.8850021362 394.881010056 728.419065475 27.2719860077 13.1940841675 1188.01689148
10.50.0.39 31.13.75.37 /-t_3751f9b88c23e65d6f4577a9f7a863111888c003-/pngimages/Chapter-1-1/Chapter-1-1-4.png?iorg_service_id_internal=253471785031826%3BAfqB52X2DamHIWXI 68.71 36.1478328705 444.442033768 712.916135788 35.1579189301 12.8281116486 1838.64116669
10.50.0.39 31.13.75.37 /-t_aa7aeafc761cfcc38648c326f0e9f2b7a3fcc40c-/pngimages/Chapter-1-1/Chapter-1-1-5.png?iorg_service_id_internal=253471785031826%3BAfqB52X2DamHIWXI 85.38 30.4760932922 365.35692215 845.26515007 37.4639034271 3.93104553223 2110.32605171
10.50.0.39 31.13.93.37 /-t_7508eec5ec2cedaff8eb0b3f8b76b8bd4e204feb-/pngimages/Chapter-1-1/Chapter-1-1-6.png?iorg_service_id_internal=253471785031826%3BAfqB52X2DamHIWXI 74.49 34.8019599915 223.411083221 612.864971161 29.8690795898 5.18608093262 2279.63089943
10.50.0.39 31.13.75.37 /-t_bc37b138ad423886a6cd7dec28360f771d77017b-/pngimages/Chapter-1-1/Chapter-1-1-7.png?iorg_service_id_internal=253471785031826%3BAfqB52X2DamHIWXI 106.83 27.8630256653 255.631923676 968.362092972 36.4298820496 9.59205627441 3543.66779327
10.50.0.39 31.13.75.37 /-t_29923b2c0deb20544ff42c12e6e02418f9d56400-/pngimages/Chapter-1-1/Chapter-1-1-8.png?iorg_service_id_internal=253471785031826%3BAfqB52X2DamHIWXI 61.18 27.9819965363 245.209932327 813.592195511 34.2960357666 6.29496574402 764.152050018
10.50.0.39 31.13.75.37 /-t_2706929da2f72584ec770c7ae471d78e81a5e213-/pngimages/Chapter-1-1/Chapter-1-1-9.png?iorg_service_id_internal=253471785031826%3BAfqB52X2DamHIWXI 69.48 30.5910110474 233.675956726 796.412944794 37.5969409943 8.44693183899 1576.22480392
10.50.0.39 31.13.75.37 /Chapter-2-1/Chapter-2-1.php?iorg_service_id_internal=253471785031826%3BAfqB52X2DamHIWXI 9 31.1951637268 340.703010559 694.516897202 27.496099472 9.12308692932 44.1491603851
10.50.0.39 31.13.75.37 /-t_3e68154781c7f2554f8e236d09d701e4801a7860-/pngimages/Chapter-2-1/Chapter-2-1-0.png?iorg_service_id_internal=253471785031826%3BAfqB52X2DamHIWXI 51.23 33.1659317017 235.504150391 661.221027374 27.1179676056 6.2849521637 752.430915833
10.50.0.39 31.13.93.37 /-t_f4f9b775801ce2e1d0ca26fe46c06e81ef1b433b-/pngimages/Chapter-2-1/Chapter-2-1-1.png?iorg_service_id_internal=253471785031826%3BAfqB52X2DamHIWXI 72.52 28.571844101 213.763952255 854.976177216 32.44805336 8.20088386536 1212.05806732
10.50.0.39 31.13.75.37 /-t_840f36f2560a4b80243bd63aad9a58fd4a68c9e2-/pngimages/Chapter-2-1/Chapter-2-1-10.png?iorg_service_id_internal=253471785031826%3BAfqB52X2DamHIWXI 75.02 34.6961021423 789.871931076 645.198106766 19.4878578186 5.77211380005 1496.58298492
10.50.0.39 31.13.75.37 /-t_51b7946a394a81382cc0348bddbe02fad620880a-/pngimages/Chapter-2-1/Chapter-2-1-11.png?iorg_service_id_internal=253471785031826%3BAfqB52X2DamHIWXI 72.8 26.8199443817 347.010135651 652.350902557 29.8409461975 7.248878479 1635.4868412
10.50.0.39 31.13.75.37 /-t_cdf7048815fa882a9cd1f1e3cef60992bc0d49d0-/pngimages/Chapter-2-1/Chapter-2-1-12.png?iorg_service_id_internal=253471785031826%3BAfqB52X2DamHIWXI 70.92 24.7530937195 237.452983856 902.215957642 36.5180969238 9.06014442444 1570.33085823
10.50.0.39 31.13.75.37 /-t_4f30b6b562401b8f98554fabfa3627b6acd0fac6-/pngimages/Chapter-2-1/Chapter-2-1-13.png?iorg_service_id_internal=253471785031826%3BAfqB52X2DamHIWXI 67.7 38.2390022278 337.413072586 828.463077545 32.5930118561 7.78388977051 1285.90297699
10.50.0.39 31.13.75.37 /-t_7c1d88f6233fbfdd678b2a25f8d9e6b245b68f16-/pngimages/Chapter-2-1/Chapter-2-1-14.png?iorg_service_id_internal=253471785031826%3BAfqB52X2DamHIWXI 66.55 32.7229499817 216.021060944 1333.9600563 44.7149276733 9.30190086365 3094.08307076
10.50.0.39 31.13.93.37 /-t_a37717138dfd39d12905dbfd2e2a0e403f48dffd-/pngimages/Chapter-2-1/Chapter-2-1-15.png?iorg_service_id_internal=253471785031826%3BAfqB52X2DamHIWXI 70.84 36.2479686737 524.897813797 807.218074799 17.5421237946 5.10191917419 1242.47598648
10.50.0.39 31.13.75.37 /-t_fa4eb8212a77636a50f4b15ec4cdd5557e5df184-/pngimages/Chapter-2-1/Chapter-2-1-16.png?iorg_service_id_internal=253471785031826%3BAfqB52X2DamHIWXI 64.71 34.5480442047 283.674001694 558.336019516 31.998872757 11.6908550262 1157.3009491
10.50.0.39 31.13.75.37 /-t_2a892ee456e025805848bbe56b51aff15737aaac-/pngimages/Chapter-2-1/Chapter-2-1-17.png?iorg_service_id_internal=253471785031826%3BAfqB52X2DamHIWXI 67.03 29.7470092773 438.853025436 794.616937637 49.339056015 10.9460353851 1892.31514931
10.50.0.39 31.13.75.37 /-t_afcf1096e006d2a19e3e68de2e2cc20a1f73d069-/pngimages/Chapter-2-1/Chapter-2-1-18.png?iorg_service_id_internal=253471785031826%3BAfqB52X2DamHIWXI 74.03 35.4387760162 260.914087296 616.39213562 39.0567779541 9.50598716736 1962.07499504
10.50.0.39 31.13.75.37 /-t_6a6d326af750b6d336bffe753984fc32bb5fcc0b-/pngimages/Chapter-2-1/Chapter-2-1-19.png?iorg_service_id_internal=253471785031826%3BAfqB52X2DamHIWXI 60.77 34.5129966736 309.499025345 580.173015594 30.4129123688 11.0418796539 1401.44300461
10.50.0.39 31.13.75.37 /-t_9d2632065dd1cfd2a1f48ab92f4974ac11c6d4a2-/pngimages/Chapter-2-1/Chapter-2-1-2.png?iorg_service_id_internal=253471785031826%3BAfqB52X2DamHIWXI 69.16 35.0580215454 310.554027557 561.912059784 29.7968387604 10.4510784149 1396.56496048
10.50.0.39 31.13.93.37 /-t_003854b3065e17ffdca319b9e4eb8dcee979b926-/pngimages/Chapter-2-1/Chapter-2-1-20.png?iorg_service_id_internal=253471785031826%3BAfqB52X2DamHIWXI 52.73 26.4580249786 260.516881943 1082.72719383 37.64295578 8.50200653076 1210.5820179
10.50.0.39 31.13.75.37 /-t_7c44abd0f81aa612738998cdaa99cef584acf3a0-/pngimages/Chapter-2-1/Chapter-2-1-21.png?iorg_service_id_internal=253471785031826%3BAfqB52X2DamHIWXI 58.92 30.4608345032 264.080047607 795.925140381 30.0798416138 8.13412666321 1761.80696487
10.50.0.39 31.13.75.37 /-t_4c57008ae6495567aa3a82ffeb3c8a6d7fa7ce93-/pngimages/Chapter-2-1/Chapter-2-1-22.png?iorg_service_id_internal=253471785031826%3BAfqB52X2DamHIWXI 63.48 28.9218425751 238.772153854 957.531929016 36.0848903656 8.9099407196 1342.38600731
10.50.0.39 31.13.75.37 /-t_3a1a1845bee65d3d512f6ca9b0521e588cacd1b6-/pngimages/Chapter-2-1/Chapter-2-1-23.png?iorg_service_id_internal=253471785031826%3BAfqB52X2DamHIWXI 64.7 32.3760509491 264.097929001 555.227041245 35.4990959167 7.96294212341 1318.25494766
10.50.0.39 31.13.75.37 /-t_446b55e1dc438717deaa29b4a5ccc42c4edf4036-/pngimages/Chapter-2-1/Chapter-2-1-24.png?iorg_service_id_internal=253471785031826%3BAfqB52X2DamHIWXI 58.88 30.5118560791 417.750120163 650.898933411 27.6350975037 11.3670825958 1671.19884491
10.50.0.39 31.13.75.37 /-t_430c02850d8a2977918d0bb003bec762d082e627-/pngimages/Chapter-2-1/Chapter-2-1-25.png?iorg_service_id_internal=253471785031826%3BAfqB52X2DamHIWXI 28.69 30.8358669281 242.251157761 652.077913284 35.6659889221 12.6938819885 408.69808197
10.50.0.39 31.13.93.37 /-t_9705a600e5f5a3b377c7b991e0cef204de1a2141-/pngimages/Chapter-2-1/Chapter-2-1-26.png?iorg_service_id_internal=253471785031826%3BAfqB52X2DamHIWXI 6.39 29.5650959015 218.842983246 478.46198082 28.1028747559 7.66897201538 49.8769283295
10.50.0.39 31.13.75.37 /-t_c0140fa05c8f7750587f62dbdafe731164a119d5-/pngimages/Chapter-2-1/Chapter-2-1-3.png?iorg_service_id_internal=253471785031826%3BAfqB52X2DamHIWXI 70.96 24.936914444 303.007125854 597.357034683 36.44490242 7.27486610413 2129.22310829
10.50.0.39 31.13.75.37 /-t_a337ddf160732e59eeb35c0b52c01c2f2f08a847-/pngimages/Chapter-2-1/Chapter-2-1-4.png?iorg_service_id_internal=253471785031826%3BAfqB52X2DamHIWXI 54.66 32.4380397797 248.721837997 860.243082047 19.8578834534 12.1691226959 932.461977005
10.50.0.39 31.13.75.37 /-t_68926a6f065839e10b38d6765c41f72e22afee78-/pngimages/Chapter-2-1/Chapter-2-1-5.png?iorg_service_id_internal=253471785031826%3BAfqB52X2DamHIWXI 47.37 25.6190299988 291.311979294 549.674034119 43.9269542694 11.0919475555 1014.02592659
10.50.0.39 31.13.75.37 /-t_77a8e9381333f198d32a9fdb61fef50aec883d80-/pngimages/Chapter-2-1/Chapter-2-1-6.png?iorg_service_id_internal=253471785031826%3BAfqB52X2DamHIWXI 61.97 27.2588729858 297.065973282 505.867004395 35.5031490326 9.4211101532 1309.75794792
10.50.0.39 31.13.75.37 /-t_4f3ed3c48faff7c6e2c6b2b8c678f028ee364938-/pngimages/Chapter-2-1/Chapter-2-1-7.png?iorg_service_id_internal=253471785031826%3BAfqB52X2DamHIWXI 62 32.4449539185 288.390159607 863.051891327 39.7629737854 8.77714157104 1250.57196617
10.50.0.39 31.13.75.37 /-t_89ad8be55b5f92c0dd48cb7997d84ab3a010b858-/pngimages/Chapter-2-1/Chapter-2-1-8.png?iorg_service_id_internal=253471785031826%3BAfqB52X2DamHIWXI 70.46 23.423910141 509.699106216 773.682117462 31.4228534698 14.9011611938 1650.13599396
10.50.0.39 31.13.93.37 /-t_6a2cc070393406f0e30e853056f928a29fd16179-/pngimages/Chapter-2-1/Chapter-2-1-9.png?iorg_service_id_internal=253471785031826%3BAfqB52X2DamHIWXI 76.07 31.9130420685 216.681957245 756.787061691 43.4939861298 15.1801109314 1990.6539917
10.50.0.39 31.13.75.37 /Chapter-3-1/Chapter-3-1.php?iorg_service_id_internal=253471785031826%3BAfqB52X2DamHIWXI 8.58 29.5650959015 396.98600769 812.796831131 25.2180099487 9.47999954224 48.3369827271
10.50.0.39 31.13.75.37 /-t_7c8ed2af30b42ff75238df4f50ecc5d4d02dee1f-/pngimages/Chapter-3-1/Chapter-3-1-0.png?iorg_service_id_internal=253471785031826%3BAfqB52X2DamHIWXI 6.39 28.0640125275 249.430894852 624.017953873 34.7549915314 9.00292396545 37.4920368195
10.50.0.39 31.13.75.37 /-t_189f01c6e9bea10f9489fe47c2a589b64946d652-/pngimages/Chapter-3-1/Chapter-3-1-1.png?iorg_service_id_internal=253471785031826%3BAfqB52X2DamHIWXI 62.09 29.8500061035 277.348041534 534.065961838 30.3740501404 8.38589668274 1428.92193794
10.50.0.39 31.13.75.37 /-t_250dc7ce98afa972fff8bba5d8a79c5293a329ad-/pngimages/Chapter-3-1/Chapter-3-1-10.png?iorg_service_id_internal=253471785031826%3BAfqB52X2DamHIWXI 64.38 30.3909778595 238.882064819 759.997844696 21.2709903717 4.06789779663 1678.59387398
10.50.0.39 31.13.75.37 /-t_d354ebf49a67488d39244024187fda876b07eba8-/pngimages/Chapter-3-1/Chapter-3-1-11.png?iorg_service_id_internal=253471785031826%3BAfqB52X2DamHIWXI 67.07 29.8209190369 419.811010361 839.482069016 34.7249507904 11.9230747223 2025.35390854
10.50.0.39 31.13.93.37 /-t_cb88999b10143347c0ee09986bb38a34e3a1b398-/pngimages/Chapter-3-1/Chapter-3-1-12.png?iorg_service_id_internal=253471785031826%3BAfqB52X2DamHIWXI 56.21 37.2040271759 1204.54192162 983.241081238 42.9079532623 9.22203063965 934.198141098
10.50.0.39 31.13.75.37 /-t_1a190f35eb133d0c299d4e098c8825b5247fe812-/pngimages/Chapter-3-1/Chapter-3-1-13.png?iorg_service_id_internal=253471785031826%3BAfqB52X2DamHIWXI 72.23 35.2990627289 262.513875961 830.916166306 36.5979671478 7.74884223938 1606.77719116
10.50.0.39 31.13.75.37 /-t_a0ec4a2786251bc4fdd2a19ebe1a3f15d43979d1-/pngimages/Chapter-3-1/Chapter-3-1-14.png?iorg_service_id_internal=253471785031826%3BAfqB52X2DamHIWXI 63.76 31.7649841309 295.745134354 593.46985817 31.6159725189 8.98694992065 1188.48013878
10.50.0.39 31.13.75.37 /-t_f782020c321afcb2246ceaa756e57a1e52b6c3ca-/pngimages/Chapter-3-1/Chapter-3-1-15.png?iorg_service_id_internal=253471785031826%3BAfqB52X2DamHIWXI 67.5 29.0458202362 286.255121231 730.314970016 32.2730541229 9.1860294342 1162.06693649
10.50.0.39 31.13.75.37 /-t_6e3324b6f966660b172b9f5fb1abeb443e20d763-/pngimages/Chapter-3-1/Chapter-3-1-16.png?iorg_service_id_internal=253471785031826%3BAfqB52X2DamHIWXI 69.54 29.0820598602 423.840999603 795.129060745 36.2839698792 8.01801681519 1762.57896423
10.50.0.39 31.13.75.37 /-t_9c4e1f022f8cdf94b962559d3b3aa93de51a0a32-/pngimages/Chapter-3-1/Chapter-3-1-17.png?iorg_service_id_internal=253471785031826%3BAfqB52X2DamHIWXI 62.34 39.1161441803 294.823884964 858.649015427 30.7018756866 8.14080238342 1532.1969986
10.50.0.39 31.13.93.37 /-t_7d8647697ec992763bcf6b56bf113b61bcc0af02-/pngimages/Chapter-3-1/Chapter-3-1-18.png?iorg_service_id_internal=253471785031826%3BAfqB52X2DamHIWXI 67.63 28.1641483307 366.940975189 772.658824921 44.340133667 8.82005691528 1506.34813309
10.50.0.39 31.13.75.37 /-t_b6a3ad0e05ffd27629b3060f35ad6ad0234e93aa-/pngimages/Chapter-3-1/Chapter-3-1-19.png?iorg_service_id_internal=253471785031826%3BAfqB52X2DamHIWXI 63.23 29.3629169464 371.469020844 858.572006226 29.0400981903 8.72707366943 1683.05206299
10.50.0.39 31.13.75.37 /-t_45dd1cdca43bb504dc9f5be1db64d3c5d721821e-/pngimages/Chapter-3-1/Chapter-3-1-2.png?iorg_service_id_internal=253471785031826%3BAfqB52X2DamHIWXI 69.62 37.5621318817 423.554897308 1012.16411591 20.5149650574 7.86209106445 1190.15097618
10.50.0.39 31.13.75.37 /-t_5975a720fe9d383bfbf2e1e80371db68c387d25b-/pngimages/Chapter-3-1/Chapter-3-1-20.png?iorg_service_id_internal=253471785031826%3BAfqB52X2DamHIWXI 74.29 28.2878875732 381.307125092 743.343830109 22.5901603699 12.540102005 1695.66297531
10.50.0.39 31.13.75.37 /-t_48bd9e693ef6ba216641a3029b9e114f26631c45-/pngimages/Chapter-3-1/Chapter-3-1-21.png?iorg_service_id_internal=253471785031826%3BAfqB52X2DamHIWXI 61.27 31.5318107605 243.610143661 549.402952194 16.5429115295 4.86087799072 1701.82085037
10.50.0.39 31.13.93.37 /-t_7937a2c78c3ce3e3ecbda07e54eb4bd0e186f348-/pngimages/Chapter-3-1/Chapter-3-1-22.png?iorg_service_id_internal=253471785031826%3BAfqB52X2DamHIWXI 58.38 32.5000286102 1211.62414551 762.370824814 29.8249721527 8.57305526733 896.953105927
10.50.0.39 31.13.75.37 /-t_f332f56b38d00a7b1590640a95214d91da80d02c-/pngimages/Chapter-3-1/Chapter-3-1-23.png?iorg_service_id_internal=253471785031826%3BAfqB52X2DamHIWXI 65.71 27.7659893036 363.893985748 652.137994766 32.4149131775 8.9271068573 2244.85683441
10.50.0.39 31.13.75.37 /-t_c8d5e926de32fd2514111a092ca514dcf1679788-/pngimages/Chapter-3-1/Chapter-3-1-24.png?iorg_service_id_internal=253471785031826%3BAfqB52X2DamHIWXI 57.36 25.899887085 357.282161713 554.836034775 34.6789360046 9.24611091614 1444.77415085
10.50.0.39 31.13.75.37 /-t_9265011c4e5a1492f539a59a69cd1d5b40179949-/pngimages/Chapter-3-1/Chapter-3-1-3.png?iorg_service_id_internal=253471785031826%3BAfqB52X2DamHIWXI 70.19 26.8311500549 354.818820953 827.522993088 34.9130630493 8.64005088806 1892.27581024
10.50.0.39 31.13.75.37 /-t_53ff8861d309ce85d13bd31fa2ff28808c03207d-/pngimages/Chapter-3-1/Chapter-3-1-4.png?iorg_service_id_internal=253471785031826%3BAfqB52X2DamHIWXI 69.17 31.879901886 370.260000229 636.949062347 30.4539203644 6.43396377563 1725.47984123
10.50.0.39 31.13.75.37 /-t_c592a7afa36dad5d5096b331132402bb2bca1c61-/pngimages/Chapter-3-1/Chapter-3-1-5.png?iorg_service_id_internal=253471785031826%3BAfqB52X2DamHIWXI 71.29 33.5128307343 315.821170807 681.330919266 39.1180515289 9.60516929626 1610.47792435
10.50.0.39 31.13.93.37 /-t_8b742532527bdb11660592d1115947993fb3096d-/pngimages/Chapter-3-1/Chapter-3-1-6.png?iorg_service_id_internal=253471785031826%3BAfqB52X2DamHIWXI 69.37 36.5569591522 335.328102112 883.697986603 29.4599533081 8.42213630676 2018.74780655
10.50.0.39 31.13.75.37 /-t_06bc0fc052e5faff22b3913585f50e134194254f-/pngimages/Chapter-3-1/Chapter-3-1-7.png?iorg_service_id_internal=253471785031826%3BAfqB52X2DamHIWXI 50.96 28.3601284027 263.835906982 622.412919998 35.4931354523 8.79311561584 910.128831863
10.50.0.39 31.13.75.37 /-t_94b723057fba86e2ee38a588f9a79fabaa357fc8-/pngimages/Chapter-3-1/Chapter-3-1-8.png?iorg_service_id_internal=253471785031826%3BAfqB52X2DamHIWXI 69.96 30.4667949677 238.833189011 859.308958054 32.4289798737 15.9320831299 2103.22904587
10.50.0.39 31.13.75.37 /-t_5d6832d23bb4e9dbde58855a1fb398afb6b754e9-/pngimages/Chapter-3-1/Chapter-3-1-9.png?iorg_service_id_internal=253471785031826%3BAfqB52X2DamHIWXI 58.62 28.4960269928 261.558055878 614.578962326 33.5829257965 12.2299194336 982.645988464
10.50.0.39 31.13.75.37 /Chapter-4-1/Chapter-4-1.php?iorg_service_id_internal=253471785031826%3BAfqB52X2DamHIWXI 10.69 25.955915451 1365.90909958 682.976961136 35.7818603516 9.75799560547 37.003993988
10.50.0.39 31.13.75.37 /-t_e65cb3d2060b8a9f34a79835d4890b8660b2e5b0-/pngimages/Chapter-4-1/Chapter-4-1-0.png?iorg_service_id_internal=253471785031826%3BAfqB52X2DamHIWXI 62.53 38.4931564331 236.667871475 410.917043686 35.7921123505 7.42220878601 1213.26899529
10.50.0.39 31.13.75.37 /-t_b51335ea3f94a4aabe01fb6265ac34b3e8f9e713-/pngimages/Chapter-4-1/Chapter-4-1-1.png?iorg_service_id_internal=253471785031826%3BAfqB52X2DamHIWXI 71.77 31.280040741 197.776079178 543.414831161 33.2860946655 8.3179473877 1984.88497734
10.50.0.39 31.13.93.37 /-t_b57caf5c7744298f18c24bcf41b20ffac85613c4-/pngimages/Chapter-4-1/Chapter-4-1-10.png?iorg_service_id_internal=253471785031826%3BAfqB52X2DamHIWXI 66.62 30.2200317383 213.728904724 937.022209167 17.4398422241 3.51119041443 1548.60401154
10.50.0.39 31.13.75.37 /-t_0365303bd0ce7a50a866d3af343b4110dcbe6478-/pngimages/Chapter-4-1/Chapter-4-1-11.png?iorg_service_id_internal=253471785031826%3BAfqB52X2DamHIWXI 117.63 37.8720760345 204.093933105 431.148052216 39.7548675537 8.91613960266 3485.09097099
10.50.0.39 31.13.75.37 /-t_b67b4a0795f32d980c6919c134aa20b861e8f6db-/pngimages/Chapter-4-1/Chapter-4-1-12.png?iorg_service_id_internal=253471785031826%3BAfqB52X2DamHIWXI 68.77 40.0109291077 194.451093674 674.39699173 35.3810787201 7.69805908203 1820.86896896
10.50.0.39 31.13.75.37 /-t_185a301911e40dfe078cf959081bcb7b03cfd89a-/pngimages/Chapter-4-1/Chapter-4-1-13.png?iorg_service_id_internal=253471785031826%3BAfqB52X2DamHIWXI 69.29 35.3970527649 181.924104691 530.851840973 34.243106842 4.3740272522 1520.57600021
10.50.0.39 31.13.75.37 /-t_f45924c7f92fa451592603ff05bfb55309ec5ed5-/pngimages/Chapter-4-1/Chapter-4-1-14.png?iorg_service_id_internal=253471785031826%3BAfqB52X2DamHIWXI 67.41 36.6311073303 196.691989899 1498.48413467 34.4128608704 8.76903533936 1940.57512283
10.50.0.39 31.13.93.37 /-t_0287bd84420b845d38cf919eab3fcb6acf39fa9a-/pngimages/Chapter-4-1/Chapter-4-1-15.png?iorg_service_id_internal=253471785031826%3BAfqB52X2DamHIWXI 57.9 30.4899215698 368.981122971 813.143968582 34.5458984375 9.11688804626 885.421037674
10.50.0.39 31.13.75.37 /-t_13eb0159c00b87a1966b95a8f622c8cd07bdb3c7-/pngimages/Chapter-4-1/Chapter-4-1-16.png?iorg_service_id_internal=253471785031826%3BAfqB52X2DamHIWXI 106.58 29.000043869 416.276931763 595.07894516 26.9520282745 11.1100673676 2841.13001823
10.50.0.39 31.13.75.37 /-t_c6ec09e728d6d106f3fa0875c438087c50520b64-/pngimages/Chapter-4-1/Chapter-4-1-17.png?iorg_service_id_internal=253471785031826%3BAfqB52X2DamHIWXI 72.27 31.1620235443 227.296113968 692.023038864 13.5338306427 6.69598579407 1896.92997932
10.50.0.39 31.13.75.37 /-t_53bb9b10788bf7f51961854ae9b1acdfbc3db576-/pngimages/Chapter-4-1/Chapter-4-1-18.png?iorg_service_id_internal=253471785031826%3BAfqB52X2DamHIWXI 70.59 31.4378738403 193.890094757 556.627035141 29.0379524231 7.76696205139 2199.9900341
10.50.0.39 31.13.75.37 /-t_d5cf128af7783e382069607ed0451000099d7b25-/pngimages/Chapter-4-1/Chapter-4-1-19.png?iorg_service_id_internal=253471785031826%3BAfqB52X2DamHIWXI 63.47 22.5360393524 177.573919296 634.941101074 36.1609458923 12.8259658813 1677.82306671
