31.13.102.96
31.13.102.97
31.13.102.98
31.13.102.99
173.252.90.80
173.252.90.81
173.252.90.82
173.252.90.83
173.252.90.84
173.252.90.85
173.252.90.86
173.252.90.87
173.252.90.88
173.252.90.89
173.252.90.90
173.252.90.91
173.252.90.92
173.252.90.93
173.252.90.94
31.13.102.100
31.13.102.101
31.13.102.102
31.13.102.103
31.13.102.104
31.13.102.105
31.13.102.107
31.13.102.108
31.13.102.109
31.13.102.110
31.13.102.111
31.13.102.116
31.13.102.117
31.13.102.118
31.13.102.119
31.13.102.120
31.13.102.121
31.13.102.122
31.13.102.123
31.13.102.124
31.13.102.125
31.13.102.126
31.13.102.127
173.252.88.180
173.252.88.181
173.252.88.182
173.252.88.183
173.252.88.184
173.252.88.185
173.252.88.186
173.252.88.187
173.252.88.188
173.252.88.189
173.252.88.190
173.252.88.191
