31.13.90.37 173.252.88.91 149.613 212.712
31.13.90.37 173.252.88.94 149.613 220.818
31.13.90.37 31.13.102.97 149.613 315.476
31.13.90.37 31.13.110.107 149.613 314.982
31.13.90.37 31.13.113.173 149.613 314.677
31.13.90.37 31.13.113.93 149.613 321.660
31.13.90.37 173.252.88.89 149.613 217.938
31.13.90.37 173.252.88.92 149.613 233.914
31.13.90.37 31.13.102.111 149.613 311.182
31.13.90.37 31.13.110.126 149.613 309.637
31.13.90.37 31.13.113.179 149.613 310.013
31.13.90.37 31.13.113.87 149.613 324.349
31.13.90.37 173.252.88.86 149.613 229.058
31.13.90.37 173.252.88.92 149.613 233.914
31.13.90.37 31.13.102.103 149.613 316.017
31.13.90.37 31.13.110.110 149.613 320.985
31.13.90.37 31.13.113.183 149.613 314.993
31.13.90.37 31.13.113.93 149.613 321.660
31.13.90.37 173.252.88.90 149.613 223.608
31.13.90.37 173.252.88.93 149.613 217.701
31.13.90.37 31.13.102.119 149.613 314.314
31.13.90.37 31.13.110.127 149.613 316.338
31.13.90.37 31.13.113.88 149.613 310.388
31.13.90.37 31.13.114.73 149.613 316.046
31.13.90.37 173.252.88.86 149.613 229.058
31.13.90.37 173.252.88.92 149.613 233.914
31.13.90.37 31.13.102.125 149.613 310.331
31.13.90.37 31.13.110.96 149.613 309.550
31.13.90.37 31.13.113.184 149.613 320.886
31.13.90.37 31.13.113.87 149.613 324.349
31.13.90.37 173.252.88.84 149.613 212.420
31.13.90.37 173.252.88.90 149.613 223.608
31.13.90.37 31.13.102.98 149.613 308.931
31.13.90.37 31.13.110.97 149.613 316.285
31.13.90.37 31.13.113.87 149.613 324.349
31.13.90.37 31.13.114.71 149.613 316.934
31.13.90.37 173.252.88.91 149.613 212.712
31.13.90.37 173.252.88.93 149.613 217.701
31.13.90.37 31.13.102.110 149.613 309.918
31.13.90.37 31.13.110.106 149.613 310.834
31.13.90.37 31.13.113.172 149.613 314.063
31.13.90.37 31.13.113.89 149.613 314.954
31.13.90.37 173.252.88.88 149.613 212.953
31.13.90.37 173.252.88.90 149.613 223.608
31.13.90.37 31.13.102.117 149.613 322.072
31.13.90.37 31.13.110.116 149.613 322.659
31.13.90.37 31.13.113.175 149.613 314.927
31.13.90.37 31.13.113.90 149.613 321.341
31.13.90.37 173.252.88.90 149.613 223.608
31.13.90.37 173.252.88.95 149.613 234.037
31.13.90.37 31.13.102.102 149.613 314.670
31.13.90.37 31.13.110.125 149.613 316.312
31.13.90.37 31.13.113.182 149.613 314.283
31.13.90.37 31.13.113.81 149.613 322.622
