31.13.90.37 173.252.88.95 149.613 197.655
31.13.90.37 173.252.90.249 149.613 201.508
31.13.90.37 31.13.102.116 149.613 304.310
31.13.90.37 173.252.88.90 149.613 203.233
31.13.90.37 173.252.90.234 149.613 201.172
31.13.90.37 31.13.102.126 149.613 309.790
31.13.90.37 173.252.88.94 149.613 213.555
31.13.90.37 173.252.90.235 149.613 204.868
31.13.90.37 31.13.102.125 149.613 310.433
31.13.90.37 173.252.88.93 149.613 200.608
31.13.90.37 173.252.90.247 149.613 206.890
31.13.90.37 31.13.102.123 149.613 328.229
31.13.90.37 173.252.88.91 149.613 195.304
31.13.90.37 173.252.90.245 149.613 199.568
31.13.90.37 31.13.102.103 149.613 311.785
31.13.90.37 173.252.88.94 149.613 213.555
31.13.90.37 173.252.90.240 149.613 206.325
31.13.90.37 31.13.102.96 149.613 331.076
31.13.90.37 173.252.88.86 149.613 199.010
31.13.90.37 173.252.90.236 149.613 198.489
31.13.90.37 31.13.102.100 149.613 298.966
31.13.90.37 173.252.88.91 149.613 195.304
31.13.90.37 173.252.90.231 149.613 194.939
31.13.90.37 31.13.102.97 149.613 315.637
31.13.90.37 173.252.88.85 149.613 195.311
31.13.90.37 173.252.90.246 149.613 198.480
31.13.90.37 31.13.102.98 149.613 316.760
