10.50.0.30 31.13.75.37 / content) 31.0161113739 255.725860596 412.289142609 33.3290100098 5.31005859375 42.3998832703
10.50.0.30 31.13.75.37 /welcome?next=https%3A%2F%2F0.freebasics.com%2F 28.89 31.9349765778 180.423021317 722.695112228 35.1369380951 6.10494613647 185.609102249
10.50.0.30 31.13.75.37 /welcome?next=https%3A%2F%2F0.freebasics.com%2F content) 34.7988605499 205.43217659 582.524776459 39.5061969757 7.82489776611 28.7628173828
10.50.0.30 31.13.75.37 / content) 27.3208618164 152.714014053 699.921131134 33.3268642426 7.16114044189 45.5589294434
10.50.0.30 31.13.75.37 /?_h=1 64.61 28.0270576477 151.479005814 424.428939819 34.0960025787 6.55603408813 2346.52805328
10.50.0.30 31.13.75.37 /searchservices 55.13 29.5858383179 171.463012695 595.299005508 29.8471450806 5.73801994324 2378.73005867
10.50.0.30 31.13.75.37 /searchservices?offset=0&next=%D8%A7%DA%AF%D9%84%D8%A7 57.03 35.6969833374 158.607006073 383.791923523 33.2171916962 11.0099315643 1258.51488113
10.50.0.30 31.13.75.37 /searchservices?offset=20&next=%D8%A7%DA%AF%D9%84%D8%A7 56.95 31.6050052643 172.697067261 376.564979553 35.717010498 8.02993774414 1528.25498581
10.50.0.30 31.13.93.37 /searchservices?offset=40&next=%D8%A7%DA%AF%D9%84%D8%A7 56.84 36.0288619995 362.666130066 939.778804779 27.0822048187 4.40692901611 1406.48794174
10.50.0.30 31.13.75.37 /addservice?service_id=253471785031826&previous_url=https%3A%2F%2F0.freebasics.com%2Fsearchservices%3Foffset%3D40%26next%3D%25D8%25A7%25DA%25AF%25D9%2584%25D8%25A7 27.89 31.8570137024 184.117078781 608.859062195 30.590057373 8.13603401184 184.898138046
10.50.0.30 31.13.75.37 /addservice?service_id=253471785031826&previous_url=https%3A%2F%2F0.freebasics.com%2Fsearchservices%3Foffset%3D40%26next%3D%25D8%25A7%25DA%25AF%25D9%2584%25D8%25A7 content) 31.9328308105 167.380094528 574.205875397 35.0451469421 11.0039710999 44.7399616241
10.50.0.30 31.13.75.37 /l?next=https%3A%2F%2Fhttp-learnbasics-mpi--sws-org.0.freebasics.com%2F%3Fiorg_service_id_internal%3D253471785031826%253BAfqDuxasS_OERRqA&h=AXSFGKeTft4A6nC4&ref=add_service&service_id=253471785031826 content) 33.5471630096 201.642990112 562.129020691 30.534029007 8.89015197754 31.2511920929
10.50.0.30 31.13.75.37 /?iorg_service_id_internal=253471785031826%3BAfqDuxasS_OERRqA 10.43 32.0339202881 158.679008484 374.530076981 40.755033493 8.73303413391 51.6359806061
10.50.0.30 31.13.75.37 /available-courses.html?iorg_service_id_internal=253471785031826%3BAfqDuxasS_OERRqA 10.68 27.5490283966 493.746995926 402.501106262 41.4378643036 10.370016098 46.1280345917
10.50.0.30 31.13.75.37 /stand-up-and-speak-out-the-practice-and-ethics-of-public-speaking.html?iorg_service_id_internal=253471785031826%3BAfqDuxasS_OERRqA 16.41 26.290178299 436.977863312 563.087940216 27.0910263062 8.21399688721 167.314052582
10.50.0.30 31.13.75.37 /writing-for-success-learn-english-writing.html?iorg_service_id_internal=253471785031826%3BAfqDuxasS_OERRqA 14.09 30.2309989929 365.586996078 659.060955048 29.56199646 9.81497764587 168.234825134
10.50.0.30 31.13.75.37 /communication-skills-for-academics.html?iorg_service_id_internal=253471785031826%3BAfqDuxasS_OERRqA 9.84 28.0311107635 158.232927322 363.915920258 29.767036438 10.2598667145 40.4410362244
10.50.0.30 31.13.93.37 /english-listening-speaking-and-pronunciation.html?iorg_service_id_internal=253471785031826%3BAfqDuxasS_OERRqA 16.01 31.4841270447 210.595846176 716.775178909 40.1499271393 9.87887382507 1056.29205704
10.50.0.30 31.13.75.37 /basic-algebra.html?iorg_service_id_internal=253471785031826%3BAfqDuxasS_OERRqA 12.34 37.9409790039 188.172101974 723.471879959 37.3630523682 15.3470039368 161.967992783
10.50.0.30 31.13.75.37 /basic-probability-and-statistics.html?iorg_service_id_internal=253471785031826%3BAfqDuxasS_OERRqA 12.46 33.2958698273 574.796199799 566.015958786 31.3069820404 13.3631229401 176.53799057
10.50.0.30 31.13.75.37 /geometry.html?iorg_service_id_internal=253471785031826%3BAfqDuxasS_OERRqA 12.74 28.7420749664 311.0871315 804.013967514 31.9948196411 9.81616973877 217.557907104
10.50.0.30 31.13.75.37 /mathematical-proofs.html?iorg_service_id_internal=253471785031826%3BAfqDuxasS_OERRqA 14.37 38.6049747467 166.437149048 398.100852966 36.1430644989 9.07707214355 182.295084
10.50.0.30 31.13.75.37 /leaving?p=1&continueuri=https%3A%2F%2Fwordpress.org%2F&backuri=https%3A%2F%2Fhttp-learnbasics-mpi--sws-org.0.freebasics.com%2Favailable-courses.html%3Fiorg_service_id_internal%3D253471785031826%253BAfqDuxasS_OERRqA&why=i_list&service_id=253471785031826 28.24 30.1961898804 665.903806686 362.71905899 32.2699546814 13.4100914001 201.30109787
10.50.0.30 31.13.75.37 /Chapter-1-1/Chapter-1-1.php?iorg_service_id_internal=253471785031826%3BAfqDuxasS_OERRqA 6.47 30.152797699 158.030033112 750.689029694 29.1390419006 11.3689899445 41.3830280304
10.50.0.30 31.13.75.37 /-t_48c884f057082803caf37b90838c87af5529d79e-/pngimages/Chapter-1-1/Chapter-1-1-0.png?iorg_service_id_internal=253471785031826%3BAfqDuxasS_OERRqA 76.82 27.2240638733 580.088853836 642.493963242 37.7750396729 8.68201255798 2092.56196022
10.50.0.30 31.13.93.37 /-t_239aad2c38b911a838e34baef015d58490ae80cc-/pngimages/Chapter-1-1/Chapter-1-1-1.png?iorg_service_id_internal=253471785031826%3BAfqDuxasS_OERRqA 68.36 26.2069702148 589.205980301 1730.23915291 25.0730514526 6.01816177368 1590.22188187
10.50.0.30 31.13.75.37 /-t_51ab70ab5146d5453354693179cb83a9b1971fc5-/pngimages/Chapter-1-1/Chapter-1-1-10.png?iorg_service_id_internal=253471785031826%3BAfqDuxasS_OERRqA 70.42 33.5850715637 171.103954315 360.805988312 38.7880802155 7.48515129089 2298.88701439
10.50.0.30 31.13.75.37 /-t_c84dfd060c4a779facd5f75d18d761092172cdda-/pngimages/Chapter-1-1/Chapter-1-1-11.png?iorg_service_id_internal=253471785031826%3BAfqDuxasS_OERRqA 61.95 36.3171100616 191.75195694 656.653881073 42.5679683685 14.2109394073 1044.34299469
10.50.0.30 31.13.75.37 /-t_ba807859e26d5e6571b0a3f7e67d5c86b2285c5f-/pngimages/Chapter-1-1/Chapter-1-1-12.png?iorg_service_id_internal=253471785031826%3BAfqDuxasS_OERRqA 57.53 24.0020751953 179.065942764 562.303066254 42.4199104309 8.40497016907 1891.43490791
10.50.0.30 31.13.75.37 /-t_51a06c89751f672f88f45bdec218457334126f20-/pngimages/Chapter-1-1/Chapter-1-1-13.png?iorg_service_id_internal=253471785031826%3BAfqDuxasS_OERRqA 50.63 31.681060791 193.490028381 627.511024475 14.9278640747 3.51405143738 468.424081802
10.50.0.30 31.13.75.37 /-t_f8fa29b0a029fcd136011f89d301b66a6234a554-/pngimages/Chapter-1-1/Chapter-1-1-14.png?iorg_service_id_internal=253471785031826%3BAfqDuxasS_OERRqA 6.74 36.9489192963 161.026000977 351.454019547 32.4039459229 9.21678543091 39.9560928345
10.50.0.30 31.13.75.37 /-t_f6cafa07db6e2154ed4643f8dbf47421c11555dd-/pngimages/Chapter-1-1/Chapter-1-1-2.png?iorg_service_id_internal=253471785031826%3BAfqDuxasS_OERRqA 63.5 28.1851291656 152.724981308 383.43000412 27.9219150543 7.64298439026 2092.69404411
10.50.0.30 31.13.93.37 /-t_9b2485a7decf90b9d80de0e2ca48aaf0a9eb4002-/pngimages/Chapter-1-1/Chapter-1-1-3.png?iorg_service_id_internal=253471785031826%3BAfqDuxasS_OERRqA 68.53 29.7508239746 181.10704422 934.982061386 25.9540081024 7.07101821899 1936.07902527
10.50.0.30 31.13.75.37 /-t_3751f9b88c23e65d6f4577a9f7a863111888c003-/pngimages/Chapter-1-1/Chapter-1-1-4.png?iorg_service_id_internal=253471785031826%3BAfqDuxasS_OERRqA 68.71 28.3861160278 218.638896942 359.99417305 29.8058986664 11.3070011139 1524.54710007
10.50.0.30 31.13.75.37 /-t_aa7aeafc761cfcc38648c326f0e9f2b7a3fcc40c-/pngimages/Chapter-1-1/Chapter-1-1-5.png?iorg_service_id_internal=253471785031826%3BAfqDuxasS_OERRqA 85.38 32.7649116516 162.609100342 401.991844177 42.6590442657 6.58798217773 3997.69997597
10.50.0.30 31.13.75.37 /-t_7508eec5ec2cedaff8eb0b3f8b76b8bd4e204feb-/pngimages/Chapter-1-1/Chapter-1-1-6.png?iorg_service_id_internal=253471785031826%3BAfqDuxasS_OERRqA 74.49 32.3431491852 253.460884094 483.232975006 37.3179912567 7.81917572021 1211.07912064
10.50.0.30 31.13.75.37 /-t_bc37b138ad423886a6cd7dec28360f771d77017b-/pngimages/Chapter-1-1/Chapter-1-1-7.png?iorg_service_id_internal=253471785031826%3BAfqDuxasS_OERRqA 106.83 29.116153717 179.057836533 363.664150238 28.137922287 6.57296180725 3214.87283707
10.50.0.30 31.13.93.37 /-t_29923b2c0deb20544ff42c12e6e02418f9d56400-/pngimages/Chapter-1-1/Chapter-1-1-8.png?iorg_service_id_internal=253471785031826%3BAfqDuxasS_OERRqA 61.18 35.304069519 192.193984985 458.184957504 35.2280139923 8.19110870361 1586.44509315
10.50.0.30 31.13.75.37 /-t_2706929da2f72584ec770c7ae471d78e81a5e213-/pngimages/Chapter-1-1/Chapter-1-1-9.png?iorg_service_id_internal=253471785031826%3BAfqDuxasS_OERRqA 69.48 37.7440452576 150.774002075 362.729072571 31.7180156708 8.42499732971 1582.72695541
10.50.0.30 31.13.75.37 /Chapter-2-1/Chapter-2-1.php?iorg_service_id_internal=253471785031826%3BAfqDuxasS_OERRqA 9 30.7459831238 156.332969666 594.308137894 38.0709171295 11.1467838287 37.2331142426
10.50.0.30 31.13.75.37 /-t_3e68154781c7f2554f8e236d09d701e4801a7860-/pngimages/Chapter-2-1/Chapter-2-1-0.png?iorg_service_id_internal=253471785031826%3BAfqDuxasS_OERRqA 51.23 27.2581577301 174.381017685 575.481891632 34.1060161591 12.4909877777 544.419050217
10.50.0.30 31.13.75.37 /-t_f4f9b775801ce2e1d0ca26fe46c06e81ef1b433b-/pngimages/Chapter-2-1/Chapter-2-1-1.png?iorg_service_id_internal=253471785031826%3BAfqDuxasS_OERRqA 72.52 26.7000198364 189.882993698 401.766061783 35.2079868317 15.9859657288 2254.36902046
10.50.0.30 31.13.75.37 /-t_840f36f2560a4b80243bd63aad9a58fd4a68c9e2-/pngimages/Chapter-2-1/Chapter-2-1-10.png?iorg_service_id_internal=253471785031826%3BAfqDuxasS_OERRqA 75.02 32.2241783142 192.127943039 759.868860245 36.5309715271 8.06593894958 2261.84296608
10.50.0.30 31.13.75.37 /-t_51b7946a394a81382cc0348bddbe02fad620880a-/pngimages/Chapter-2-1/Chapter-2-1-11.png?iorg_service_id_internal=253471785031826%3BAfqDuxasS_OERRqA 72.8 24.8551368713 267.40193367 593.155860901 26.7300605774 11.5940570831 1618.31307411
10.50.0.30 31.13.93.37 /-t_cdf7048815fa882a9cd1f1e3cef60992bc0d49d0-/pngimages/Chapter-2-1/Chapter-2-1-12.png?iorg_service_id_internal=253471785031826%3BAfqDuxasS_OERRqA 70.92 27.2181034088 197.238922119 462.021112442 31.1579704285 6.90698623657 1830.05023003
10.50.0.30 31.13.75.37 /-t_4f30b6b562401b8f98554fabfa3627b6acd0fac6-/pngimages/Chapter-2-1/Chapter-2-1-13.png?iorg_service_id_internal=253471785031826%3BAfqDuxasS_OERRqA 67.7 31.9151878357 372.148990631 409.466028214 32.702922821 8.27598571777 1526.02887154
10.50.0.30 31.13.75.37 /-t_7c1d88f6233fbfdd678b2a25f8d9e6b245b68f16-/pngimages/Chapter-2-1/Chapter-2-1-14.png?iorg_service_id_internal=253471785031826%3BAfqDuxasS_OERRqA 66.55 30.4741859436 166.9049263 567.544937134 26.4000892639 7.25698471069 1612.82205582
10.50.0.30 31.13.75.37 /-t_a37717138dfd39d12905dbfd2e2a0e403f48dffd-/pngimages/Chapter-2-1/Chapter-2-1-15.png?iorg_service_id_internal=253471785031826%3BAfqDuxasS_OERRqA 70.84 31.3370227814 156.060934067 373.75998497 27.4980068207 8.06498527527 1702.07881927
10.50.0.30 31.13.75.37 /-t_fa4eb8212a77636a50f4b15ec4cdd5557e5df184-/pngimages/Chapter-2-1/Chapter-2-1-16.png?iorg_service_id_internal=253471785031826%3BAfqDuxasS_OERRqA 64.71 36.0209941864 257.32088089 483.129024506 38.321018219 16.6652202606 2244.24695969
10.50.0.30 31.13.75.37 /-t_2a892ee456e025805848bbe56b51aff15737aaac-/pngimages/Chapter-2-1/Chapter-2-1-17.png?iorg_service_id_internal=253471785031826%3BAfqDuxasS_OERRqA 67.03 30.2710533142 158.521175385 362.289905548 41.2580966949 6.7400932312 1571.31886482
10.50.0.30 31.13.75.37 / content) 31.0161113739 255.725860596 412.289142609 33.3290100098 5.31005859375 42.3998832703
10.50.0.30 31.13.75.37 /welcome?next=https%3A%2F%2F0.freebasics.com%2F 28.89 31.9349765778 180.423021317 722.695112228 35.1369380951 6.10494613647 185.609102249
10.50.0.30 31.13.75.37 /welcome?next=https%3A%2F%2F0.freebasics.com%2F content) 34.7988605499 205.43217659 582.524776459 39.5061969757 7.82489776611 28.7628173828
10.50.0.30 31.13.75.37 / content) 27.3208618164 152.714014053 699.921131134 33.3268642426 7.16114044189 45.5589294434
10.50.0.30 31.13.75.37 /?_h=1 64.61 28.0270576477 151.479005814 424.428939819 34.0960025787 6.55603408813 2346.52805328
10.50.0.30 31.13.75.37 /searchservices 55.13 29.5858383179 171.463012695 595.299005508 29.8471450806 5.73801994324 2378.73005867
10.50.0.30 31.13.75.37 /searchservices?offset=0&next=%D8%A7%DA%AF%D9%84%D8%A7 57.03 35.6969833374 158.607006073 383.791923523 33.2171916962 11.0099315643 1258.51488113
10.50.0.30 31.13.75.37 /searchservices?offset=20&next=%D8%A7%DA%AF%D9%84%D8%A7 56.95 31.6050052643 172.697067261 376.564979553 35.717010498 8.02993774414 1528.25498581
10.50.0.30 31.13.93.37 /searchservices?offset=40&next=%D8%A7%DA%AF%D9%84%D8%A7 56.84 36.0288619995 362.666130066 939.778804779 27.0822048187 4.40692901611 1406.48794174
10.50.0.30 31.13.75.37 /addservice?service_id=253471785031826&previous_url=https%3A%2F%2F0.freebasics.com%2Fsearchservices%3Foffset%3D40%26next%3D%25D8%25A7%25DA%25AF%25D9%2584%25D8%25A7 27.89 31.8570137024 184.117078781 608.859062195 30.590057373 8.13603401184 184.898138046
10.50.0.30 31.13.75.37 /addservice?service_id=253471785031826&previous_url=https%3A%2F%2F0.freebasics.com%2Fsearchservices%3Foffset%3D40%26next%3D%25D8%25A7%25DA%25AF%25D9%2584%25D8%25A7 content) 31.9328308105 167.380094528 574.205875397 35.0451469421 11.0039710999 44.7399616241
10.50.0.30 31.13.75.37 /l?next=https%3A%2F%2Fhttp-learnbasics-mpi--sws-org.0.freebasics.com%2F%3Fiorg_service_id_internal%3D253471785031826%253BAfqDuxasS_OERRqA&h=AXSFGKeTft4A6nC4&ref=add_service&service_id=253471785031826 content) 33.5471630096 201.642990112 562.129020691 30.534029007 8.89015197754 31.2511920929
10.50.0.30 31.13.75.37 /?iorg_service_id_internal=253471785031826%3BAfqDuxasS_OERRqA 10.43 32.0339202881 158.679008484 374.530076981 40.755033493 8.73303413391 51.6359806061
10.50.0.30 31.13.75.37 /available-courses.html?iorg_service_id_internal=253471785031826%3BAfqDuxasS_OERRqA 10.68 27.5490283966 493.746995926 402.501106262 41.4378643036 10.370016098 46.1280345917
10.50.0.30 31.13.75.37 /stand-up-and-speak-out-the-practice-and-ethics-of-public-speaking.html?iorg_service_id_internal=253471785031826%3BAfqDuxasS_OERRqA 16.41 26.290178299 436.977863312 563.087940216 27.0910263062 8.21399688721 167.314052582
10.50.0.30 31.13.75.37 /writing-for-success-learn-english-writing.html?iorg_service_id_internal=253471785031826%3BAfqDuxasS_OERRqA 14.09 30.2309989929 365.586996078 659.060955048 29.56199646 9.81497764587 168.234825134
10.50.0.30 31.13.75.37 /communication-skills-for-academics.html?iorg_service_id_internal=253471785031826%3BAfqDuxasS_OERRqA 9.84 28.0311107635 158.232927322 363.915920258 29.767036438 10.2598667145 40.4410362244
10.50.0.30 31.13.93.37 /english-listening-speaking-and-pronunciation.html?iorg_service_id_internal=253471785031826%3BAfqDuxasS_OERRqA 16.01 31.4841270447 210.595846176 716.775178909 40.1499271393 9.87887382507 1056.29205704
10.50.0.30 31.13.75.37 /basic-algebra.html?iorg_service_id_internal=253471785031826%3BAfqDuxasS_OERRqA 12.34 37.9409790039 188.172101974 723.471879959 37.3630523682 15.3470039368 161.967992783
10.50.0.30 31.13.75.37 /basic-probability-and-statistics.html?iorg_service_id_internal=253471785031826%3BAfqDuxasS_OERRqA 12.46 33.2958698273 574.796199799 566.015958786 31.3069820404 13.3631229401 176.53799057
10.50.0.30 31.13.75.37 /geometry.html?iorg_service_id_internal=253471785031826%3BAfqDuxasS_OERRqA 12.74 28.7420749664 311.0871315 804.013967514 31.9948196411 9.81616973877 217.557907104
10.50.0.30 31.13.75.37 /mathematical-proofs.html?iorg_service_id_internal=253471785031826%3BAfqDuxasS_OERRqA 14.37 38.6049747467 166.437149048 398.100852966 36.1430644989 9.07707214355 182.295084
10.50.0.30 31.13.75.37 /leaving?p=1&continueuri=https%3A%2F%2Fwordpress.org%2F&backuri=https%3A%2F%2Fhttp-learnbasics-mpi--sws-org.0.freebasics.com%2Favailable-courses.html%3Fiorg_service_id_internal%3D253471785031826%253BAfqDuxasS_OERRqA&why=i_list&service_id=253471785031826 28.24 30.1961898804 665.903806686 362.71905899 32.2699546814 13.4100914001 201.30109787
10.50.0.30 31.13.75.37 /Chapter-1-1/Chapter-1-1.php?iorg_service_id_internal=253471785031826%3BAfqDuxasS_OERRqA 6.47 30.152797699 158.030033112 750.689029694 29.1390419006 11.3689899445 41.3830280304
10.50.0.30 31.13.75.37 /-t_48c884f057082803caf37b90838c87af5529d79e-/pngimages/Chapter-1-1/Chapter-1-1-0.png?iorg_service_id_internal=253471785031826%3BAfqDuxasS_OERRqA 76.82 27.2240638733 580.088853836 642.493963242 37.7750396729 8.68201255798 2092.56196022
10.50.0.30 31.13.93.37 /-t_239aad2c38b911a838e34baef015d58490ae80cc-/pngimages/Chapter-1-1/Chapter-1-1-1.png?iorg_service_id_internal=253471785031826%3BAfqDuxasS_OERRqA 68.36 26.2069702148 589.205980301 1730.23915291 25.0730514526 6.01816177368 1590.22188187
10.50.0.30 31.13.75.37 /-t_51ab70ab5146d5453354693179cb83a9b1971fc5-/pngimages/Chapter-1-1/Chapter-1-1-10.png?iorg_service_id_internal=253471785031826%3BAfqDuxasS_OERRqA 70.42 33.5850715637 171.103954315 360.805988312 38.7880802155 7.48515129089 2298.88701439
10.50.0.30 31.13.75.37 /-t_c84dfd060c4a779facd5f75d18d761092172cdda-/pngimages/Chapter-1-1/Chapter-1-1-11.png?iorg_service_id_internal=253471785031826%3BAfqDuxasS_OERRqA 61.95 36.3171100616 191.75195694 656.653881073 42.5679683685 14.2109394073 1044.34299469
10.50.0.30 31.13.75.37 /-t_ba807859e26d5e6571b0a3f7e67d5c86b2285c5f-/pngimages/Chapter-1-1/Chapter-1-1-12.png?iorg_service_id_internal=253471785031826%3BAfqDuxasS_OERRqA 57.53 24.0020751953 179.065942764 562.303066254 42.4199104309 8.40497016907 1891.43490791
10.50.0.30 31.13.75.37 /-t_51a06c89751f672f88f45bdec218457334126f20-/pngimages/Chapter-1-1/Chapter-1-1-13.png?iorg_service_id_internal=253471785031826%3BAfqDuxasS_OERRqA 50.63 31.681060791 193.490028381 627.511024475 14.9278640747 3.51405143738 468.424081802
10.50.0.30 31.13.75.37 /-t_f8fa29b0a029fcd136011f89d301b66a6234a554-/pngimages/Chapter-1-1/Chapter-1-1-14.png?iorg_service_id_internal=253471785031826%3BAfqDuxasS_OERRqA 6.74 36.9489192963 161.026000977 351.454019547 32.4039459229 9.21678543091 39.9560928345
10.50.0.30 31.13.75.37 /-t_f6cafa07db6e2154ed4643f8dbf47421c11555dd-/pngimages/Chapter-1-1/Chapter-1-1-2.png?iorg_service_id_internal=253471785031826%3BAfqDuxasS_OERRqA 63.5 28.1851291656 152.724981308 383.43000412 27.9219150543 7.64298439026 2092.69404411
10.50.0.30 31.13.93.37 /-t_9b2485a7decf90b9d80de0e2ca48aaf0a9eb4002-/pngimages/Chapter-1-1/Chapter-1-1-3.png?iorg_service_id_internal=253471785031826%3BAfqDuxasS_OERRqA 68.53 29.7508239746 181.10704422 934.982061386 25.9540081024 7.07101821899 1936.07902527
10.50.0.30 31.13.75.37 /-t_3751f9b88c23e65d6f4577a9f7a863111888c003-/pngimages/Chapter-1-1/Chapter-1-1-4.png?iorg_service_id_internal=253471785031826%3BAfqDuxasS_OERRqA 68.71 28.3861160278 218.638896942 359.99417305 29.8058986664 11.3070011139 1524.54710007
10.50.0.30 31.13.75.37 /-t_aa7aeafc761cfcc38648c326f0e9f2b7a3fcc40c-/pngimages/Chapter-1-1/Chapter-1-1-5.png?iorg_service_id_internal=253471785031826%3BAfqDuxasS_OERRqA 85.38 32.7649116516 162.609100342 401.991844177 42.6590442657 6.58798217773 3997.69997597
10.50.0.30 31.13.75.37 /-t_7508eec5ec2cedaff8eb0b3f8b76b8bd4e204feb-/pngimages/Chapter-1-1/Chapter-1-1-6.png?iorg_service_id_internal=253471785031826%3BAfqDuxasS_OERRqA 74.49 32.3431491852 253.460884094 483.232975006 37.3179912567 7.81917572021 1211.07912064
10.50.0.30 31.13.75.37 /-t_bc37b138ad423886a6cd7dec28360f771d77017b-/pngimages/Chapter-1-1/Chapter-1-1-7.png?iorg_service_id_internal=253471785031826%3BAfqDuxasS_OERRqA 106.83 29.116153717 179.057836533 363.664150238 28.137922287 6.57296180725 3214.87283707
10.50.0.30 31.13.93.37 /-t_29923b2c0deb20544ff42c12e6e02418f9d56400-/pngimages/Chapter-1-1/Chapter-1-1-8.png?iorg_service_id_internal=253471785031826%3BAfqDuxasS_OERRqA 61.18 35.304069519 192.193984985 458.184957504 35.2280139923 8.19110870361 1586.44509315
10.50.0.30 31.13.75.37 /-t_2706929da2f72584ec770c7ae471d78e81a5e213-/pngimages/Chapter-1-1/Chapter-1-1-9.png?iorg_service_id_internal=253471785031826%3BAfqDuxasS_OERRqA 69.48 37.7440452576 150.774002075 362.729072571 31.7180156708 8.42499732971 1582.72695541
10.50.0.30 31.13.75.37 /Chapter-2-1/Chapter-2-1.php?iorg_service_id_internal=253471785031826%3BAfqDuxasS_OERRqA 9 30.7459831238 156.332969666 594.308137894 38.0709171295 11.1467838287 37.2331142426
10.50.0.30 31.13.75.37 /-t_3e68154781c7f2554f8e236d09d701e4801a7860-/pngimages/Chapter-2-1/Chapter-2-1-0.png?iorg_service_id_internal=253471785031826%3BAfqDuxasS_OERRqA 51.23 27.2581577301 174.381017685 575.481891632 34.1060161591 12.4909877777 544.419050217
10.50.0.30 31.13.75.37 /-t_f4f9b775801ce2e1d0ca26fe46c06e81ef1b433b-/pngimages/Chapter-2-1/Chapter-2-1-1.png?iorg_service_id_internal=253471785031826%3BAfqDuxasS_OERRqA 72.52 26.7000198364 189.882993698 401.766061783 35.2079868317 15.9859657288 2254.36902046
10.50.0.30 31.13.75.37 /-t_840f36f2560a4b80243bd63aad9a58fd4a68c9e2-/pngimages/Chapter-2-1/Chapter-2-1-10.png?iorg_service_id_internal=253471785031826%3BAfqDuxasS_OERRqA 75.02 32.2241783142 192.127943039 759.868860245 36.5309715271 8.06593894958 2261.84296608
10.50.0.30 31.13.75.37 /-t_51b7946a394a81382cc0348bddbe02fad620880a-/pngimages/Chapter-2-1/Chapter-2-1-11.png?iorg_service_id_internal=253471785031826%3BAfqDuxasS_OERRqA 72.8 24.8551368713 267.40193367 593.155860901 26.7300605774 11.5940570831 1618.31307411
10.50.0.30 31.13.93.37 /-t_cdf7048815fa882a9cd1f1e3cef60992bc0d49d0-/pngimages/Chapter-2-1/Chapter-2-1-12.png?iorg_service_id_internal=253471785031826%3BAfqDuxasS_OERRqA 70.92 27.2181034088 197.238922119 462.021112442 31.1579704285 6.90698623657 1830.05023003
10.50.0.30 31.13.75.37 /-t_4f30b6b562401b8f98554fabfa3627b6acd0fac6-/pngimages/Chapter-2-1/Chapter-2-1-13.png?iorg_service_id_internal=253471785031826%3BAfqDuxasS_OERRqA 67.7 31.9151878357 372.148990631 409.466028214 32.702922821 8.27598571777 1526.02887154
10.50.0.30 31.13.75.37 /-t_7c1d88f6233fbfdd678b2a25f8d9e6b245b68f16-/pngimages/Chapter-2-1/Chapter-2-1-14.png?iorg_service_id_internal=253471785031826%3BAfqDuxasS_OERRqA 66.55 30.4741859436 166.9049263 567.544937134 26.4000892639 7.25698471069 1612.82205582
10.50.0.30 31.13.75.37 /-t_a37717138dfd39d12905dbfd2e2a0e403f48dffd-/pngimages/Chapter-2-1/Chapter-2-1-15.png?iorg_service_id_internal=253471785031826%3BAfqDuxasS_OERRqA 70.84 31.3370227814 156.060934067 373.75998497 27.4980068207 8.06498527527 1702.07881927
10.50.0.30 31.13.75.37 /-t_fa4eb8212a77636a50f4b15ec4cdd5557e5df184-/pngimages/Chapter-2-1/Chapter-2-1-16.png?iorg_service_id_internal=253471785031826%3BAfqDuxasS_OERRqA 64.71 36.0209941864 257.32088089 483.129024506 38.321018219 16.6652202606 2244.24695969
10.50.0.30 31.13.75.37 /-t_2a892ee456e025805848bbe56b51aff15737aaac-/pngimages/Chapter-2-1/Chapter-2-1-17.png?iorg_service_id_internal=253471785031826%3BAfqDuxasS_OERRqA 67.03 30.2710533142 158.521175385 362.289905548 41.2580966949 6.7400932312 1571.31886482
