10.50.0.30 31.13.75.37 / content) 32.0520401001 228.474855423 576.179981232 37.7089977264 4.30488586426 37.9319190979
10.50.0.30 31.13.75.37 /welcome?next=https%3A%2F%2F0.freebasics.com%2F 28.89 32.1490764618 230.304002762 378.784894943 31.690120697 5.53703308105 192.483901978
10.50.0.30 31.13.75.37 /welcome?next=https%3A%2F%2F0.freebasics.com%2F content) 41.1190986633 156.506061554 361.845970154 35.8979701996 7.41791725159 24.9989032745
10.50.0.30 31.13.75.37 / content) 29.6928882599 158.38599205 566.138982773 27.4081230164 5.54800033569 45.6328392029
10.50.0.30 31.13.75.37 /?_h=1 57.99 26.0050296783 170.22395134 385.614156723 29.7060012817 6.52003288269 1191.47109985
10.50.0.30 31.13.75.37 /searchservices 55.13 26.7820358276 177.899122238 387.575864792 30.1191806793 6.11591339111 1278.23781967
10.50.0.30 31.13.75.37 /searchservices?offset=0&next=%D8%A7%DA%AF%D9%84%D8%A7 57.03 36.3759994507 166.103839874 568.133115768 41.0749912262 12.932062149 1542.93298721
10.50.0.30 31.13.75.37 /searchservices?offset=20&next=%D8%A7%DA%AF%D9%84%D8%A7 56.95 32.5419902802 219.702005386 564.694881439 28.9001464844 7.47513771057 1865.93699455
10.50.0.30 31.13.75.37 /searchservices?offset=40&next=%D8%A7%DA%AF%D9%84%D8%A7 56.84 36.3240242004 182.783842087 424.801111221 33.6918830872 8.32390785217 1363.1541729
10.50.0.30 31.13.75.37 /addservice?service_id=253471785031826&previous_url=https%3A%2F%2F0.freebasics.com%2Fsearchservices%3Foffset%3D40%26next%3D%25D8%25A7%25DA%25AF%25D9%2584%25D8%25A7 27.89 27.4958610535 414.540052414 402.821063995 34.6338748932 8.6350440979 373.560905457
10.50.0.30 31.13.75.37 /addservice?service_id=253471785031826&previous_url=https%3A%2F%2F0.freebasics.com%2Fsearchservices%3Foffset%3D40%26next%3D%25D8%25A7%25DA%25AF%25D9%2584%25D8%25A7 content) 33.5500240326 156.790971756 586.194992065 30.4291248322 9.80806350708 29.0579795837
10.50.0.30 31.13.75.37 /l?next=https%3A%2F%2Fhttp-learnbasics-mpi--sws-org.0.freebasics.com%2F%3Fiorg_service_id_internal%3D253471785031826%253BAfryDg21FDdrbQ2q&h=AXSD8sGVwzVf5HqK&ref=add_service&service_id=253471785031826 content) 29.061794281 153.295040131 591.307163239 38.6309623718 19.7541713715 37.5349521637
10.50.0.30 31.13.75.37 /?iorg_service_id_internal=253471785031826%3BAfryDg21FDdrbQ2q 10.43 28.4759998322 156.628847122 590.334177017 39.9580001831 9.26208496094 42.0899391174
10.50.0.30 31.13.75.37 /available-courses.html?iorg_service_id_internal=253471785031826%3BAfryDg21FDdrbQ2q 10.68 27.4140834808 388.030052185 563.102006912 29.098033905 9.50193405151 41.944026947
10.50.0.30 31.13.75.37 /stand-up-and-speak-out-the-practice-and-ethics-of-public-speaking.html?iorg_service_id_internal=253471785031826%3BAfryDg21FDdrbQ2q 16.41 27.8730392456 375.681877136 642.557144165 29.4978618622 10.2310180664 182.526111603
10.50.0.30 31.13.75.37 /writing-for-success-learn-english-writing.html?iorg_service_id_internal=253471785031826%3BAfryDg21FDdrbQ2q 14.09 35.1941585541 379.905939102 766.481876373 44.3341732025 14.0919685364 360.579967499
10.50.0.30 31.13.75.37 /communication-skills-for-academics.html?iorg_service_id_internal=253471785031826%3BAfryDg21FDdrbQ2q 9.84 32.3820114136 192.554950714 408.035993576 34.1579914093 15.1510238647 42.5670146942
10.50.0.30 31.13.93.37 /english-listening-speaking-and-pronunciation.html?iorg_service_id_internal=253471785031826%3BAfryDg21FDdrbQ2q 16.01 32.4790477753 1432.59096146 673.663139343 45.4850196838 11.9259357452 202.42190361
10.50.0.30 31.13.75.37 /basic-algebra.html?iorg_service_id_internal=253471785031826%3BAfryDg21FDdrbQ2q 12.34 25.3279209137 158.865213394 612.964868546 32.5350761414 10.0650787354 34.6221923828
10.50.0.30 31.13.75.37 /basic-probability-and-statistics.html?iorg_service_id_internal=253471785031826%3BAfryDg21FDdrbQ2q 12.46 35.9768867493 449.543952942 564.074039459 32.8221321106 15.939950943 155.256032944
10.50.0.30 31.13.75.37 /geometry.html?iorg_service_id_internal=253471785031826%3BAfryDg21FDdrbQ2q 12.74 24.7721672058 211.240053177 421.197891235 38.8240814209 10.0290775299 175.601959229
10.50.0.30 31.13.75.37 /mathematical-proofs.html?iorg_service_id_internal=253471785031826%3BAfryDg21FDdrbQ2q 14.37 36.737203598 153.79691124 696.484088898 35.1068973541 9.03797149658 165.754079819
10.50.0.30 31.13.75.37 /leaving?p=1&continueuri=https%3A%2F%2Fwordpress.org%2F&backuri=https%3A%2F%2Fhttp-learnbasics-mpi--sws-org.0.freebasics.com%2Favailable-courses.html%3Fiorg_service_id_internal%3D253471785031826%253BAfryDg21FDdrbQ2q&why=i_list&service_id=253471785031826 28.24 25.9761810303 472.315788269 403.236150742 32.0839881897 12.0098590851 191.184043884
10.50.0.30 31.13.75.37 /Chapter-1-1/Chapter-1-1.php?iorg_service_id_internal=253471785031826%3BAfryDg21FDdrbQ2q 6.47 30.3480625153 159.343957901 631.576061249 35.1500511169 16.5309906006 38.3770465851
10.50.0.30 31.13.75.37 /-t_48c884f057082803caf37b90838c87af5529d79e-/pngimages/Chapter-1-1/Chapter-1-1-0.png?iorg_service_id_internal=253471785031826%3BAfryDg21FDdrbQ2q 76.82 28.1550884247 147.220849991 421.984195709 25.0298976898 7.1849822998 1601.74894333
10.50.0.30 31.13.93.37 /-t_239aad2c38b911a838e34baef015d58490ae80cc-/pngimages/Chapter-1-1/Chapter-1-1-1.png?iorg_service_id_internal=253471785031826%3BAfryDg21FDdrbQ2q 68.36 36.2231731415 202.294826508 1168.43509674 34.2140197754 7.76100158691 4489.5298481
10.50.0.30 31.13.75.37 /-t_51ab70ab5146d5453354693179cb83a9b1971fc5-/pngimages/Chapter-1-1/Chapter-1-1-10.png?iorg_service_id_internal=253471785031826%3BAfryDg21FDdrbQ2q 70.42 31.9211483002 183.234930038 723.469018936 28.6078453064 7.96890258789 1622.52402306
10.50.0.30 31.13.75.37 /-t_c84dfd060c4a779facd5f75d18d761092172cdda-/pngimages/Chapter-1-1/Chapter-1-1-11.png?iorg_service_id_internal=253471785031826%3BAfryDg21FDdrbQ2q 61.95 28.2499790192 167.461872101 400.2430439 29.1221141815 9.30595397949 1304.46696281
10.50.0.30 31.13.75.37 /-t_ba807859e26d5e6571b0a3f7e67d5c86b2285c5f-/pngimages/Chapter-1-1/Chapter-1-1-12.png?iorg_service_id_internal=253471785031826%3BAfryDg21FDdrbQ2q 57.53 33.1580638885 174.979925156 394.456148148 32.6359272003 10.4458332062 937.968969345
10.50.0.30 31.13.75.37 /-t_51a06c89751f672f88f45bdec218457334126f20-/pngimages/Chapter-1-1/Chapter-1-1-13.png?iorg_service_id_internal=253471785031826%3BAfryDg21FDdrbQ2q 50.63 28.0859470367 184.57698822 782.487154007 30.8248996735 10.6709003448 574.4099617
10.50.0.30 31.13.75.37 /-t_f8fa29b0a029fcd136011f89d301b66a6234a554-/pngimages/Chapter-1-1/Chapter-1-1-14.png?iorg_service_id_internal=253471785031826%3BAfryDg21FDdrbQ2q 6.74 27.4369716644 239.789962769 579.063892365 42.9410934448 7.95102119446 50.3809452057
10.50.0.30 31.13.93.37 /-t_f6cafa07db6e2154ed4643f8dbf47421c11555dd-/pngimages/Chapter-1-1/Chapter-1-1-2.png?iorg_service_id_internal=253471785031826%3BAfryDg21FDdrbQ2q 63.5 28.1109809875 1186.74397469 639.72902298 34.7850322723 7.78913497925 3200.98614693
10.50.0.30 31.13.75.37 /-t_9b2485a7decf90b9d80de0e2ca48aaf0a9eb4002-/pngimages/Chapter-1-1/Chapter-1-1-3.png?iorg_service_id_internal=253471785031826%3BAfryDg21FDdrbQ2q 68.53 34.6999168396 153.120040894 606.935977936 20.4839706421 5.76114654541 1840.68202972
10.50.0.30 31.13.75.37 /-t_3751f9b88c23e65d6f4577a9f7a863111888c003-/pngimages/Chapter-1-1/Chapter-1-1-4.png?iorg_service_id_internal=253471785031826%3BAfryDg21FDdrbQ2q 68.71 35.9799861908 162.434101105 413.101911545 32.2630405426 7.8330039978 2000.43797493
10.50.0.30 31.13.75.37 /-t_aa7aeafc761cfcc38648c326f0e9f2b7a3fcc40c-/pngimages/Chapter-1-1/Chapter-1-1-5.png?iorg_service_id_internal=253471785031826%3BAfryDg21FDdrbQ2q 85.38 34.469127655 155.970811844 386.907100677 35.4011058807 9.66215133667 2195.90091705
10.50.0.30 31.13.75.37 /-t_7508eec5ec2cedaff8eb0b3f8b76b8bd4e204feb-/pngimages/Chapter-1-1/Chapter-1-1-6.png?iorg_service_id_internal=253471785031826%3BAfryDg21FDdrbQ2q 74.49 32.5109958649 155.00497818 356.851100922 39.999961853 9.10592079163 2495.81384659
10.50.0.30 31.13.93.37 /-t_bc37b138ad423886a6cd7dec28360f771d77017b-/pngimages/Chapter-1-1/Chapter-1-1-7.png?iorg_service_id_internal=253471785031826%3BAfryDg21FDdrbQ2q 106.83 34.7950458527 1192.57903099 767.593860626 18.2909965515 5.13386726379 3122.52092361
10.50.0.30 31.13.75.37 /-t_29923b2c0deb20544ff42c12e6e02418f9d56400-/pngimages/Chapter-1-1/Chapter-1-1-8.png?iorg_service_id_internal=253471785031826%3BAfryDg21FDdrbQ2q 61.18 29.5240879059 1154.21509743 390.740871429 30.4610729218 8.20207595825 1931.1568737
10.50.0.30 31.13.75.37 /-t_2706929da2f72584ec770c7ae471d78e81a5e213-/pngimages/Chapter-1-1/Chapter-1-1-9.png?iorg_service_id_internal=253471785031826%3BAfryDg21FDdrbQ2q 69.48 32.0780277252 157.065868378 359.230995178 32.3781967163 9.30213928223 2286.62610054
10.50.0.30 31.13.75.37 /Chapter-2-1/Chapter-2-1.php?iorg_service_id_internal=253471785031826%3BAfryDg21FDdrbQ2q 9 33.4868431091 160.513162613 376.648902893 27.7969837189 8.93497467041 40.8470630646
10.50.0.30 31.13.75.37 /-t_3e68154781c7f2554f8e236d09d701e4801a7860-/pngimages/Chapter-2-1/Chapter-2-1-0.png?iorg_service_id_internal=253471785031826%3BAfryDg21FDdrbQ2q 51.23 33.539056778 163.407087326 368.244886398 26.3221263885 6.74390792847 1842.56100655
10.50.0.30 31.13.93.37 /-t_f4f9b775801ce2e1d0ca26fe46c06e81ef1b433b-/pngimages/Chapter-2-1/Chapter-2-1-1.png?iorg_service_id_internal=253471785031826%3BAfryDg21FDdrbQ2q 72.52 26.5860557556 244.211912155 495.541095734 27.4629592896 12.6838684082 2026.82495117
10.50.0.30 31.13.75.37 /-t_840f36f2560a4b80243bd63aad9a58fd4a68c9e2-/pngimages/Chapter-2-1/Chapter-2-1-10.png?iorg_service_id_internal=253471785031826%3BAfryDg21FDdrbQ2q 75.02 28.9359092712 162.415027618 487.169981003 30.1699638367 8.36992263794 2339.52116966
10.50.0.30 31.13.75.37 /-t_51b7946a394a81382cc0348bddbe02fad620880a-/pngimages/Chapter-2-1/Chapter-2-1-11.png?iorg_service_id_internal=253471785031826%3BAfryDg21FDdrbQ2q 72.8 27.3540019989 193.010091782 722.949981689 37.829875946 9.70697402954 1441.89286232
10.50.0.30 31.13.75.37 /-t_cdf7048815fa882a9cd1f1e3cef60992bc0d49d0-/pngimages/Chapter-2-1/Chapter-2-1-12.png?iorg_service_id_internal=253471785031826%3BAfryDg21FDdrbQ2q 70.92 32.7570438385 224.072933197 806.686162949 13.9179229736 4.00304794312 1803.88689041
10.50.0.30 31.13.75.37 /-t_4f30b6b562401b8f98554fabfa3627b6acd0fac6-/pngimages/Chapter-2-1/Chapter-2-1-13.png?iorg_service_id_internal=253471785031826%3BAfryDg21FDdrbQ2q 67.7 29.7718048096 181.202173233 406.518936157 32.2968959808 8.68606567383 1524.2228508
10.50.0.30 31.13.75.37 /-t_7c1d88f6233fbfdd678b2a25f8d9e6b245b68f16-/pngimages/Chapter-2-1/Chapter-2-1-14.png?iorg_service_id_internal=253471785031826%3BAfryDg21FDdrbQ2q 66.55 35.2091789246 157.447814941 566.212177277 32.3288440704 11.0590457916 2706.43687248
10.50.0.30 31.13.93.37 /-t_a37717138dfd39d12905dbfd2e2a0e403f48dffd-/pngimages/Chapter-2-1/Chapter-2-1-15.png?iorg_service_id_internal=253471785031826%3BAfryDg21FDdrbQ2q 70.84 25.6578922272 193.005084991 431.167840958 13.7691497803 4.95791435242 2239.57800865
10.50.0.30 31.13.75.37 /-t_fa4eb8212a77636a50f4b15ec4cdd5557e5df184-/pngimages/Chapter-2-1/Chapter-2-1-16.png?iorg_service_id_internal=253471785031826%3BAfryDg21FDdrbQ2q 64.71 24.6248245239 181.861162186 371.059894562 38.6259555817 10.9491348267 1444.42391396
10.50.0.30 31.13.75.37 /-t_2a892ee456e025805848bbe56b51aff15737aaac-/pngimages/Chapter-2-1/Chapter-2-1-17.png?iorg_service_id_internal=253471785031826%3BAfryDg21FDdrbQ2q 67.03 28.3761024475 543.08795929 406.666994095 34.5470905304 8.82697105408 1552.3750782
10.50.0.30 31.13.75.37 /-t_afcf1096e006d2a19e3e68de2e2cc20a1f73d069-/pngimages/Chapter-2-1/Chapter-2-1-18.png?iorg_service_id_internal=253471785031826%3BAfryDg21FDdrbQ2q 74.03 34.8119735718 171.983003616 723.29211235 37.9350185394 9.34600830078 2079.02193069
10.50.0.30 31.13.75.37 /-t_6a6d326af750b6d336bffe753984fc32bb5fcc0b-/pngimages/Chapter-2-1/Chapter-2-1-19.png?iorg_service_id_internal=253471785031826%3BAfryDg21FDdrbQ2q 60.77 27.5700092316 330.010175705 567.431926727 31.0099124908 8.40902328491 1040.21716118
10.50.0.30 31.13.75.37 /-t_9d2632065dd1cfd2a1f48ab92f4974ac11c6d4a2-/pngimages/Chapter-2-1/Chapter-2-1-2.png?iorg_service_id_internal=253471785031826%3BAfryDg21FDdrbQ2q 69.16 26.2131690979 243.080854416 929.775953293 40.4441356659 15.487909317 2553.0090332
10.50.0.30 31.13.75.37 /-t_003854b3065e17ffdca319b9e4eb8dcee979b926-/pngimages/Chapter-2-1/Chapter-2-1-20.png?iorg_service_id_internal=253471785031826%3BAfryDg21FDdrbQ2q 52.73 34.4479084015 264.575004578 2242.42901802 34.3420505524 7.70211219788 1037.71305084
10.50.0.30 31.13.75.37 /-t_7c44abd0f81aa612738998cdaa99cef584acf3a0-/pngimages/Chapter-2-1/Chapter-2-1-21.png?iorg_service_id_internal=253471785031826%3BAfryDg21FDdrbQ2q 58.92 36.6959571838 244.898080826 375.223875046 29.3850898743 8.52799415588 1557.05308914
10.50.0.30 31.13.75.37 /-t_4c57008ae6495567aa3a82ffeb3c8a6d7fa7ce93-/pngimages/Chapter-2-1/Chapter-2-1-22.png?iorg_service_id_internal=253471785031826%3BAfryDg21FDdrbQ2q 63.48 36.4830493927 375.696897507 374.927043915 29.0930271149 7.81989097595 1280.04193306
10.50.0.30 31.13.75.37 /-t_3a1a1845bee65d3d512f6ca9b0521e588cacd1b6-/pngimages/Chapter-2-1/Chapter-2-1-23.png?iorg_service_id_internal=253471785031826%3BAfryDg21FDdrbQ2q 64.7 31.9650173187 157.174825668 814.383029938 38.3429527283 9.36508178711 1659.9419117
10.50.0.30 31.13.75.37 /-t_446b55e1dc438717deaa29b4a5ccc42c4edf4036-/pngimages/Chapter-2-1/Chapter-2-1-24.png?iorg_service_id_internal=253471785031826%3BAfryDg21FDdrbQ2q 58.88 36.7059707642 298.694133759 623.769044876 42.1688556671 8.948802948 1837.94403076
10.50.0.30 31.13.75.37 /-t_430c02850d8a2977918d0bb003bec762d082e627-/pngimages/Chapter-2-1/Chapter-2-1-25.png?iorg_service_id_internal=253471785031826%3BAfryDg21FDdrbQ2q 28.69 36.3729000092 314.193964005 721.163988113 31.5399169922 8.10599327087 572.970151901
10.50.0.30 31.13.92.37 /-t_9705a600e5f5a3b377c7b991e0cef204de1a2141-/pngimages/Chapter-2-1/Chapter-2-1-26.png?iorg_service_id_internal=253471785031826%3BAfryDg21FDdrbQ2q 6.39 36.3709926605 464.382886887 1036.714077 52.640914917 7.83205032349 53.3640384674
10.50.0.30 31.13.75.37 /-t_c0140fa05c8f7750587f62dbdafe731164a119d5-/pngimages/Chapter-2-1/Chapter-2-1-3.png?iorg_service_id_internal=253471785031826%3BAfryDg21FDdrbQ2q 70.96 34.8711013794 291.926860809 760.084152222 36.1528396606 9.10997390747 2807.10101128
10.50.0.30 31.13.75.37 /-t_a337ddf160732e59eeb35c0b52c01c2f2f08a847-/pngimages/Chapter-2-1/Chapter-2-1-4.png?iorg_service_id_internal=253471785031826%3BAfryDg21FDdrbQ2q 54.66 36.6580486298 196.370124817 1100.92902184 37.9278659821 16.7908668518 3242.93398857
10.50.0.30 31.13.75.37 /-t_68926a6f065839e10b38d6765c41f72e22afee78-/pngimages/Chapter-2-1/Chapter-2-1-5.png?iorg_service_id_internal=253471785031826%3BAfryDg21FDdrbQ2q 47.37 29.2489528656 164.5860672 677.994966507 34.3780517578 7.21788406372 569.499015808
10.50.0.30 31.13.75.37 /-t_77a8e9381333f198d32a9fdb61fef50aec883d80-/pngimages/Chapter-2-1/Chapter-2-1-6.png?iorg_service_id_internal=253471785031826%3BAfryDg21FDdrbQ2q 61.97 27.8398990631 165.413141251 565.178871155 39.7629737854 9.19699668884 884.58609581
10.50.0.30 31.13.93.37 /-t_4f3ed3c48faff7c6e2c6b2b8c678f028ee364938-/pngimages/Chapter-2-1/Chapter-2-1-7.png?iorg_service_id_internal=253471785031826%3BAfryDg21FDdrbQ2q 62 34.3339443207 540.748119354 961.948871613 40.4961109161 13.4751796722 2716.41898155
10.50.0.30 31.13.75.37 /-t_89ad8be55b5f92c0dd48cb7997d84ab3a010b858-/pngimages/Chapter-2-1/Chapter-2-1-8.png?iorg_service_id_internal=253471785031826%3BAfryDg21FDdrbQ2q 70.46 31.8567752838 245.359182358 933.897972107 34.2738628387 12.4869346619 2071.63405418
10.50.0.30 31.13.75.37 /-t_6a2cc070393406f0e30e853056f928a29fd16179-/pngimages/Chapter-2-1/Chapter-2-1-9.png?iorg_service_id_internal=253471785031826%3BAfryDg21FDdrbQ2q 76.07 25.4809856415 313.508033752 930.855989456 40.4908657074 11.5399360657 2007.80105591
10.50.0.30 31.13.75.37 /Chapter-3-1/Chapter-3-1.php?iorg_service_id_internal=253471785031826%3BAfryDg21FDdrbQ2q 8.58 31.8441390991 172.957897186 723.025083542 31.4648151398 13.8330459595 46.8139648438
10.50.0.30 31.13.75.37 /-t_7c8ed2af30b42ff75238df4f50ecc5d4d02dee1f-/pngimages/Chapter-3-1/Chapter-3-1-0.png?iorg_service_id_internal=253471785031826%3BAfryDg21FDdrbQ2q 6.39 29.4740200043 237.890005112 590.020179749 43.4699058533 9.44685935974 45.8679199219
10.50.0.30 31.13.75.37 /-t_189f01c6e9bea10f9489fe47c2a589b64946d652-/pngimages/Chapter-3-1/Chapter-3-1-1.png?iorg_service_id_internal=253471785031826%3BAfryDg21FDdrbQ2q 62.09 29.128074646 209.558963776 656.852960587 34.7859859467 9.40108299255 1600.10099411
10.50.0.30 31.13.93.37 /-t_250dc7ce98afa972fff8bba5d8a79c5293a329ad-/pngimages/Chapter-3-1/Chapter-3-1-10.png?iorg_service_id_internal=253471785031826%3BAfryDg21FDdrbQ2q 64.38 26.2160301208 422.440052032 965.77501297 32.7508449554 8.34202766418 2288.46621513
10.50.0.30 31.13.75.37 /-t_d354ebf49a67488d39244024187fda876b07eba8-/pngimages/Chapter-3-1/Chapter-3-1-11.png?iorg_service_id_internal=253471785031826%3BAfryDg21FDdrbQ2q 67.07 36.6151332855 326.4939785 572.14307785 28.9280414581 12.5279426575 3561.57016754
10.50.0.30 31.13.75.37 /-t_cb88999b10143347c0ee09986bb38a34e3a1b398-/pngimages/Chapter-3-1/Chapter-3-1-12.png?iorg_service_id_internal=253471785031826%3BAfryDg21FDdrbQ2q 56.21 25.1920223236 405.254125595 969.890832901 34.7220897675 9.07492637634 1039.77489471
10.50.0.30 31.13.75.37 /-t_1a190f35eb133d0c299d4e098c8825b5247fe812-/pngimages/Chapter-3-1/Chapter-3-1-13.png?iorg_service_id_internal=253471785031826%3BAfryDg21FDdrbQ2q 72.23 24.8618125916 183.430194855 359.115839005 41.3031578064 7.27415084839 1347.69105911
10.50.0.30 31.13.75.37 /-t_a0ec4a2786251bc4fdd2a19ebe1a3f15d43979d1-/pngimages/Chapter-3-1/Chapter-3-1-14.png?iorg_service_id_internal=253471785031826%3BAfryDg21FDdrbQ2q 63.76 28.6569595337 245.716094971 576.869010925 35.1519584656 15.0561332703 1276.6520977
10.50.0.30 31.13.93.37 /-t_f782020c321afcb2246ceaa756e57a1e52b6c3ca-/pngimages/Chapter-3-1/Chapter-3-1-15.png?iorg_service_id_internal=253471785031826%3BAfryDg21FDdrbQ2q 67.5 24.7850418091 397.480010986 1033.13398361 39.3409729004 9.20796394348 1651.65495872
10.50.0.30 31.13.75.37 /-t_6e3324b6f966660b172b9f5fb1abeb443e20d763-/pngimages/Chapter-3-1/Chapter-3-1-16.png?iorg_service_id_internal=253471785031826%3BAfryDg21FDdrbQ2q 69.54 25.0420570374 266.869068146 934.562921524 34.8539352417 8.76903533936 1526.01194382
10.50.0.30 31.13.75.37 /-t_9c4e1f022f8cdf94b962559d3b3aa93de51a0a32-/pngimages/Chapter-3-1/Chapter-3-1-17.png?iorg_service_id_internal=253471785031826%3BAfryDg21FDdrbQ2q 62.34 34.2659950256 478.392839432 386.026144028 31.6948890686 8.45217704773 1279.22916412
10.50.0.30 31.13.75.37 /-t_7d8647697ec992763bcf6b56bf113b61bcc0af02-/pngimages/Chapter-3-1/Chapter-3-1-18.png?iorg_service_id_internal=253471785031826%3BAfryDg21FDdrbQ2q 67.63 31.6998958588 170.175075531 636.777877808 38.3150577545 9.5648765564 1575.37388802
10.50.0.30 31.13.75.37 /-t_b6a3ad0e05ffd27629b3060f35ad6ad0234e93aa-/pngimages/Chapter-3-1/Chapter-3-1-19.png?iorg_service_id_internal=253471785031826%3BAfryDg21FDdrbQ2q 63.23 33.6811542511 167.052984238 725.239038467 29.8399925232 7.7109336853 1758.10217857
10.50.0.30 31.13.93.37 /-t_45dd1cdca43bb504dc9f5be1db64d3c5d721821e-/pngimages/Chapter-3-1/Chapter-3-1-2.png?iorg_service_id_internal=253471785031826%3BAfryDg21FDdrbQ2q 69.62 36.012172699 627.480983734 948.557853699 34.4851016998 9.42897796631 1921.38910294
10.50.0.30 31.13.75.37 /-t_5975a720fe9d383bfbf2e1e80371db68c387d25b-/pngimages/Chapter-3-1/Chapter-3-1-20.png?iorg_service_id_internal=253471785031826%3BAfryDg21FDdrbQ2q 74.29 36.789894104 359.270095825 586.609125137 34.7340106964 8.94498825073 4410.83192825
10.50.0.30 31.13.75.37 /-t_48bd9e693ef6ba216641a3029b9e114f26631c45-/pngimages/Chapter-3-1/Chapter-3-1-21.png?iorg_service_id_internal=253471785031826%3BAfryDg21FDdrbQ2q 61.27 32.2771072388 160.655021667 724.539041519 33.2460403442 8.96787643433 1615.16213417
10.50.0.30 31.13.75.37 /-t_7937a2c78c3ce3e3ecbda07e54eb4bd0e186f348-/pngimages/Chapter-3-1/Chapter-3-1-22.png?iorg_service_id_internal=253471785031826%3BAfryDg21FDdrbQ2q 58.38 32.3889255524 378.880023956 565.3860569 46.8759536743 9.18698310852 1603.2409668
10.50.0.30 31.13.93.37 /-t_f332f56b38d00a7b1590640a95214d91da80d02c-/pngimages/Chapter-3-1/Chapter-3-1-23.png?iorg_service_id_internal=253471785031826%3BAfryDg21FDdrbQ2q 65.71 31.986951828 369.40407753 1313.22383881 34.7440242767 9.10592079163 1077.49795914
10.50.0.30 31.13.75.37 /-t_c8d5e926de32fd2514111a092ca514dcf1679788-/pngimages/Chapter-3-1/Chapter-3-1-24.png?iorg_service_id_internal=253471785031826%3BAfryDg21FDdrbQ2q 57.36 30.3709506989 217.372894287 565.748929977 35.2292060852 9.39512252808 1921.09584808
10.50.0.30 31.13.75.37 /-t_9265011c4e5a1492f539a59a69cd1d5b40179949-/pngimages/Chapter-3-1/Chapter-3-1-3.png?iorg_service_id_internal=253471785031826%3BAfryDg21FDdrbQ2q 70.19 33.9839458466 174.866199493 723.528862 31.7521095276 14.7650241852 1207.69000053
10.50.0.30 31.13.75.37 /-t_53ff8861d309ce85d13bd31fa2ff28808c03207d-/pngimages/Chapter-3-1/Chapter-3-1-4.png?iorg_service_id_internal=253471785031826%3BAfryDg21FDdrbQ2q 69.17 33.0538749695 485.345125198 1033.40482712 38.0120277405 9.46521759033 2089.03503418
10.50.0.30 31.13.75.37 /-t_c592a7afa36dad5d5096b331132402bb2bca1c61-/pngimages/Chapter-3-1/Chapter-3-1-5.png?iorg_service_id_internal=253471785031826%3BAfryDg21FDdrbQ2q 71.29 27.2068977356 533.582925797 586.390018463 38.4609699249 9.53316688538 2067.29102135
10.50.0.30 31.13.93.37 /-t_8b742532527bdb11660592d1115947993fb3096d-/pngimages/Chapter-3-1/Chapter-3-1-6.png?iorg_service_id_internal=253471785031826%3BAfryDg21FDdrbQ2q 69.37 30.3900241852 450.412988663 2243.28994751 34.4240665436 7.75003433228 2941.12801552
10.50.0.30 31.13.75.37 /-t_06bc0fc052e5faff22b3913585f50e134194254f-/pngimages/Chapter-3-1/Chapter-3-1-7.png?iorg_service_id_internal=253471785031826%3BAfryDg21FDdrbQ2q 50.96 26.3090133667 207.332849503 721.080064774 34.75689888 9.18507575989 1906.39519691
10.50.0.30 31.13.75.37 /-t_94b723057fba86e2ee38a588f9a79fabaa357fc8-/pngimages/Chapter-3-1/Chapter-3-1-8.png?iorg_service_id_internal=253471785031826%3BAfryDg21FDdrbQ2q 69.96 39.3378734589 186.527967453 764.558076859 37.388086319 8.08811187744 1763.61608505
10.50.0.30 31.13.75.37 /-t_5d6832d23bb4e9dbde58855a1fb398afb6b754e9-/pngimages/Chapter-3-1/Chapter-3-1-9.png?iorg_service_id_internal=253471785031826%3BAfryDg21FDdrbQ2q 58.62 31.779050827 569.182872772 561.983108521 42.2928333282 9.0970993042 1321.60115242
10.50.0.30 31.13.75.37 /Chapter-4-1/Chapter-4-1.php?iorg_service_id_internal=253471785031826%3BAfryDg21FDdrbQ2q 10.69 32.7839851379 362.750053406 637.17508316 34.8370075226 16.6230201721 46.4520454407
10.50.0.30 31.13.93.37 /-t_e65cb3d2060b8a9f34a79835d4890b8660b2e5b0-/pngimages/Chapter-4-1/Chapter-4-1-0.png?iorg_service_id_internal=253471785031826%3BAfryDg21FDdrbQ2q 62.53 28.8388729095 217.816114426 684.432983398 40.4500961304 8.38279724121 2240.13209343
10.50.0.30 31.13.75.37 /-t_b51335ea3f94a4aabe01fb6265ac34b3e8f9e713-/pngimages/Chapter-4-1/Chapter-4-1-1.png?iorg_service_id_internal=253471785031826%3BAfryDg21FDdrbQ2q 71.77 31.4519405365 227.62799263 654.484987259 37.4369621277 12.5648975372 1890.4440403
10.50.0.30 31.13.75.37 /-t_b57caf5c7744298f18c24bcf41b20ffac85613c4-/pngimages/Chapter-4-1/Chapter-4-1-10.png?iorg_service_id_internal=253471785031826%3BAfryDg21FDdrbQ2q 66.62 37.3499393463 382.081985474 562.649965286 29.1919708252 8.32605361938 1440.19699097
10.50.0.30 31.13.75.37 /-t_0365303bd0ce7a50a866d3af343b4110dcbe6478-/pngimages/Chapter-4-1/Chapter-4-1-11.png?iorg_service_id_internal=253471785031826%3BAfryDg21FDdrbQ2q 117.63 26.8378257751 570.8360672 960.80994606 37.584066391 9.33599472046 3604.10094261
10.50.0.30 31.13.93.37 /-t_b67b4a0795f32d980c6919c134aa20b861e8f6db-/pngimages/Chapter-4-1/Chapter-4-1-12.png?iorg_service_id_internal=253471785031826%3BAfryDg21FDdrbQ2q 68.77 24.9140262604 193.937778473 814.045190811 34.9769592285 9.07707214355 2110.6979847
10.50.0.30 31.13.75.37 /-t_185a301911e40dfe078cf959081bcb7b03cfd89a-/pngimages/Chapter-4-1/Chapter-4-1-13.png?iorg_service_id_internal=253471785031826%3BAfryDg21FDdrbQ2q 69.29 35.1049900055 289.142131805 698.972940445 31.5968990326 9.18006896973 1522.68314362
10.50.0.30 31.13.75.37 /-t_f45924c7f92fa451592603ff05bfb55309ec5ed5-/pngimages/Chapter-4-1/Chapter-4-1-14.png?iorg_service_id_internal=253471785031826%3BAfryDg21FDdrbQ2q 67.41 28.3749103546 323.49395752 404.288053513 47.6820468903 8.67795944214 1207.72910118
10.50.0.30 31.13.75.37 /-t_0287bd84420b845d38cf919eab3fcb6acf39fa9a-/pngimages/Chapter-4-1/Chapter-4-1-15.png?iorg_service_id_internal=253471785031826%3BAfryDg21FDdrbQ2q 57.9 32.5248241425 207.527160645 737.818002701 29.3848514557 8.4400177002 1042.345047
10.50.0.30 31.13.75.37 /-t_13eb0159c00b87a1966b95a8f622c8cd07bdb3c7-/pngimages/Chapter-4-1/Chapter-4-1-16.png?iorg_service_id_internal=253471785031826%3BAfryDg21FDdrbQ2q 106.58 24.0039825439 623.628139496 962.260961533 29.4749736786 8.55088233948 3256.61706924
10.50.0.30 31.13.93.37 /-t_c6ec09e728d6d106f3fa0875c438087c50520b64-/pngimages/Chapter-4-1/Chapter-4-1-17.png?iorg_service_id_internal=253471785031826%3BAfryDg21FDdrbQ2q 72.27 32.634973526 531.862974167 963.906049728 38.9111042023 9.44089889526 1721.18186951
10.50.0.30 31.13.75.37 /-t_53bb9b10788bf7f51961854ae9b1acdfbc3db576-/pngimages/Chapter-4-1/Chapter-4-1-18.png?iorg_service_id_internal=253471785031826%3BAfryDg21FDdrbQ2q 70.59 35.1319313049 360.513925552 563.353061676 34.8539352417 8.86797904968 1515.82980156
10.50.0.30 31.13.75.37 /-t_d5cf128af7783e382069607ed0451000099d7b25-/pngimages/Chapter-4-1/Chapter-4-1-19.png?iorg_service_id_internal=253471785031826%3BAfryDg21FDdrbQ2q 63.47 31.7029953003 503.948926926 565.253019333 31.0590267181 9.9630355835 1358.8180542
10.50.0.30 31.13.75.37 /-t_76d99843784f318b51c93e97cb28ef74e02c833f-/pngimages/Chapter-4-1/Chapter-4-1-2.png?iorg_service_id_internal=253471785031826%3BAfryDg21FDdrbQ2q 62.8 27.8930664062 1258.47792625 592.226982117 34.57903862 9.09900665283 1215.36588669
10.50.0.30 31.13.75.37 /-t_61da80c1533f2866a448f8c0c1d68c18782d6058-/pngimages/Chapter-4-1/Chapter-4-1-20.png?iorg_service_id_internal=253471785031826%3BAfryDg21FDdrbQ2q 68.96 32.2959423065 556.401014328 565.042972565 34.4591140747 7.62796401978 1834.01584625
10.50.0.30 31.13.93.37 /-t_5d1294bf117b4772379ced7a09c54c2bf2b467ae-/pngimages/Chapter-4-1/Chapter-4-1-21.png?iorg_service_id_internal=253471785031826%3BAfryDg21FDdrbQ2q 58.39 37.2860431671 554.479837418 1055.5369854 38.2030010223 9.38200950623 2160.394907
10.50.0.30 31.13.75.37 /-t_a99bcddfbfc61acd4f875575904cc14cc225afc1-/pngimages/Chapter-4-1/Chapter-4-1-22.png?iorg_service_id_internal=253471785031826%3BAfryDg21FDdrbQ2q 53.12 25.5558490753 243.785142899 744.366884232 42.7939891815 9.97805595398 1882.34591484
10.50.0.30 31.13.75.37 /-t_cb508467de2ef0c00173fd9e89924f238673dcfa-/pngimages/Chapter-4-1/Chapter-4-1-23.png?iorg_service_id_internal=253471785031826%3BAfryDg21FDdrbQ2q 66.12 35.640001297 166.754007339 722.975969315 31.2221050262 8.51202011108 1444.89693642
10.50.0.30 31.13.75.37 /-t_358718752c245ba863e2ef2a45466ef18c819f62-/pngimages/Chapter-4-1/Chapter-4-1-24.png?iorg_service_id_internal=253471785031826%3BAfryDg21FDdrbQ2q 70.84 32.1221351624 149.677991867 562.919855118 31.2700271606 9.31286811829 2488.12603951
10.50.0.30 31.13.75.37 /-t_fd3cde10833d286e8708f3061444c82f7e5399a0-/pngimages/Chapter-4-1/Chapter-4-1-25.png?iorg_service_id_internal=253471785031826%3BAfryDg21FDdrbQ2q 65.27 29.7839641571 157.783985138 942.896127701 34.5799922943 9.28211212158 1273.67687225
10.50.0.30 31.13.93.37 /-t_437afa0d98d5b33f9e088e441942dec8991277a8-/pngimages/Chapter-4-1/Chapter-4-1-26.png?iorg_service_id_internal=253471785031826%3BAfryDg21FDdrbQ2q 71.04 41.1288738251 795.262098312 929.73780632 39.7810935974 8.30316543579 2556.68401718
10.50.0.30 31.13.75.37 /-t_c3ea5651b73266c75e342dd4d239bb04a594ff0e-/pngimages/Chapter-4-1/Chapter-4-1-27.png?iorg_service_id_internal=253471785031826%3BAfryDg21FDdrbQ2q 74.42 31.7108631134 183.798074722 723.140954971 35.5780124664 9.17291641235 4486.7310524
10.50.0.30 31.13.75.37 /-t_d7c9827d95baa487ddf9d0e8e7958bf320d8a15b-/pngimages/Chapter-4-1/Chapter-4-1-28.png?iorg_service_id_internal=253471785031826%3BAfryDg21FDdrbQ2q 66.87 30.2309989929 171.671152115 696.777820587 19.8321342468 4.74500656128 1382.87401199
10.50.0.30 31.13.75.37 /-t_cc5a1edfd65aca6c13e4fc0648ad80b009372a01-/pngimages/Chapter-4-1/Chapter-4-1-29.png?iorg_service_id_internal=253471785031826%3BAfryDg21FDdrbQ2q 66.61 24.5990753174 182.854890823 565.680980682 17.6031589508 3.662109375 2162.54806519
10.50.0.30 31.13.93.37 /-t_a1801875a94dcda88b4c7db302e9dd8a76475414-/pngimages/Chapter-4-1/Chapter-4-1-3.png?iorg_service_id_internal=253471785031826%3BAfryDg21FDdrbQ2q 58.42 30.914068222 447.077989578 963.220834732 17.9271697998 4.2941570282 2392.70997047
10.50.0.30 31.13.75.37 /-t_2ba670c0ba2312f25f4bd9124b20187c7496238d-/pngimages/Chapter-4-1/Chapter-4-1-30.png?iorg_service_id_internal=253471785031826%3BAfryDg21FDdrbQ2q 66.8 26.3659954071 178.790092468 567.472934723 34.795999527 7.12490081787 1583.07409286
10.50.0.30 31.13.75.37 /-t_3c2d717041254d0e2376174f331e56feefb70f32-/pngimages/Chapter-4-1/Chapter-4-1-31.png?iorg_service_id_internal=253471785031826%3BAfryDg21FDdrbQ2q 50.41 31.2268733978 266.498088837 841.569900513 34.7011089325 9.22393798828 726.832151413
10.50.0.30 31.13.75.37 /-t_ed1a034e0310721db794dab0e113369fff59894c-/pngimages/Chapter-4-1/Chapter-4-1-32.png?iorg_service_id_internal=253471785031826%3BAfryDg21FDdrbQ2q 53.48 36.502122879 386.43693924 942.713022232 35.5110168457 6.87909126282 657.810926437
10.50.0.30 31.13.75.37 /-t_e36aa35153c9072e843524bd6cad3253efd80b7d-/pngimages/Chapter-4-1/Chapter-4-1-33.png?iorg_service_id_internal=253471785031826%3BAfryDg21FDdrbQ2q 44.21 34.4078540802 525.960922241 412.806034088 35.4630947113 8.74495506287 561.697006226
10.50.0.30 31.13.93.37 /-t_b44f26914e27a14b80bbce8b159f650f1453db2d-/pngimages/Chapter-4-1/Chapter-4-1-34.png?iorg_service_id_internal=253471785031826%3BAfryDg21FDdrbQ2q 7.75 33.4010124207 225.517988205 965.049028397 48.4089851379 9.27591323853 45.0999736786
10.50.0.30 31.13.75.37 /-t_9d163f96ddf4d89e7b168b2e9071352b127b0af2-/pngimages/Chapter-4-1/Chapter-4-1-4.png?iorg_service_id_internal=253471785031826%3BAfryDg21FDdrbQ2q 56.96 32.3131084442 236.790895462 646.03805542 34.2869758606 9.28092002869 1035.47096252
10.50.0.30 31.13.75.37 /-t_70243f7f79e79f00ee8da157c28033a126ee9067-/pngimages/Chapter-4-1/Chapter-4-1-5.png?iorg_service_id_internal=253471785031826%3BAfryDg21FDdrbQ2q 73.67 37.3549461365 238.051891327 909.672021866 39.4260883331 7.47299194336 2491.18614197
10.50.0.30 31.13.75.37 /-t_72239d369e847ae3c9bc4cc51b912f4a0d6934c5-/pngimages/Chapter-4-1/Chapter-4-1-6.png?iorg_service_id_internal=253471785031826%3BAfryDg21FDdrbQ2q 65.27 33.2131385803 163.382053375 396.571874619 41.2890911102 9.14907455444 1425.87280273
10.50.0.30 31.13.75.37 /-t_9c668e1f4393f97ceba71a645d3aa365cdcf8662-/pngimages/Chapter-4-1/Chapter-4-1-7.png?iorg_service_id_internal=253471785031826%3BAfryDg21FDdrbQ2q 68.5 32.9620838165 615.570068359 942.599058151 31.840801239 8.38303565979 1718.78409386
10.50.0.30 31.13.93.37 /-t_a76920bb9f98424cf649ec27f706e9fc2233a24c-/pngimages/Chapter-4-1/Chapter-4-1-8.png?iorg_service_id_internal=253471785031826%3BAfryDg21FDdrbQ2q 48.82 35.3710651398 183.767080307 799.249887466 34.1091156006 9.38415527344 1904.51288223
10.50.0.30 31.13.75.37 /-t_89abdd743703bf415e0d1ec83422b5bae903a011-/pngimages/Chapter-4-1/Chapter-4-1-9.png?iorg_service_id_internal=253471785031826%3BAfryDg21FDdrbQ2q 59.49 23.8621234894 412.499904633 913.377046585 35.2771282196 15.6269073486 2396.49200439
10.50.0.30 31.13.75.37 /Chapter-5-1/Chapter-5-1.php?iorg_service_id_internal=253471785031826%3BAfryDg21FDdrbQ2q 10.9 37.0891094208 422.321796417 569.458007812 34.6071720123 10.8599662781 52.2420406342
10.50.0.30 31.13.75.37 /-t_7c2931e3d890eada6090130faa603d5f8d49533a-/pngimages/Chapter-5-1/Chapter-5-1-0.png?iorg_service_id_internal=253471785031826%3BAfryDg21FDdrbQ2q 63.89 30.3888320923 433.138132095 939.553976059 38.6710166931 9.37414169312 2169.6190834
10.50.0.30 31.13.93.37 /-t_25a13a488eddd939babe46c386147736d29f259d-/pngimages/Chapter-5-1/Chapter-5-1-1.png?iorg_service_id_internal=253471785031826%3BAfryDg21FDdrbQ2q 62.9 29.7648906708 189.102172852 723.052978516 28.7280082703 7.67493247986 1333.44888687
10.50.0.30 31.13.75.37 /-t_c6db8dc5beabdad4e43261163b9605f4d13c1327-/pngimages/Chapter-5-1/Chapter-5-1-10.png?iorg_service_id_internal=253471785031826%3BAfryDg21FDdrbQ2q 67.68 36.5188121796 269.914150238 547.026872635 40.687084198 9.31000709534 2127.6011467
10.50.0.30 31.13.75.37 /-t_f4e956d0f5a15f8ec5f95ed0d1ec29736343e241-/pngimages/Chapter-5-1/Chapter-5-1-11.png?iorg_service_id_internal=253471785031826%3BAfryDg21FDdrbQ2q 53.99 37.0018482208 158.559083939 560.972929001 29.4511318207 6.87599182129 3804.708004
10.50.0.30 31.13.75.37 /-t_23adae7e778173666d8ef238bd697ae1e0eebeab-/pngimages/Chapter-5-1/Chapter-5-1-12.png?iorg_service_id_internal=253471785031826%3BAfryDg21FDdrbQ2q 59.63 28.9239883423 201.334953308 641.47901535 34.129858017 10.0049972534 1548.69818687
10.50.0.30 31.13.93.37 /-t_3dfb3f517f708bf6224ef89a3878c6ee2e5c7a90-/pngimages/Chapter-5-1/Chapter-5-1-13.png?iorg_service_id_internal=253471785031826%3BAfryDg21FDdrbQ2q 63.9 26.8750190735 416.166067123 959.336996078 34.6548557281 8.23307037354 1031.63504601
10.50.0.30 31.13.75.37 /-t_4c1b0acbaabd4710b0165ebcf88f975b8703091a-/pngimages/Chapter-5-1/Chapter-5-1-14.png?iorg_service_id_internal=253471785031826%3BAfryDg21FDdrbQ2q 68.48 28.9089679718 582.047939301 1035.96901894 42.3541069031 13.6430263519 1316.4768219
10.50.0.30 31.13.75.37 /-t_84f18728e0732c4fbc2e508b58a8288ff4983675-/pngimages/Chapter-5-1/Chapter-5-1-15.png?iorg_service_id_internal=253471785031826%3BAfryDg21FDdrbQ2q 69.97 34.3391895294 196.611881256 646.847963333 34.3570709229 9.30690765381 1920.6199646
10.50.0.30 31.13.75.37 /-t_f5579d0914cb3fefab121a3b0e7fbea023dc3cab-/pngimages/Chapter-5-1/Chapter-5-1-16.png?iorg_service_id_internal=253471785031826%3BAfryDg21FDdrbQ2q 63.76 37.0321273804 198.398828506 723.165035248 38.1679534912 8.3589553833 1600.98600388
10.50.0.30 31.13.75.37 /-t_f82552fc89bd274ac0ee3d2fd55986d2570aa27f-/pngimages/Chapter-5-1/Chapter-5-1-17.png?iorg_service_id_internal=253471785031826%3BAfryDg21FDdrbQ2q 66.14 35.8881950378 631.683826447 643.113136292 34.4388484955 13.6680603027 1758.08095932
10.50.0.30 31.13.75.37 /-t_686c273524a69158db9fbb0b6065417ad44e0053-/pngimages/Chapter-5-1/Chapter-5-1-18.png?iorg_service_id_internal=253471785031826%3BAfryDg21FDdrbQ2q 68.86 26.4019966125 208.023071289 381.299972534 31.6209793091 11.1439228058 1648.36287498
10.50.0.30 31.13.75.37 /-t_37a9ce70d6fdbd87fc8718efe2490e44e06b2799-/pngimages/Chapter-5-1/Chapter-5-1-19.png?iorg_service_id_internal=253471785031826%3BAfryDg21FDdrbQ2q 70.86 33.7541103363 504.464864731 1033.01501274 34.6460342407 8.88085365295 1513.85784149
10.50.0.30 31.13.75.37 /-t_b30ab475101308189a7d4a8a77544327b9805a44-/pngimages/Chapter-5-1/Chapter-5-1-2.png?iorg_service_id_internal=253471785031826%3BAfryDg21FDdrbQ2q 72.67 28.6331176758 183.693885803 875.320196152 34.7988605499 10.3240013123 1434.17716026
10.50.0.30 31.13.75.37 /-t_1c5c0380e9319e79b6ae3be64d3aa15b72ac735a-/pngimages/Chapter-5-1/Chapter-5-1-20.png?iorg_service_id_internal=253471785031826%3BAfryDg21FDdrbQ2q 63.43 30.7650566101 555.857896805 565.208911896 39.2401218414 8.45003128052 1393.94402504
10.50.0.30 31.13.93.37 /-t_710dbe50f59e64bcb524762ba124ede282cc1b97-/pngimages/Chapter-5-1/Chapter-5-1-21.png?iorg_service_id_internal=253471785031826%3BAfryDg21FDdrbQ2q 63.09 34.5020294189 547.954082489 883.379936218 34.6851348877 9.11593437195 1296.25892639
10.50.0.30 31.13.75.37 /-t_f78773c4d490c777bb8fa3e05102235bb10d0e65-/pngimages/Chapter-5-1/Chapter-5-1-22.png?iorg_service_id_internal=253471785031826%3BAfryDg21FDdrbQ2q 71.89 36.4129543304 365.501880646 1757.63702393 38.300037384 8.96596908569 2050.59790611
10.50.0.30 31.13.75.37 /-t_5fd24015af3505c7d127a333a24de9b7b1370c46-/pngimages/Chapter-5-1/Chapter-5-1-23.png?iorg_service_id_internal=253471785031826%3BAfryDg21FDdrbQ2q 68.21 33.5109233856 379.161119461 564.696073532 37.7299785614 13.7898921967 1655.85708618
10.50.0.30 31.13.75.37 /-t_cbd117b1373c067385951f72155d850965cdc32f-/pngimages/Chapter-5-1/Chapter-5-1-24.png?iorg_service_id_internal=253471785031826%3BAfryDg21FDdrbQ2q 51.73 35.649061203 668.416023254 963.442087173 34.7929000854 8.68701934814 561.424970627
10.50.0.30 31.13.93.37 /-t_3b28f3e44830f5a0af42fdf99e005c9beda1ea6a-/pngimages/Chapter-5-1/Chapter-5-1-25.png?iorg_service_id_internal=253471785031826%3BAfryDg21FDdrbQ2q 6.5 29.2720794678 452.738046646 629.603862762 40.0400161743 13.6890411377 48.1858253479
10.50.0.30 31.13.75.37 /-t_f3663301039010ce87c970ff9409ad9b462d7222-/pngimages/Chapter-5-1/Chapter-5-1-26.png?iorg_service_id_internal=253471785031826%3BAfryDg21FDdrbQ2q 65.15 31.0180187225 273.828983307 564.028978348 38.7291908264 6.19602203369 2284.0681076
10.50.0.30 31.13.75.37 /-t_8b9f82bdce24c0b532c6ab21aafc5f7a28744691-/pngimages/Chapter-5-1/Chapter-5-1-27.png?iorg_service_id_internal=253471785031826%3BAfryDg21FDdrbQ2q 67.47 32.518863678 673.235177994 569.70500946 34.6310138702 14.2040252686 1205.38592339
10.50.0.30 31.13.75.37 /-t_43ec3aa47a7a1822bcec8ffd746b737bd85ea23c-/pngimages/Chapter-5-1/Chapter-5-1-28.png?iorg_service_id_internal=253471785031826%3BAfryDg21FDdrbQ2q 70.68 29.8399925232 169.387102127 571.475982666 37.0600223541 9.20486450195 1731.95791245
10.50.0.30 31.13.75.37 /-t_e0f3ac4e79338a2c27babc4bea5da81ce7821377-/pngimages/Chapter-5-1/Chapter-5-1-29.png?iorg_service_id_internal=253471785031826%3BAfryDg21FDdrbQ2q 56.8 34.4121456146 444.597005844 560.95790863 39.8609638214 9.33504104614 1114.86887932
10.50.0.30 31.13.93.37 /-t_d7c519ca5ed5e90654d6682f6a3bd28c70513980-/pngimages/Chapter-5-1/Chapter-5-1-3.png?iorg_service_id_internal=253471785031826%3BAfryDg21FDdrbQ2q 67.53 34.8660945892 428.358793259 1015.68007469 45.2909469604 9.69099998474 2245.13602257
10.50.0.30 31.13.75.37 /-t_2a31a82b309d468b311258e47023d76195cdc998-/pngimages/Chapter-5-1/Chapter-5-1-30.png?iorg_service_id_internal=253471785031826%3BAfryDg21FDdrbQ2q 64.39 38.113117218 182.934999466 569.694042206 36.6640090942 9.07182693481 1603.73401642
10.50.0.30 31.13.75.37 /-t_10f6147174e14c3d696f248b3bcf4c12f21ea63c-/pngimages/Chapter-5-1/Chapter-5-1-31.png?iorg_service_id_internal=253471785031826%3BAfryDg21FDdrbQ2q 69.06 35.9687805176 195.585012436 677.5431633 37.8389358521 9.11593437195 2245.75304985
10.50.0.30 31.13.75.37 /-t_ff582eeee1de16135bf23354c7a025c8a8899210-/pngimages/Chapter-5-1/Chapter-5-1-32.png?iorg_service_id_internal=253471785031826%3BAfryDg21FDdrbQ2q 72.85 29.7119617462 260.46204567 838.96112442 35.8669757843 8.44812393188 2005.2781105
10.50.0.30 31.13.93.37 /-t_cbd526146639b54ae66f6e63ef4df585b3f35900-/pngimages/Chapter-5-1/Chapter-5-1-33.png?iorg_service_id_internal=253471785031826%3BAfryDg21FDdrbQ2q 55.92 31.6250324249 652.845144272 949.725866318 40.7021045685 9.08493995667 596.640825272
10.50.0.30 31.13.75.37 /-t_57e1b6dc5ce89c0f12acc9caf7d0325802af6cca-/pngimages/Chapter-5-1/Chapter-5-1-34.png?iorg_service_id_internal=253471785031826%3BAfryDg21FDdrbQ2q 53.86 32.1419239044 216.575145721 656.237840652 35.2621078491 13.13996315 1529.76894379
10.50.0.30 31.13.75.37 /-t_4b0ddcb7aeee23be9aa2b1d3a6041c295210952b-/pngimages/Chapter-5-1/Chapter-5-1-35.png?iorg_service_id_internal=253471785031826%3BAfryDg21FDdrbQ2q 22.41 35.2830886841 174.852848053 562.595129013 34.590959549 7.89308547974 398.202896118
10.50.0.30 31.13.75.37 /-t_c49a15fbd95a4065b944408f7b34929eaaab28d0-/pngimages/Chapter-5-1/Chapter-5-1-4.png?iorg_service_id_internal=253471785031826%3BAfryDg21FDdrbQ2q 66.98 31.5139293671 364.62187767 1308.96019936 39.1499996185 8.91804695129 1524.31607246
10.50.0.30 31.13.75.37 /-t_1644ca86fa1411a043d9bb07c90c49a53b465dc7-/pngimages/Chapter-5-1/Chapter-5-1-5.png?iorg_service_id_internal=253471785031826%3BAfryDg21FDdrbQ2q 66.76 27.8980731964 159.044981003 566.267967224 32.7899456024 8.94498825073 1892.73190498
10.50.0.30 31.13.93.37 /-t_dd51d7f07f31cf543b6de756f6ff27a0a893a0a6-/pngimages/Chapter-5-1/Chapter-5-1-6.png?iorg_service_id_internal=253471785031826%3BAfryDg21FDdrbQ2q 74.61 34.9950790405 420.199871063 964.100122452 41.2290096283 15.6538486481 1280.02595901
10.50.0.30 31.13.75.37 /-t_c9a2534cdd8eeb5f46e3ef76454e8ca24091736e-/pngimages/Chapter-5-1/Chapter-5-1-7.png?iorg_service_id_internal=253471785031826%3BAfryDg21FDdrbQ2q 71.35 34.8191261292 649.662017822 643.873929977 46.4520454407 8.50486755371 2407.97686577
10.50.0.30 31.13.75.37 /-t_75eb6780bbd11a114c571923f805503d29c351b6-/pngimages/Chapter-5-1/Chapter-5-1-8.png?iorg_service_id_internal=253471785031826%3BAfryDg21FDdrbQ2q 68.21 34.1351032257 183.295965195 575.340986252 42.3390865326 9.00816917419 1603.60312462
10.50.0.30 31.13.75.37 /-t_a5326117e09dc35dee9f5befa7887c2455336a72-/pngimages/Chapter-5-1/Chapter-5-1-9.png?iorg_service_id_internal=253471785031826%3BAfryDg21FDdrbQ2q 70.57 24.6081352234 559.00478363 962.65912056 34.3220233917 9.17887687683 1892.60196686
10.50.0.30 31.13.93.37 /Chapter-6-1/Chapter-6-1.php?iorg_service_id_internal=253471785031826%3BAfryDg21FDdrbQ2q 12.59 29.7601222992 197.700977325 978.507995605 34.2710018158 16.1590576172 57.1930408478
10.50.0.30 31.13.75.37 /-t_fe5711018bf6b8a7d0a647785e4082ffa826af6f-/pngimages/Chapter-6-1/Chapter-6-1-0.png?iorg_service_id_internal=253471785031826%3BAfryDg21FDdrbQ2q 60.86 28.7749767303 232.767820358 562.787055969 31.4791202545 8.3601474762 1632.01498985
10.50.0.30 31.13.75.37 /-t_26e039adfb51c674cb0e4383164f2d2512ca4c8b-/pngimages/Chapter-6-1/Chapter-6-1-1.png?iorg_service_id_internal=253471785031826%3BAfryDg21FDdrbQ2q 3.65 34.1858863831 362.892150879 752.73680687 43.7870025635 8.44287872314 50.488948822
10.50.0.30 31.13.75.37 / content) 32.0520401001 228.474855423 576.179981232 37.7089977264 4.30488586426 37.9319190979
10.50.0.30 31.13.75.37 /welcome?next=https%3A%2F%2F0.freebasics.com%2F 28.89 32.1490764618 230.304002762 378.784894943 31.690120697 5.53703308105 192.483901978
10.50.0.30 31.13.75.37 /welcome?next=https%3A%2F%2F0.freebasics.com%2F content) 41.1190986633 156.506061554 361.845970154 35.8979701996 7.41791725159 24.9989032745
10.50.0.30 31.13.75.37 / content) 29.6928882599 158.38599205 566.138982773 27.4081230164 5.54800033569 45.6328392029
10.50.0.30 31.13.75.37 /?_h=1 57.99 26.0050296783 170.22395134 385.614156723 29.7060012817 6.52003288269 1191.47109985
10.50.0.30 31.13.75.37 /searchservices 55.13 26.7820358276 177.899122238 387.575864792 30.1191806793 6.11591339111 1278.23781967
10.50.0.30 31.13.75.37 /searchservices?offset=0&next=%D8%A7%DA%AF%D9%84%D8%A7 57.03 36.3759994507 166.103839874 568.133115768 41.0749912262 12.932062149 1542.93298721
10.50.0.30 31.13.75.37 /searchservices?offset=20&next=%D8%A7%DA%AF%D9%84%D8%A7 56.95 32.5419902802 219.702005386 564.694881439 28.9001464844 7.47513771057 1865.93699455
10.50.0.30 31.13.75.37 /searchservices?offset=40&next=%D8%A7%DA%AF%D9%84%D8%A7 56.84 36.3240242004 182.783842087 424.801111221 33.6918830872 8.32390785217 1363.1541729
10.50.0.30 31.13.75.37 /addservice?service_id=253471785031826&previous_url=https%3A%2F%2F0.freebasics.com%2Fsearchservices%3Foffset%3D40%26next%3D%25D8%25A7%25DA%25AF%25D9%2584%25D8%25A7 27.89 27.4958610535 414.540052414 402.821063995 34.6338748932 8.6350440979 373.560905457
10.50.0.30 31.13.75.37 /addservice?service_id=253471785031826&previous_url=https%3A%2F%2F0.freebasics.com%2Fsearchservices%3Foffset%3D40%26next%3D%25D8%25A7%25DA%25AF%25D9%2584%25D8%25A7 content) 33.5500240326 156.790971756 586.194992065 30.4291248322 9.80806350708 29.0579795837
10.50.0.30 31.13.75.37 /l?next=https%3A%2F%2Fhttp-learnbasics-mpi--sws-org.0.freebasics.com%2F%3Fiorg_service_id_internal%3D253471785031826%253BAfryDg21FDdrbQ2q&h=AXSD8sGVwzVf5HqK&ref=add_service&service_id=253471785031826 content) 29.061794281 153.295040131 591.307163239 38.6309623718 19.7541713715 37.5349521637
10.50.0.30 31.13.75.37 /?iorg_service_id_internal=253471785031826%3BAfryDg21FDdrbQ2q 10.43 28.4759998322 156.628847122 590.334177017 39.9580001831 9.26208496094 42.0899391174
10.50.0.30 31.13.75.37 /available-courses.html?iorg_service_id_internal=253471785031826%3BAfryDg21FDdrbQ2q 10.68 27.4140834808 388.030052185 563.102006912 29.098033905 9.50193405151 41.944026947
10.50.0.30 31.13.75.37 /stand-up-and-speak-out-the-practice-and-ethics-of-public-speaking.html?iorg_service_id_internal=253471785031826%3BAfryDg21FDdrbQ2q 16.41 27.8730392456 375.681877136 642.557144165 29.4978618622 10.2310180664 182.526111603
10.50.0.30 31.13.75.37 /writing-for-success-learn-english-writing.html?iorg_service_id_internal=253471785031826%3BAfryDg21FDdrbQ2q 14.09 35.1941585541 379.905939102 766.481876373 44.3341732025 14.0919685364 360.579967499
10.50.0.30 31.13.75.37 /communication-skills-for-academics.html?iorg_service_id_internal=253471785031826%3BAfryDg21FDdrbQ2q 9.84 32.3820114136 192.554950714 408.035993576 34.1579914093 15.1510238647 42.5670146942
10.50.0.30 31.13.93.37 /english-listening-speaking-and-pronunciation.html?iorg_service_id_internal=253471785031826%3BAfryDg21FDdrbQ2q 16.01 32.4790477753 1432.59096146 673.663139343 45.4850196838 11.9259357452 202.42190361
10.50.0.30 31.13.75.37 /basic-algebra.html?iorg_service_id_internal=253471785031826%3BAfryDg21FDdrbQ2q 12.34 25.3279209137 158.865213394 612.964868546 32.5350761414 10.0650787354 34.6221923828
10.50.0.30 31.13.75.37 /basic-probability-and-statistics.html?iorg_service_id_internal=253471785031826%3BAfryDg21FDdrbQ2q 12.46 35.9768867493 449.543952942 564.074039459 32.8221321106 15.939950943 155.256032944
10.50.0.30 31.13.75.37 /geometry.html?iorg_service_id_internal=253471785031826%3BAfryDg21FDdrbQ2q 12.74 24.7721672058 211.240053177 421.197891235 38.8240814209 10.0290775299 175.601959229
10.50.0.30 31.13.75.37 /mathematical-proofs.html?iorg_service_id_internal=253471785031826%3BAfryDg21FDdrbQ2q 14.37 36.737203598 153.79691124 696.484088898 35.1068973541 9.03797149658 165.754079819
10.50.0.30 31.13.75.37 /leaving?p=1&continueuri=https%3A%2F%2Fwordpress.org%2F&backuri=https%3A%2F%2Fhttp-learnbasics-mpi--sws-org.0.freebasics.com%2Favailable-courses.html%3Fiorg_service_id_internal%3D253471785031826%253BAfryDg21FDdrbQ2q&why=i_list&service_id=253471785031826 28.24 25.9761810303 472.315788269 403.236150742 32.0839881897 12.0098590851 191.184043884
10.50.0.30 31.13.75.37 /Chapter-1-1/Chapter-1-1.php?iorg_service_id_internal=253471785031826%3BAfryDg21FDdrbQ2q 6.47 30.3480625153 159.343957901 631.576061249 35.1500511169 16.5309906006 38.3770465851
10.50.0.30 31.13.75.37 /-t_48c884f057082803caf37b90838c87af5529d79e-/pngimages/Chapter-1-1/Chapter-1-1-0.png?iorg_service_id_internal=253471785031826%3BAfryDg21FDdrbQ2q 76.82 28.1550884247 147.220849991 421.984195709 25.0298976898 7.1849822998 1601.74894333
10.50.0.30 31.13.93.37 /-t_239aad2c38b911a838e34baef015d58490ae80cc-/pngimages/Chapter-1-1/Chapter-1-1-1.png?iorg_service_id_internal=253471785031826%3BAfryDg21FDdrbQ2q 68.36 36.2231731415 202.294826508 1168.43509674 34.2140197754 7.76100158691 4489.5298481
10.50.0.30 31.13.75.37 /-t_51ab70ab5146d5453354693179cb83a9b1971fc5-/pngimages/Chapter-1-1/Chapter-1-1-10.png?iorg_service_id_internal=253471785031826%3BAfryDg21FDdrbQ2q 70.42 31.9211483002 183.234930038 723.469018936 28.6078453064 7.96890258789 1622.52402306
10.50.0.30 31.13.75.37 /-t_c84dfd060c4a779facd5f75d18d761092172cdda-/pngimages/Chapter-1-1/Chapter-1-1-11.png?iorg_service_id_internal=253471785031826%3BAfryDg21FDdrbQ2q 61.95 28.2499790192 167.461872101 400.2430439 29.1221141815 9.30595397949 1304.46696281
10.50.0.30 31.13.75.37 /-t_ba807859e26d5e6571b0a3f7e67d5c86b2285c5f-/pngimages/Chapter-1-1/Chapter-1-1-12.png?iorg_service_id_internal=253471785031826%3BAfryDg21FDdrbQ2q 57.53 33.1580638885 174.979925156 394.456148148 32.6359272003 10.4458332062 937.968969345
10.50.0.30 31.13.75.37 /-t_51a06c89751f672f88f45bdec218457334126f20-/pngimages/Chapter-1-1/Chapter-1-1-13.png?iorg_service_id_internal=253471785031826%3BAfryDg21FDdrbQ2q 50.63 28.0859470367 184.57698822 782.487154007 30.8248996735 10.6709003448 574.4099617
10.50.0.30 31.13.75.37 /-t_f8fa29b0a029fcd136011f89d301b66a6234a554-/pngimages/Chapter-1-1/Chapter-1-1-14.png?iorg_service_id_internal=253471785031826%3BAfryDg21FDdrbQ2q 6.74 27.4369716644 239.789962769 579.063892365 42.9410934448 7.95102119446 50.3809452057
10.50.0.30 31.13.93.37 /-t_f6cafa07db6e2154ed4643f8dbf47421c11555dd-/pngimages/Chapter-1-1/Chapter-1-1-2.png?iorg_service_id_internal=253471785031826%3BAfryDg21FDdrbQ2q 63.5 28.1109809875 1186.74397469 639.72902298 34.7850322723 7.78913497925 3200.98614693
10.50.0.30 31.13.75.37 /-t_9b2485a7decf90b9d80de0e2ca48aaf0a9eb4002-/pngimages/Chapter-1-1/Chapter-1-1-3.png?iorg_service_id_internal=253471785031826%3BAfryDg21FDdrbQ2q 68.53 34.6999168396 153.120040894 606.935977936 20.4839706421 5.76114654541 1840.68202972
10.50.0.30 31.13.75.37 /-t_3751f9b88c23e65d6f4577a9f7a863111888c003-/pngimages/Chapter-1-1/Chapter-1-1-4.png?iorg_service_id_internal=253471785031826%3BAfryDg21FDdrbQ2q 68.71 35.9799861908 162.434101105 413.101911545 32.2630405426 7.8330039978 2000.43797493
10.50.0.30 31.13.75.37 /-t_aa7aeafc761cfcc38648c326f0e9f2b7a3fcc40c-/pngimages/Chapter-1-1/Chapter-1-1-5.png?iorg_service_id_internal=253471785031826%3BAfryDg21FDdrbQ2q 85.38 34.469127655 155.970811844 386.907100677 35.4011058807 9.66215133667 2195.90091705
10.50.0.30 31.13.75.37 /-t_7508eec5ec2cedaff8eb0b3f8b76b8bd4e204feb-/pngimages/Chapter-1-1/Chapter-1-1-6.png?iorg_service_id_internal=253471785031826%3BAfryDg21FDdrbQ2q 74.49 32.5109958649 155.00497818 356.851100922 39.999961853 9.10592079163 2495.81384659
10.50.0.30 31.13.93.37 /-t_bc37b138ad423886a6cd7dec28360f771d77017b-/pngimages/Chapter-1-1/Chapter-1-1-7.png?iorg_service_id_internal=253471785031826%3BAfryDg21FDdrbQ2q 106.83 34.7950458527 1192.57903099 767.593860626 18.2909965515 5.13386726379 3122.52092361
10.50.0.30 31.13.75.37 /-t_29923b2c0deb20544ff42c12e6e02418f9d56400-/pngimages/Chapter-1-1/Chapter-1-1-8.png?iorg_service_id_internal=253471785031826%3BAfryDg21FDdrbQ2q 61.18 29.5240879059 1154.21509743 390.740871429 30.4610729218 8.20207595825 1931.1568737
10.50.0.30 31.13.75.37 /-t_2706929da2f72584ec770c7ae471d78e81a5e213-/pngimages/Chapter-1-1/Chapter-1-1-9.png?iorg_service_id_internal=253471785031826%3BAfryDg21FDdrbQ2q 69.48 32.0780277252 157.065868378 359.230995178 32.3781967163 9.30213928223 2286.62610054
10.50.0.30 31.13.75.37 /Chapter-2-1/Chapter-2-1.php?iorg_service_id_internal=253471785031826%3BAfryDg21FDdrbQ2q 9 33.4868431091 160.513162613 376.648902893 27.7969837189 8.93497467041 40.8470630646
10.50.0.30 31.13.75.37 /-t_3e68154781c7f2554f8e236d09d701e4801a7860-/pngimages/Chapter-2-1/Chapter-2-1-0.png?iorg_service_id_internal=253471785031826%3BAfryDg21FDdrbQ2q 51.23 33.539056778 163.407087326 368.244886398 26.3221263885 6.74390792847 1842.56100655
10.50.0.30 31.13.93.37 /-t_f4f9b775801ce2e1d0ca26fe46c06e81ef1b433b-/pngimages/Chapter-2-1/Chapter-2-1-1.png?iorg_service_id_internal=253471785031826%3BAfryDg21FDdrbQ2q 72.52 26.5860557556 244.211912155 495.541095734 27.4629592896 12.6838684082 2026.82495117
10.50.0.30 31.13.75.37 /-t_840f36f2560a4b80243bd63aad9a58fd4a68c9e2-/pngimages/Chapter-2-1/Chapter-2-1-10.png?iorg_service_id_internal=253471785031826%3BAfryDg21FDdrbQ2q 75.02 28.9359092712 162.415027618 487.169981003 30.1699638367 8.36992263794 2339.52116966
10.50.0.30 31.13.75.37 /-t_51b7946a394a81382cc0348bddbe02fad620880a-/pngimages/Chapter-2-1/Chapter-2-1-11.png?iorg_service_id_internal=253471785031826%3BAfryDg21FDdrbQ2q 72.8 27.3540019989 193.010091782 722.949981689 37.829875946 9.70697402954 1441.89286232
10.50.0.30 31.13.75.37 /-t_cdf7048815fa882a9cd1f1e3cef60992bc0d49d0-/pngimages/Chapter-2-1/Chapter-2-1-12.png?iorg_service_id_internal=253471785031826%3BAfryDg21FDdrbQ2q 70.92 32.7570438385 224.072933197 806.686162949 13.9179229736 4.00304794312 1803.88689041
10.50.0.30 31.13.75.37 /-t_4f30b6b562401b8f98554fabfa3627b6acd0fac6-/pngimages/Chapter-2-1/Chapter-2-1-13.png?iorg_service_id_internal=253471785031826%3BAfryDg21FDdrbQ2q 67.7 29.7718048096 181.202173233 406.518936157 32.2968959808 8.68606567383 1524.2228508
10.50.0.30 31.13.75.37 /-t_7c1d88f6233fbfdd678b2a25f8d9e6b245b68f16-/pngimages/Chapter-2-1/Chapter-2-1-14.png?iorg_service_id_internal=253471785031826%3BAfryDg21FDdrbQ2q 66.55 35.2091789246 157.447814941 566.212177277 32.3288440704 11.0590457916 2706.43687248
10.50.0.30 31.13.93.37 /-t_a37717138dfd39d12905dbfd2e2a0e403f48dffd-/pngimages/Chapter-2-1/Chapter-2-1-15.png?iorg_service_id_internal=253471785031826%3BAfryDg21FDdrbQ2q 70.84 25.6578922272 193.005084991 431.167840958 13.7691497803 4.95791435242 2239.57800865
10.50.0.30 31.13.75.37 /-t_fa4eb8212a77636a50f4b15ec4cdd5557e5df184-/pngimages/Chapter-2-1/Chapter-2-1-16.png?iorg_service_id_internal=253471785031826%3BAfryDg21FDdrbQ2q 64.71 24.6248245239 181.861162186 371.059894562 38.6259555817 10.9491348267 1444.42391396
10.50.0.30 31.13.75.37 /-t_2a892ee456e025805848bbe56b51aff15737aaac-/pngimages/Chapter-2-1/Chapter-2-1-17.png?iorg_service_id_internal=253471785031826%3BAfryDg21FDdrbQ2q 67.03 28.3761024475 543.08795929 406.666994095 34.5470905304 8.82697105408 1552.3750782
10.50.0.30 31.13.75.37 /-t_afcf1096e006d2a19e3e68de2e2cc20a1f73d069-/pngimages/Chapter-2-1/Chapter-2-1-18.png?iorg_service_id_internal=253471785031826%3BAfryDg21FDdrbQ2q 74.03 34.8119735718 171.983003616 723.29211235 37.9350185394 9.34600830078 2079.02193069
10.50.0.30 31.13.75.37 /-t_6a6d326af750b6d336bffe753984fc32bb5fcc0b-/pngimages/Chapter-2-1/Chapter-2-1-19.png?iorg_service_id_internal=253471785031826%3BAfryDg21FDdrbQ2q 60.77 27.5700092316 330.010175705 567.431926727 31.0099124908 8.40902328491 1040.21716118
10.50.0.30 31.13.75.37 /-t_9d2632065dd1cfd2a1f48ab92f4974ac11c6d4a2-/pngimages/Chapter-2-1/Chapter-2-1-2.png?iorg_service_id_internal=253471785031826%3BAfryDg21FDdrbQ2q 69.16 26.2131690979 243.080854416 929.775953293 40.4441356659 15.487909317 2553.0090332
10.50.0.30 31.13.75.37 /-t_003854b3065e17ffdca319b9e4eb8dcee979b926-/pngimages/Chapter-2-1/Chapter-2-1-20.png?iorg_service_id_internal=253471785031826%3BAfryDg21FDdrbQ2q 52.73 34.4479084015 264.575004578 2242.42901802 34.3420505524 7.70211219788 1037.71305084
10.50.0.30 31.13.75.37 /-t_7c44abd0f81aa612738998cdaa99cef584acf3a0-/pngimages/Chapter-2-1/Chapter-2-1-21.png?iorg_service_id_internal=253471785031826%3BAfryDg21FDdrbQ2q 58.92 36.6959571838 244.898080826 375.223875046 29.3850898743 8.52799415588 1557.05308914
10.50.0.30 31.13.75.37 /-t_4c57008ae6495567aa3a82ffeb3c8a6d7fa7ce93-/pngimages/Chapter-2-1/Chapter-2-1-22.png?iorg_service_id_internal=253471785031826%3BAfryDg21FDdrbQ2q 63.48 36.4830493927 375.696897507 374.927043915 29.0930271149 7.81989097595 1280.04193306
10.50.0.30 31.13.75.37 /-t_3a1a1845bee65d3d512f6ca9b0521e588cacd1b6-/pngimages/Chapter-2-1/Chapter-2-1-23.png?iorg_service_id_internal=253471785031826%3BAfryDg21FDdrbQ2q 64.7 31.9650173187 157.174825668 814.383029938 38.3429527283 9.36508178711 1659.9419117
10.50.0.30 31.13.75.37 /-t_446b55e1dc438717deaa29b4a5ccc42c4edf4036-/pngimages/Chapter-2-1/Chapter-2-1-24.png?iorg_service_id_internal=253471785031826%3BAfryDg21FDdrbQ2q 58.88 36.7059707642 298.694133759 623.769044876 42.1688556671 8.948802948 1837.94403076
10.50.0.30 31.13.75.37 /-t_430c02850d8a2977918d0bb003bec762d082e627-/pngimages/Chapter-2-1/Chapter-2-1-25.png?iorg_service_id_internal=253471785031826%3BAfryDg21FDdrbQ2q 28.69 36.3729000092 314.193964005 721.163988113 31.5399169922 8.10599327087 572.970151901
10.50.0.30 31.13.92.37 /-t_9705a600e5f5a3b377c7b991e0cef204de1a2141-/pngimages/Chapter-2-1/Chapter-2-1-26.png?iorg_service_id_internal=253471785031826%3BAfryDg21FDdrbQ2q 6.39 36.3709926605 464.382886887 1036.714077 52.640914917 7.83205032349 53.3640384674
10.50.0.30 31.13.75.37 /-t_c0140fa05c8f7750587f62dbdafe731164a119d5-/pngimages/Chapter-2-1/Chapter-2-1-3.png?iorg_service_id_internal=253471785031826%3BAfryDg21FDdrbQ2q 70.96 34.8711013794 291.926860809 760.084152222 36.1528396606 9.10997390747 2807.10101128
10.50.0.30 31.13.75.37 /-t_a337ddf160732e59eeb35c0b52c01c2f2f08a847-/pngimages/Chapter-2-1/Chapter-2-1-4.png?iorg_service_id_internal=253471785031826%3BAfryDg21FDdrbQ2q 54.66 36.6580486298 196.370124817 1100.92902184 37.9278659821 16.7908668518 3242.93398857
10.50.0.30 31.13.75.37 /-t_68926a6f065839e10b38d6765c41f72e22afee78-/pngimages/Chapter-2-1/Chapter-2-1-5.png?iorg_service_id_internal=253471785031826%3BAfryDg21FDdrbQ2q 47.37 29.2489528656 164.5860672 677.994966507 34.3780517578 7.21788406372 569.499015808
10.50.0.30 31.13.75.37 /-t_77a8e9381333f198d32a9fdb61fef50aec883d80-/pngimages/Chapter-2-1/Chapter-2-1-6.png?iorg_service_id_internal=253471785031826%3BAfryDg21FDdrbQ2q 61.97 27.8398990631 165.413141251 565.178871155 39.7629737854 9.19699668884 884.58609581
10.50.0.30 31.13.93.37 /-t_4f3ed3c48faff7c6e2c6b2b8c678f028ee364938-/pngimages/Chapter-2-1/Chapter-2-1-7.png?iorg_service_id_internal=253471785031826%3BAfryDg21FDdrbQ2q 62 34.3339443207 540.748119354 961.948871613 40.4961109161 13.4751796722 2716.41898155
10.50.0.30 31.13.75.37 /-t_89ad8be55b5f92c0dd48cb7997d84ab3a010b858-/pngimages/Chapter-2-1/Chapter-2-1-8.png?iorg_service_id_internal=253471785031826%3BAfryDg21FDdrbQ2q 70.46 31.8567752838 245.359182358 933.897972107 34.2738628387 12.4869346619 2071.63405418
10.50.0.30 31.13.75.37 /-t_6a2cc070393406f0e30e853056f928a29fd16179-/pngimages/Chapter-2-1/Chapter-2-1-9.png?iorg_service_id_internal=253471785031826%3BAfryDg21FDdrbQ2q 76.07 25.4809856415 313.508033752 930.855989456 40.4908657074 11.5399360657 2007.80105591
10.50.0.30 31.13.75.37 /Chapter-3-1/Chapter-3-1.php?iorg_service_id_internal=253471785031826%3BAfryDg21FDdrbQ2q 8.58 31.8441390991 172.957897186 723.025083542 31.4648151398 13.8330459595 46.8139648438
10.50.0.30 31.13.75.37 /-t_7c8ed2af30b42ff75238df4f50ecc5d4d02dee1f-/pngimages/Chapter-3-1/Chapter-3-1-0.png?iorg_service_id_internal=253471785031826%3BAfryDg21FDdrbQ2q 6.39 29.4740200043 237.890005112 590.020179749 43.4699058533 9.44685935974 45.8679199219
10.50.0.30 31.13.75.37 /-t_189f01c6e9bea10f9489fe47c2a589b64946d652-/pngimages/Chapter-3-1/Chapter-3-1-1.png?iorg_service_id_internal=253471785031826%3BAfryDg21FDdrbQ2q 62.09 29.128074646 209.558963776 656.852960587 34.7859859467 9.40108299255 1600.10099411
10.50.0.30 31.13.93.37 /-t_250dc7ce98afa972fff8bba5d8a79c5293a329ad-/pngimages/Chapter-3-1/Chapter-3-1-10.png?iorg_service_id_internal=253471785031826%3BAfryDg21FDdrbQ2q 64.38 26.2160301208 422.440052032 965.77501297 32.7508449554 8.34202766418 2288.46621513
10.50.0.30 31.13.75.37 /-t_d354ebf49a67488d39244024187fda876b07eba8-/pngimages/Chapter-3-1/Chapter-3-1-11.png?iorg_service_id_internal=253471785031826%3BAfryDg21FDdrbQ2q 67.07 36.6151332855 326.4939785 572.14307785 28.9280414581 12.5279426575 3561.57016754
10.50.0.30 31.13.75.37 /-t_cb88999b10143347c0ee09986bb38a34e3a1b398-/pngimages/Chapter-3-1/Chapter-3-1-12.png?iorg_service_id_internal=253471785031826%3BAfryDg21FDdrbQ2q 56.21 25.1920223236 405.254125595 969.890832901 34.7220897675 9.07492637634 1039.77489471
10.50.0.30 31.13.75.37 /-t_1a190f35eb133d0c299d4e098c8825b5247fe812-/pngimages/Chapter-3-1/Chapter-3-1-13.png?iorg_service_id_internal=253471785031826%3BAfryDg21FDdrbQ2q 72.23 24.8618125916 183.430194855 359.115839005 41.3031578064 7.27415084839 1347.69105911
10.50.0.30 31.13.75.37 /-t_a0ec4a2786251bc4fdd2a19ebe1a3f15d43979d1-/pngimages/Chapter-3-1/Chapter-3-1-14.png?iorg_service_id_internal=253471785031826%3BAfryDg21FDdrbQ2q 63.76 28.6569595337 245.716094971 576.869010925 35.1519584656 15.0561332703 1276.6520977
10.50.0.30 31.13.93.37 /-t_f782020c321afcb2246ceaa756e57a1e52b6c3ca-/pngimages/Chapter-3-1/Chapter-3-1-15.png?iorg_service_id_internal=253471785031826%3BAfryDg21FDdrbQ2q 67.5 24.7850418091 397.480010986 1033.13398361 39.3409729004 9.20796394348 1651.65495872
10.50.0.30 31.13.75.37 /-t_6e3324b6f966660b172b9f5fb1abeb443e20d763-/pngimages/Chapter-3-1/Chapter-3-1-16.png?iorg_service_id_internal=253471785031826%3BAfryDg21FDdrbQ2q 69.54 25.0420570374 266.869068146 934.562921524 34.8539352417 8.76903533936 1526.01194382
10.50.0.30 31.13.75.37 /-t_9c4e1f022f8cdf94b962559d3b3aa93de51a0a32-/pngimages/Chapter-3-1/Chapter-3-1-17.png?iorg_service_id_internal=253471785031826%3BAfryDg21FDdrbQ2q 62.34 34.2659950256 478.392839432 386.026144028 31.6948890686 8.45217704773 1279.22916412
10.50.0.30 31.13.75.37 /-t_7d8647697ec992763bcf6b56bf113b61bcc0af02-/pngimages/Chapter-3-1/Chapter-3-1-18.png?iorg_service_id_internal=253471785031826%3BAfryDg21FDdrbQ2q 67.63 31.6998958588 170.175075531 636.777877808 38.3150577545 9.5648765564 1575.37388802
10.50.0.30 31.13.75.37 /-t_b6a3ad0e05ffd27629b3060f35ad6ad0234e93aa-/pngimages/Chapter-3-1/Chapter-3-1-19.png?iorg_service_id_internal=253471785031826%3BAfryDg21FDdrbQ2q 63.23 33.6811542511 167.052984238 725.239038467 29.8399925232 7.7109336853 1758.10217857
10.50.0.30 31.13.93.37 /-t_45dd1cdca43bb504dc9f5be1db64d3c5d721821e-/pngimages/Chapter-3-1/Chapter-3-1-2.png?iorg_service_id_internal=253471785031826%3BAfryDg21FDdrbQ2q 69.62 36.012172699 627.480983734 948.557853699 34.4851016998 9.42897796631 1921.38910294
10.50.0.30 31.13.75.37 /-t_5975a720fe9d383bfbf2e1e80371db68c387d25b-/pngimages/Chapter-3-1/Chapter-3-1-20.png?iorg_service_id_internal=253471785031826%3BAfryDg21FDdrbQ2q 74.29 36.789894104 359.270095825 586.609125137 34.7340106964 8.94498825073 4410.83192825
10.50.0.30 31.13.75.37 /-t_48bd9e693ef6ba216641a3029b9e114f26631c45-/pngimages/Chapter-3-1/Chapter-3-1-21.png?iorg_service_id_internal=253471785031826%3BAfryDg21FDdrbQ2q 61.27 32.2771072388 160.655021667 724.539041519 33.2460403442 8.96787643433 1615.16213417
10.50.0.30 31.13.75.37 /-t_7937a2c78c3ce3e3ecbda07e54eb4bd0e186f348-/pngimages/Chapter-3-1/Chapter-3-1-22.png?iorg_service_id_internal=253471785031826%3BAfryDg21FDdrbQ2q 58.38 32.3889255524 378.880023956 565.3860569 46.8759536743 9.18698310852 1603.2409668
10.50.0.30 31.13.93.37 /-t_f332f56b38d00a7b1590640a95214d91da80d02c-/pngimages/Chapter-3-1/Chapter-3-1-23.png?iorg_service_id_internal=253471785031826%3BAfryDg21FDdrbQ2q 65.71 31.986951828 369.40407753 1313.22383881 34.7440242767 9.10592079163 1077.49795914
10.50.0.30 31.13.75.37 /-t_c8d5e926de32fd2514111a092ca514dcf1679788-/pngimages/Chapter-3-1/Chapter-3-1-24.png?iorg_service_id_internal=253471785031826%3BAfryDg21FDdrbQ2q 57.36 30.3709506989 217.372894287 565.748929977 35.2292060852 9.39512252808 1921.09584808
10.50.0.30 31.13.75.37 /-t_9265011c4e5a1492f539a59a69cd1d5b40179949-/pngimages/Chapter-3-1/Chapter-3-1-3.png?iorg_service_id_internal=253471785031826%3BAfryDg21FDdrbQ2q 70.19 33.9839458466 174.866199493 723.528862 31.7521095276 14.7650241852 1207.69000053
10.50.0.30 31.13.75.37 /-t_53ff8861d309ce85d13bd31fa2ff28808c03207d-/pngimages/Chapter-3-1/Chapter-3-1-4.png?iorg_service_id_internal=253471785031826%3BAfryDg21FDdrbQ2q 69.17 33.0538749695 485.345125198 1033.40482712 38.0120277405 9.46521759033 2089.03503418
10.50.0.30 31.13.75.37 /-t_c592a7afa36dad5d5096b331132402bb2bca1c61-/pngimages/Chapter-3-1/Chapter-3-1-5.png?iorg_service_id_internal=253471785031826%3BAfryDg21FDdrbQ2q 71.29 27.2068977356 533.582925797 586.390018463 38.4609699249 9.53316688538 2067.29102135
10.50.0.30 31.13.93.37 /-t_8b742532527bdb11660592d1115947993fb3096d-/pngimages/Chapter-3-1/Chapter-3-1-6.png?iorg_service_id_internal=253471785031826%3BAfryDg21FDdrbQ2q 69.37 30.3900241852 450.412988663 2243.28994751 34.4240665436 7.75003433228 2941.12801552
10.50.0.30 31.13.75.37 /-t_06bc0fc052e5faff22b3913585f50e134194254f-/pngimages/Chapter-3-1/Chapter-3-1-7.png?iorg_service_id_internal=253471785031826%3BAfryDg21FDdrbQ2q 50.96 26.3090133667 207.332849503 721.080064774 34.75689888 9.18507575989 1906.39519691
10.50.0.30 31.13.75.37 /-t_94b723057fba86e2ee38a588f9a79fabaa357fc8-/pngimages/Chapter-3-1/Chapter-3-1-8.png?iorg_service_id_internal=253471785031826%3BAfryDg21FDdrbQ2q 69.96 39.3378734589 186.527967453 764.558076859 37.388086319 8.08811187744 1763.61608505
10.50.0.30 31.13.75.37 /-t_5d6832d23bb4e9dbde58855a1fb398afb6b754e9-/pngimages/Chapter-3-1/Chapter-3-1-9.png?iorg_service_id_internal=253471785031826%3BAfryDg21FDdrbQ2q 58.62 31.779050827 569.182872772 561.983108521 42.2928333282 9.0970993042 1321.60115242
10.50.0.30 31.13.75.37 /Chapter-4-1/Chapter-4-1.php?iorg_service_id_internal=253471785031826%3BAfryDg21FDdrbQ2q 10.69 32.7839851379 362.750053406 637.17508316 34.8370075226 16.6230201721 46.4520454407
10.50.0.30 31.13.93.37 /-t_e65cb3d2060b8a9f34a79835d4890b8660b2e5b0-/pngimages/Chapter-4-1/Chapter-4-1-0.png?iorg_service_id_internal=253471785031826%3BAfryDg21FDdrbQ2q 62.53 28.8388729095 217.816114426 684.432983398 40.4500961304 8.38279724121 2240.13209343
10.50.0.30 31.13.75.37 /-t_b51335ea3f94a4aabe01fb6265ac34b3e8f9e713-/pngimages/Chapter-4-1/Chapter-4-1-1.png?iorg_service_id_internal=253471785031826%3BAfryDg21FDdrbQ2q 71.77 31.4519405365 227.62799263 654.484987259 37.4369621277 12.5648975372 1890.4440403
10.50.0.30 31.13.75.37 /-t_b57caf5c7744298f18c24bcf41b20ffac85613c4-/pngimages/Chapter-4-1/Chapter-4-1-10.png?iorg_service_id_internal=253471785031826%3BAfryDg21FDdrbQ2q 66.62 37.3499393463 382.081985474 562.649965286 29.1919708252 8.32605361938 1440.19699097
10.50.0.30 31.13.75.37 /-t_0365303bd0ce7a50a866d3af343b4110dcbe6478-/pngimages/Chapter-4-1/Chapter-4-1-11.png?iorg_service_id_internal=253471785031826%3BAfryDg21FDdrbQ2q 117.63 26.8378257751 570.8360672 960.80994606 37.584066391 9.33599472046 3604.10094261
10.50.0.30 31.13.93.37 /-t_b67b4a0795f32d980c6919c134aa20b861e8f6db-/pngimages/Chapter-4-1/Chapter-4-1-12.png?iorg_service_id_internal=253471785031826%3BAfryDg21FDdrbQ2q 68.77 24.9140262604 193.937778473 814.045190811 34.9769592285 9.07707214355 2110.6979847
10.50.0.30 31.13.75.37 /-t_185a301911e40dfe078cf959081bcb7b03cfd89a-/pngimages/Chapter-4-1/Chapter-4-1-13.png?iorg_service_id_internal=253471785031826%3BAfryDg21FDdrbQ2q 69.29 35.1049900055 289.142131805 698.972940445 31.5968990326 9.18006896973 1522.68314362
10.50.0.30 31.13.75.37 /-t_f45924c7f92fa451592603ff05bfb55309ec5ed5-/pngimages/Chapter-4-1/Chapter-4-1-14.png?iorg_service_id_internal=253471785031826%3BAfryDg21FDdrbQ2q 67.41 28.3749103546 323.49395752 404.288053513 47.6820468903 8.67795944214 1207.72910118
10.50.0.30 31.13.75.37 /-t_0287bd84420b845d38cf919eab3fcb6acf39fa9a-/pngimages/Chapter-4-1/Chapter-4-1-15.png?iorg_service_id_internal=253471785031826%3BAfryDg21FDdrbQ2q 57.9 32.5248241425 207.527160645 737.818002701 29.3848514557 8.4400177002 1042.345047
10.50.0.30 31.13.75.37 /-t_13eb0159c00b87a1966b95a8f622c8cd07bdb3c7-/pngimages/Chapter-4-1/Chapter-4-1-16.png?iorg_service_id_internal=253471785031826%3BAfryDg21FDdrbQ2q 106.58 24.0039825439 623.628139496 962.260961533 29.4749736786 8.55088233948 3256.61706924
10.50.0.30 31.13.93.37 /-t_c6ec09e728d6d106f3fa0875c438087c50520b64-/pngimages/Chapter-4-1/Chapter-4-1-17.png?iorg_service_id_internal=253471785031826%3BAfryDg21FDdrbQ2q 72.27 32.634973526 531.862974167 963.906049728 38.9111042023 9.44089889526 1721.18186951
10.50.0.30 31.13.75.37 /-t_53bb9b10788bf7f51961854ae9b1acdfbc3db576-/pngimages/Chapter-4-1/Chapter-4-1-18.png?iorg_service_id_internal=253471785031826%3BAfryDg21FDdrbQ2q 70.59 35.1319313049 360.513925552 563.353061676 34.8539352417 8.86797904968 1515.82980156
10.50.0.30 31.13.75.37 /-t_d5cf128af7783e382069607ed0451000099d7b25-/pngimages/Chapter-4-1/Chapter-4-1-19.png?iorg_service_id_internal=253471785031826%3BAfryDg21FDdrbQ2q 63.47 31.7029953003 503.948926926 565.253019333 31.0590267181 9.9630355835 1358.8180542
10.50.0.30 31.13.75.37 /-t_76d99843784f318b51c93e97cb28ef74e02c833f-/pngimages/Chapter-4-1/Chapter-4-1-2.png?iorg_service_id_internal=253471785031826%3BAfryDg21FDdrbQ2q 62.8 27.8930664062 1258.47792625 592.226982117 34.57903862 9.09900665283 1215.36588669
10.50.0.30 31.13.75.37 /-t_61da80c1533f2866a448f8c0c1d68c18782d6058-/pngimages/Chapter-4-1/Chapter-4-1-20.png?iorg_service_id_internal=253471785031826%3BAfryDg21FDdrbQ2q 68.96 32.2959423065 556.401014328 565.042972565 34.4591140747 7.62796401978 1834.01584625
10.50.0.30 31.13.93.37 /-t_5d1294bf117b4772379ced7a09c54c2bf2b467ae-/pngimages/Chapter-4-1/Chapter-4-1-21.png?iorg_service_id_internal=253471785031826%3BAfryDg21FDdrbQ2q 58.39 37.2860431671 554.479837418 1055.5369854 38.2030010223 9.38200950623 2160.394907
10.50.0.30 31.13.75.37 /-t_a99bcddfbfc61acd4f875575904cc14cc225afc1-/pngimages/Chapter-4-1/Chapter-4-1-22.png?iorg_service_id_internal=253471785031826%3BAfryDg21FDdrbQ2q 53.12 25.5558490753 243.785142899 744.366884232 42.7939891815 9.97805595398 1882.34591484
10.50.0.30 31.13.75.37 /-t_cb508467de2ef0c00173fd9e89924f238673dcfa-/pngimages/Chapter-4-1/Chapter-4-1-23.png?iorg_service_id_internal=253471785031826%3BAfryDg21FDdrbQ2q 66.12 35.640001297 166.754007339 722.975969315 31.2221050262 8.51202011108 1444.89693642
10.50.0.30 31.13.75.37 /-t_358718752c245ba863e2ef2a45466ef18c819f62-/pngimages/Chapter-4-1/Chapter-4-1-24.png?iorg_service_id_internal=253471785031826%3BAfryDg21FDdrbQ2q 70.84 32.1221351624 149.677991867 562.919855118 31.2700271606 9.31286811829 2488.12603951
10.50.0.30 31.13.75.37 /-t_fd3cde10833d286e8708f3061444c82f7e5399a0-/pngimages/Chapter-4-1/Chapter-4-1-25.png?iorg_service_id_internal=253471785031826%3BAfryDg21FDdrbQ2q 65.27 29.7839641571 157.783985138 942.896127701 34.5799922943 9.28211212158 1273.67687225
10.50.0.30 31.13.93.37 /-t_437afa0d98d5b33f9e088e441942dec8991277a8-/pngimages/Chapter-4-1/Chapter-4-1-26.png?iorg_service_id_internal=253471785031826%3BAfryDg21FDdrbQ2q 71.04 41.1288738251 795.262098312 929.73780632 39.7810935974 8.30316543579 2556.68401718
10.50.0.30 31.13.75.37 /-t_c3ea5651b73266c75e342dd4d239bb04a594ff0e-/pngimages/Chapter-4-1/Chapter-4-1-27.png?iorg_service_id_internal=253471785031826%3BAfryDg21FDdrbQ2q 74.42 31.7108631134 183.798074722 723.140954971 35.5780124664 9.17291641235 4486.7310524
10.50.0.30 31.13.75.37 /-t_d7c9827d95baa487ddf9d0e8e7958bf320d8a15b-/pngimages/Chapter-4-1/Chapter-4-1-28.png?iorg_service_id_internal=253471785031826%3BAfryDg21FDdrbQ2q 66.87 30.2309989929 171.671152115 696.777820587 19.8321342468 4.74500656128 1382.87401199
10.50.0.30 31.13.75.37 /-t_cc5a1edfd65aca6c13e4fc0648ad80b009372a01-/pngimages/Chapter-4-1/Chapter-4-1-29.png?iorg_service_id_internal=253471785031826%3BAfryDg21FDdrbQ2q 66.61 24.5990753174 182.854890823 565.680980682 17.6031589508 3.662109375 2162.54806519
10.50.0.30 31.13.93.37 /-t_a1801875a94dcda88b4c7db302e9dd8a76475414-/pngimages/Chapter-4-1/Chapter-4-1-3.png?iorg_service_id_internal=253471785031826%3BAfryDg21FDdrbQ2q 58.42 30.914068222 447.077989578 963.220834732 17.9271697998 4.2941570282 2392.70997047
10.50.0.30 31.13.75.37 /-t_2ba670c0ba2312f25f4bd9124b20187c7496238d-/pngimages/Chapter-4-1/Chapter-4-1-30.png?iorg_service_id_internal=253471785031826%3BAfryDg21FDdrbQ2q 66.8 26.3659954071 178.790092468 567.472934723 34.795999527 7.12490081787 1583.07409286
10.50.0.30 31.13.75.37 /-t_3c2d717041254d0e2376174f331e56feefb70f32-/pngimages/Chapter-4-1/Chapter-4-1-31.png?iorg_service_id_internal=253471785031826%3BAfryDg21FDdrbQ2q 50.41 31.2268733978 266.498088837 841.569900513 34.7011089325 9.22393798828 726.832151413
10.50.0.30 31.13.75.37 /-t_ed1a034e0310721db794dab0e113369fff59894c-/pngimages/Chapter-4-1/Chapter-4-1-32.png?iorg_service_id_internal=253471785031826%3BAfryDg21FDdrbQ2q 53.48 36.502122879 386.43693924 942.713022232 35.5110168457 6.87909126282 657.810926437
10.50.0.30 31.13.75.37 /-t_e36aa35153c9072e843524bd6cad3253efd80b7d-/pngimages/Chapter-4-1/Chapter-4-1-33.png?iorg_service_id_internal=253471785031826%3BAfryDg21FDdrbQ2q 44.21 34.4078540802 525.960922241 412.806034088 35.4630947113 8.74495506287 561.697006226
10.50.0.30 31.13.93.37 /-t_b44f26914e27a14b80bbce8b159f650f1453db2d-/pngimages/Chapter-4-1/Chapter-4-1-34.png?iorg_service_id_internal=253471785031826%3BAfryDg21FDdrbQ2q 7.75 33.4010124207 225.517988205 965.049028397 48.4089851379 9.27591323853 45.0999736786
10.50.0.30 31.13.75.37 /-t_9d163f96ddf4d89e7b168b2e9071352b127b0af2-/pngimages/Chapter-4-1/Chapter-4-1-4.png?iorg_service_id_internal=253471785031826%3BAfryDg21FDdrbQ2q 56.96 32.3131084442 236.790895462 646.03805542 34.2869758606 9.28092002869 1035.47096252
10.50.0.30 31.13.75.37 /-t_70243f7f79e79f00ee8da157c28033a126ee9067-/pngimages/Chapter-4-1/Chapter-4-1-5.png?iorg_service_id_internal=253471785031826%3BAfryDg21FDdrbQ2q 73.67 37.3549461365 238.051891327 909.672021866 39.4260883331 7.47299194336 2491.18614197
10.50.0.30 31.13.75.37 /-t_72239d369e847ae3c9bc4cc51b912f4a0d6934c5-/pngimages/Chapter-4-1/Chapter-4-1-6.png?iorg_service_id_internal=253471785031826%3BAfryDg21FDdrbQ2q 65.27 33.2131385803 163.382053375 396.571874619 41.2890911102 9.14907455444 1425.87280273
10.50.0.30 31.13.75.37 /-t_9c668e1f4393f97ceba71a645d3aa365cdcf8662-/pngimages/Chapter-4-1/Chapter-4-1-7.png?iorg_service_id_internal=253471785031826%3BAfryDg21FDdrbQ2q 68.5 32.9620838165 615.570068359 942.599058151 31.840801239 8.38303565979 1718.78409386
10.50.0.30 31.13.93.37 /-t_a76920bb9f98424cf649ec27f706e9fc2233a24c-/pngimages/Chapter-4-1/Chapter-4-1-8.png?iorg_service_id_internal=253471785031826%3BAfryDg21FDdrbQ2q 48.82 35.3710651398 183.767080307 799.249887466 34.1091156006 9.38415527344 1904.51288223
10.50.0.30 31.13.75.37 /-t_89abdd743703bf415e0d1ec83422b5bae903a011-/pngimages/Chapter-4-1/Chapter-4-1-9.png?iorg_service_id_internal=253471785031826%3BAfryDg21FDdrbQ2q 59.49 23.8621234894 412.499904633 913.377046585 35.2771282196 15.6269073486 2396.49200439
10.50.0.30 31.13.75.37 /Chapter-5-1/Chapter-5-1.php?iorg_service_id_internal=253471785031826%3BAfryDg21FDdrbQ2q 10.9 37.0891094208 422.321796417 569.458007812 34.6071720123 10.8599662781 52.2420406342
10.50.0.30 31.13.75.37 /-t_7c2931e3d890eada6090130faa603d5f8d49533a-/pngimages/Chapter-5-1/Chapter-5-1-0.png?iorg_service_id_internal=253471785031826%3BAfryDg21FDdrbQ2q 63.89 30.3888320923 433.138132095 939.553976059 38.6710166931 9.37414169312 2169.6190834
10.50.0.30 31.13.93.37 /-t_25a13a488eddd939babe46c386147736d29f259d-/pngimages/Chapter-5-1/Chapter-5-1-1.png?iorg_service_id_internal=253471785031826%3BAfryDg21FDdrbQ2q 62.9 29.7648906708 189.102172852 723.052978516 28.7280082703 7.67493247986 1333.44888687
10.50.0.30 31.13.75.37 /-t_c6db8dc5beabdad4e43261163b9605f4d13c1327-/pngimages/Chapter-5-1/Chapter-5-1-10.png?iorg_service_id_internal=253471785031826%3BAfryDg21FDdrbQ2q 67.68 36.5188121796 269.914150238 547.026872635 40.687084198 9.31000709534 2127.6011467
10.50.0.30 31.13.75.37 /-t_f4e956d0f5a15f8ec5f95ed0d1ec29736343e241-/pngimages/Chapter-5-1/Chapter-5-1-11.png?iorg_service_id_internal=253471785031826%3BAfryDg21FDdrbQ2q 53.99 37.0018482208 158.559083939 560.972929001 29.4511318207 6.87599182129 3804.708004
10.50.0.30 31.13.75.37 /-t_23adae7e778173666d8ef238bd697ae1e0eebeab-/pngimages/Chapter-5-1/Chapter-5-1-12.png?iorg_service_id_internal=253471785031826%3BAfryDg21FDdrbQ2q 59.63 28.9239883423 201.334953308 641.47901535 34.129858017 10.0049972534 1548.69818687
10.50.0.30 31.13.93.37 /-t_3dfb3f517f708bf6224ef89a3878c6ee2e5c7a90-/pngimages/Chapter-5-1/Chapter-5-1-13.png?iorg_service_id_internal=253471785031826%3BAfryDg21FDdrbQ2q 63.9 26.8750190735 416.166067123 959.336996078 34.6548557281 8.23307037354 1031.63504601
10.50.0.30 31.13.75.37 /-t_4c1b0acbaabd4710b0165ebcf88f975b8703091a-/pngimages/Chapter-5-1/Chapter-5-1-14.png?iorg_service_id_internal=253471785031826%3BAfryDg21FDdrbQ2q 68.48 28.9089679718 582.047939301 1035.96901894 42.3541069031 13.6430263519 1316.4768219
10.50.0.30 31.13.75.37 /-t_84f18728e0732c4fbc2e508b58a8288ff4983675-/pngimages/Chapter-5-1/Chapter-5-1-15.png?iorg_service_id_internal=253471785031826%3BAfryDg21FDdrbQ2q 69.97 34.3391895294 196.611881256 646.847963333 34.3570709229 9.30690765381 1920.6199646
10.50.0.30 31.13.75.37 /-t_f5579d0914cb3fefab121a3b0e7fbea023dc3cab-/pngimages/Chapter-5-1/Chapter-5-1-16.png?iorg_service_id_internal=253471785031826%3BAfryDg21FDdrbQ2q 63.76 37.0321273804 198.398828506 723.165035248 38.1679534912 8.3589553833 1600.98600388
10.50.0.30 31.13.75.37 /-t_f82552fc89bd274ac0ee3d2fd55986d2570aa27f-/pngimages/Chapter-5-1/Chapter-5-1-17.png?iorg_service_id_internal=253471785031826%3BAfryDg21FDdrbQ2q 66.14 35.8881950378 631.683826447 643.113136292 34.4388484955 13.6680603027 1758.08095932
10.50.0.30 31.13.75.37 /-t_686c273524a69158db9fbb0b6065417ad44e0053-/pngimages/Chapter-5-1/Chapter-5-1-18.png?iorg_service_id_internal=253471785031826%3BAfryDg21FDdrbQ2q 68.86 26.4019966125 208.023071289 381.299972534 31.6209793091 11.1439228058 1648.36287498
10.50.0.30 31.13.75.37 /-t_37a9ce70d6fdbd87fc8718efe2490e44e06b2799-/pngimages/Chapter-5-1/Chapter-5-1-19.png?iorg_service_id_internal=253471785031826%3BAfryDg21FDdrbQ2q 70.86 33.7541103363 504.464864731 1033.01501274 34.6460342407 8.88085365295 1513.85784149
10.50.0.30 31.13.75.37 /-t_b30ab475101308189a7d4a8a77544327b9805a44-/pngimages/Chapter-5-1/Chapter-5-1-2.png?iorg_service_id_internal=253471785031826%3BAfryDg21FDdrbQ2q 72.67 28.6331176758 183.693885803 875.320196152 34.7988605499 10.3240013123 1434.17716026
10.50.0.30 31.13.75.37 /-t_1c5c0380e9319e79b6ae3be64d3aa15b72ac735a-/pngimages/Chapter-5-1/Chapter-5-1-20.png?iorg_service_id_internal=253471785031826%3BAfryDg21FDdrbQ2q 63.43 30.7650566101 555.857896805 565.208911896 39.2401218414 8.45003128052 1393.94402504
10.50.0.30 31.13.93.37 /-t_710dbe50f59e64bcb524762ba124ede282cc1b97-/pngimages/Chapter-5-1/Chapter-5-1-21.png?iorg_service_id_internal=253471785031826%3BAfryDg21FDdrbQ2q 63.09 34.5020294189 547.954082489 883.379936218 34.6851348877 9.11593437195 1296.25892639
10.50.0.30 31.13.75.37 /-t_f78773c4d490c777bb8fa3e05102235bb10d0e65-/pngimages/Chapter-5-1/Chapter-5-1-22.png?iorg_service_id_internal=253471785031826%3BAfryDg21FDdrbQ2q 71.89 36.4129543304 365.501880646 1757.63702393 38.300037384 8.96596908569 2050.59790611
10.50.0.30 31.13.75.37 /-t_5fd24015af3505c7d127a333a24de9b7b1370c46-/pngimages/Chapter-5-1/Chapter-5-1-23.png?iorg_service_id_internal=253471785031826%3BAfryDg21FDdrbQ2q 68.21 33.5109233856 379.161119461 564.696073532 37.7299785614 13.7898921967 1655.85708618
10.50.0.30 31.13.75.37 /-t_cbd117b1373c067385951f72155d850965cdc32f-/pngimages/Chapter-5-1/Chapter-5-1-24.png?iorg_service_id_internal=253471785031826%3BAfryDg21FDdrbQ2q 51.73 35.649061203 668.416023254 963.442087173 34.7929000854 8.68701934814 561.424970627
10.50.0.30 31.13.93.37 /-t_3b28f3e44830f5a0af42fdf99e005c9beda1ea6a-/pngimages/Chapter-5-1/Chapter-5-1-25.png?iorg_service_id_internal=253471785031826%3BAfryDg21FDdrbQ2q 6.5 29.2720794678 452.738046646 629.603862762 40.0400161743 13.6890411377 48.1858253479
10.50.0.30 31.13.75.37 /-t_f3663301039010ce87c970ff9409ad9b462d7222-/pngimages/Chapter-5-1/Chapter-5-1-26.png?iorg_service_id_internal=253471785031826%3BAfryDg21FDdrbQ2q 65.15 31.0180187225 273.828983307 564.028978348 38.7291908264 6.19602203369 2284.0681076
10.50.0.30 31.13.75.37 /-t_8b9f82bdce24c0b532c6ab21aafc5f7a28744691-/pngimages/Chapter-5-1/Chapter-5-1-27.png?iorg_service_id_internal=253471785031826%3BAfryDg21FDdrbQ2q 67.47 32.518863678 673.235177994 569.70500946 34.6310138702 14.2040252686 1205.38592339
10.50.0.30 31.13.75.37 /-t_43ec3aa47a7a1822bcec8ffd746b737bd85ea23c-/pngimages/Chapter-5-1/Chapter-5-1-28.png?iorg_service_id_internal=253471785031826%3BAfryDg21FDdrbQ2q 70.68 29.8399925232 169.387102127 571.475982666 37.0600223541 9.20486450195 1731.95791245
10.50.0.30 31.13.75.37 /-t_e0f3ac4e79338a2c27babc4bea5da81ce7821377-/pngimages/Chapter-5-1/Chapter-5-1-29.png?iorg_service_id_internal=253471785031826%3BAfryDg21FDdrbQ2q 56.8 34.4121456146 444.597005844 560.95790863 39.8609638214 9.33504104614 1114.86887932
10.50.0.30 31.13.93.37 /-t_d7c519ca5ed5e90654d6682f6a3bd28c70513980-/pngimages/Chapter-5-1/Chapter-5-1-3.png?iorg_service_id_internal=253471785031826%3BAfryDg21FDdrbQ2q 67.53 34.8660945892 428.358793259 1015.68007469 45.2909469604 9.69099998474 2245.13602257
10.50.0.30 31.13.75.37 /-t_2a31a82b309d468b311258e47023d76195cdc998-/pngimages/Chapter-5-1/Chapter-5-1-30.png?iorg_service_id_internal=253471785031826%3BAfryDg21FDdrbQ2q 64.39 38.113117218 182.934999466 569.694042206 36.6640090942 9.07182693481 1603.73401642
10.50.0.30 31.13.75.37 /-t_10f6147174e14c3d696f248b3bcf4c12f21ea63c-/pngimages/Chapter-5-1/Chapter-5-1-31.png?iorg_service_id_internal=253471785031826%3BAfryDg21FDdrbQ2q 69.06 35.9687805176 195.585012436 677.5431633 37.8389358521 9.11593437195 2245.75304985
10.50.0.30 31.13.75.37 /-t_ff582eeee1de16135bf23354c7a025c8a8899210-/pngimages/Chapter-5-1/Chapter-5-1-32.png?iorg_service_id_internal=253471785031826%3BAfryDg21FDdrbQ2q 72.85 29.7119617462 260.46204567 838.96112442 35.8669757843 8.44812393188 2005.2781105
10.50.0.30 31.13.93.37 /-t_cbd526146639b54ae66f6e63ef4df585b3f35900-/pngimages/Chapter-5-1/Chapter-5-1-33.png?iorg_service_id_internal=253471785031826%3BAfryDg21FDdrbQ2q 55.92 31.6250324249 652.845144272 949.725866318 40.7021045685 9.08493995667 596.640825272
10.50.0.30 31.13.75.37 /-t_57e1b6dc5ce89c0f12acc9caf7d0325802af6cca-/pngimages/Chapter-5-1/Chapter-5-1-34.png?iorg_service_id_internal=253471785031826%3BAfryDg21FDdrbQ2q 53.86 32.1419239044 216.575145721 656.237840652 35.2621078491 13.13996315 1529.76894379
10.50.0.30 31.13.75.37 /-t_4b0ddcb7aeee23be9aa2b1d3a6041c295210952b-/pngimages/Chapter-5-1/Chapter-5-1-35.png?iorg_service_id_internal=253471785031826%3BAfryDg21FDdrbQ2q 22.41 35.2830886841 174.852848053 562.595129013 34.590959549 7.89308547974 398.202896118
10.50.0.30 31.13.75.37 /-t_c49a15fbd95a4065b944408f7b34929eaaab28d0-/pngimages/Chapter-5-1/Chapter-5-1-4.png?iorg_service_id_internal=253471785031826%3BAfryDg21FDdrbQ2q 66.98 31.5139293671 364.62187767 1308.96019936 39.1499996185 8.91804695129 1524.31607246
10.50.0.30 31.13.75.37 /-t_1644ca86fa1411a043d9bb07c90c49a53b465dc7-/pngimages/Chapter-5-1/Chapter-5-1-5.png?iorg_service_id_internal=253471785031826%3BAfryDg21FDdrbQ2q 66.76 27.8980731964 159.044981003 566.267967224 32.7899456024 8.94498825073 1892.73190498
10.50.0.30 31.13.93.37 /-t_dd51d7f07f31cf543b6de756f6ff27a0a893a0a6-/pngimages/Chapter-5-1/Chapter-5-1-6.png?iorg_service_id_internal=253471785031826%3BAfryDg21FDdrbQ2q 74.61 34.9950790405 420.199871063 964.100122452 41.2290096283 15.6538486481 1280.02595901
10.50.0.30 31.13.75.37 /-t_c9a2534cdd8eeb5f46e3ef76454e8ca24091736e-/pngimages/Chapter-5-1/Chapter-5-1-7.png?iorg_service_id_internal=253471785031826%3BAfryDg21FDdrbQ2q 71.35 34.8191261292 649.662017822 643.873929977 46.4520454407 8.50486755371 2407.97686577
10.50.0.30 31.13.75.37 /-t_75eb6780bbd11a114c571923f805503d29c351b6-/pngimages/Chapter-5-1/Chapter-5-1-8.png?iorg_service_id_internal=253471785031826%3BAfryDg21FDdrbQ2q 68.21 34.1351032257 183.295965195 575.340986252 42.3390865326 9.00816917419 1603.60312462
10.50.0.30 31.13.75.37 /-t_a5326117e09dc35dee9f5befa7887c2455336a72-/pngimages/Chapter-5-1/Chapter-5-1-9.png?iorg_service_id_internal=253471785031826%3BAfryDg21FDdrbQ2q 70.57 24.6081352234 559.00478363 962.65912056 34.3220233917 9.17887687683 1892.60196686
10.50.0.30 31.13.93.37 /Chapter-6-1/Chapter-6-1.php?iorg_service_id_internal=253471785031826%3BAfryDg21FDdrbQ2q 12.59 29.7601222992 197.700977325 978.507995605 34.2710018158 16.1590576172 57.1930408478
10.50.0.30 31.13.75.37 /-t_fe5711018bf6b8a7d0a647785e4082ffa826af6f-/pngimages/Chapter-6-1/Chapter-6-1-0.png?iorg_service_id_internal=253471785031826%3BAfryDg21FDdrbQ2q 60.86 28.7749767303 232.767820358 562.787055969 31.4791202545 8.3601474762 1632.01498985
10.50.0.30 31.13.75.37 /-t_26e039adfb51c674cb0e4383164f2d2512ca4c8b-/pngimages/Chapter-6-1/Chapter-6-1-1.png?iorg_service_id_internal=253471785031826%3BAfryDg21FDdrbQ2q 3.65 34.1858863831 362.892150879 752.73680687 43.7870025635 8.44287872314 50.488948822
