 ___256
Acer A110(Iconia Tab A110)___7
Acer A500(Picasso)___9
Alcatel 4016X(One Touch Pop C1)___6
Alcatel ONE TOUCH 7047D(Pop C9)___3
Apple iPad___13
Apple iPhone___113
BlackBerry Z10___14
BSNL P04___13
Celkon A115___2
Dorado Wap Browser___126
Elephone P8000___2
Firefly M7505(Firefly 7 M7505)___6
Garmin-Asus A10___6
Generic Android 2.3___13
Generic Android 4.1___35
Generic Android 4.2___70
Generic Android 4.4___284
Generic Android 4.4 Tablet___31
Generic Android 5.0___91
Generic Android 5.1___342
Generic Android 6.0___76
Generic Windows Phone 7.5___12
Generic Windows Phone 8.1___4
G-Five A97(President)___7
G-Five President Smart 2___5
Google Nexus 4___14
Google Nexus 6___4
Google Nexus 7___4
Haier Voyage G30___6
HTC 1000C(Desire C)___6
HTC 620G(Desire 620G)___2
HTC 6500LVW(One M7)___4
HTC A510e(Wildfire S)___3
HTC Desire 516___14
HTC Desire 526G+___14
HTC S510e(Desire S)___11
HTC Spark(7 Trophy)___17
Huawei Ascend Y625-U32___4
Huawei CHM-U01(Honor 4C)___169
Huawei CUN-L21(Y5II)___1
Huawei CUN-U29(Y5II)___13
Huawei G525-U00(Ascend G525-U00)___2
Huawei G610-U20(Ascend)___2
Huawei G730-U00(Ascend G730)___4
Huawei G730-U10(Ascend G730)___2
Huawei H30-U10(Honor 3C)___8
Huawei Hol-U19(Honor Holly)___16
Huawei LUA-U22(Y3II)___14
Huawei MediaPad M1 8.0___4
Huawei MediaPad T1 7.0___28
Huawei SCL-U31(Y6)___23
Huawei TAG-L21(GR3)___9
Huawei TIT-AL00(Enjoy 5)___22
Huawei U9200(Ascend P1)___2
Huawei Y210-0100(Ascend Y210)___4
Huawei Y220-U10(Ascend Y220)___58
Huawei Y221-U22(Ascend)___2
Huawei Y300-0100(Ascend Y 300)___21
Huawei Y320-U30(Ascend)___4
Huawei Y360-U31(Y360)___10
Huawei Y511-U30(Ascend)___14
Huawei Y520-U22(Ascend Y520)___26
Huawei Y530-U00(Ascend Y530)___13
Huawei Y560-U02(Ascend Y560)___49
Huawei Y600- U20(Ascend Y600)___1
Huawei Y625-U51(Ascend Y625)___3
Huawei Y635-L21___9
Infinix X509(Zero 2)___3
Infinix X510(Hot 2)___23
Infinix x551(Hot Note)___6
IPPO Q10___1
iZoom 1201___6
Karbonn A55___1
Lava iris 600___9
Lenovo A1000___21
Lenovo A2010-a(A2010)___4
Lenovo A319___16
Lenovo A3300___4
Lenovo A369i___31
Lenovo A5000___10
Lenovo A516___17
Lenovo A6000___35
Lenovo A7000___21
Lenovo A7-30HC(TAB 2)___6
Lenovo P1ma40(Vibe P1m)___32
Lenovo S60-a___3
Lenovo S650___2
Lenovo S850___7
LG D802(G2)___14
LG D850(G3)___2
LG D852(G3)___2
LG F160K(Optimus LTE2)___4
LG F180K(Optimus G)___4
LG F200K(Optimus Vu II)___4
LG F310L(Gx)___3
LG F320L(G2)___9
LG F460K(G3 Cat 6)___10
LG F460S(G3 Cat 6)___5
LG H422(Spirit)___12
LG H650(Zero)___38
LG K350(K8)___3
LG LG-P705(Optimus L7)___13
LG LS980(G2)___4
LG SU640(Optimus LTE)___6
LG V410(G Pad 7.0)___4
LYF LS-4503(Flame 1)___1
MAUI-based Generic MAUI WAP Browser___5
Microsoft Lumia 532___6
Microsoft Lumia 535(Lumia 535)___29
Microsoft Lumia 540 Dual SIM___8
Motorola MB886(Atrix HD)___23
Motorola MotoG3___15
Motorola MOTXT912B(Droid Razr 4G)___27
Motorola XT1058(Moto X)___3
Motorola XT1060(Moto X)___7
Motorola XT1080(Droid Ultra)___5
Motorola XT881(Electrify 2)___6
Motorola XT885(RAZR V)___4
Motorola XT885(RAZR V XT885)___8
Motorola XT907(DROID RAZR M 4G LTE)___51
Motorola XT923(Droid Razr HD)___9
Nokia 110___2
Nokia 206___5
Nokia 306___4
Nokia 5230(Nuron)___3
Nokia 5800 XpressMusic(5800 XpressMusic)___3
Nokia 603___9
Nokia 6303i classic(Classic)___3
Nokia 6680___3
Nokia 700___8
Nokia C1-01___2
Nokia C3-00___8
Nokia C3-01___5
Nokia C5-00(C5)___19
Nokia C5-03(C5)___2
Nokia Lumia 430___9
Nokia Lumia 510___11
Nokia Lumia 625___2
Nokia Lumia 800___5
Nokia X2-01___3
Nokia X2-05___4
Nokia X2DS___6
Nokia X___36
Nokia XL___37
Opera Mini 1___1
Opera Mini 4___5708
Opera Mini 5___4940
Opera Mini 6___56
Opera Mini 7___785
Opera Opera for Series 60___2
OPPO 1206(Neo 5s)___3
OPPO R1001(Joy)___13
Pantech IM-A850K(Vega R3)___3
Pantech IM-A870S___5
Positivo X400___3
Prestigio PMT5001 3G___5
QMobile A120___10
QMobile A1___9
QMobile A20(Noir A20)___5
QMobile A290___43
QMobile A30___16
QMobile A35(Noir)___8
QMobile A600(Noir A600)___32
QMobile A75(Noir A75)___13
QMobile A8(Noir A8)___2
QMobile A900___8
QMobile i10___3
QMobile i12___11
QMobile i2___66
QMobile i4___14
QMobile i5i___33
QMobile i5(Noir 3G)___82
QMobile i6i(Noir i6i)___237
QMobile i6 Metal ONE___25
QMobile i7___4
QMobile i7i___90
QMobile i9___10
QMobile Linq L10___10
QMobile LINQ X100___25
QMobile Linq X70___34
QMobile LT-150___16
QMobile M350___21
QMobile M82i___23
QMobile M88(Nitro Pro M88)___8
QMobile M90___8
QMobile M95___37
QMobile M99___14
QMobile Magnus X2 Music___45
QMobile Magnus X6i___99
QMobile Noir A50___18
QMobile Noir X11___60
QMobile Noir X200___13
QMobile Noir X35___55
QMobile Noir X5___22
QMobile Noir X6___7
QMobile QTab Q50___20
QMobile QTab Q800___2
QMobile QTab Q850___10
QMobile S1___52
QMobile S2___16
QMobile S3___31
QMobile S5___3
QMobile T250___12
QMobile T480 Bolt___18
QMobile T50(Bolt)___97
QMobile T5(Bolt)___67
QMobile W50___53
QMobile X10___30
QMobile X150___6
QMobile X250___3
QMobile X25___46
QMobile X2i___104
QMobile X2(Noir)___10
QMobile X30___142
QMobile X32___35
QMobile X450___15
QMobile X500___29
QMobile X700i(Noir Titan)___18
QMobile X70___9
QMobile X80___104
QMobile X90___30
QMobile Z10(Noir)___3
QMobile Z8___18
RIM BlackBerry 9320(BlackBerry Curve 9320)___5
RIM Blackberry 9860(Torch 9860)___2
Rivo Phantom PZ10___25
Rivo PHANTOM PZ18___3
Rivo Rhythm RX40(Rhythm RX40)___96
Rivo Rhythm RX80___14
Samsung Galaxy Nexus___1
Samsung GT B5722___4
Samsung GT-E1282T___5
Samsung GT-I8190(Galaxy S III Mini)___11
Samsung GT-I8190N(Galaxy S III Mini)___16
Samsung GT-I8200N(S III mini)___20
Samsung GT-I8260L(Galaxy Core)___7
Samsung GT-I8552(Galaxy Grand Quattro)___32
Samsung GT-I9001(Galaxy S Plus)___5
Samsung GT-I9060(Galaxy Grand Neo)___15
Samsung GT-I9060I(Galaxy Grand Neo)___21
Samsung GT-I9070(Galaxy S Advance)___10
Samsung GT-I9082(Galaxy Grand Duos)___3
Samsung GT-I9100(Galaxy S II)___4
Samsung GT-I9105(Galaxy SII Plus)___8
Samsung GT-I9105P(Galaxy SII Plus)___5
Samsung GT-I9205(Galaxy Mega 6.3)___6
Samsung GT-I9300(Galaxy S III)___14
Samsung GT-I9300I(Galaxy S III)___16
Samsung GT-I9301I(Galaxy S III Neo+)___4
Samsung GT-I9305(Galaxy S III)___6
Samsung GT-I9500(Galaxy S4)___14
Samsung GT-I9505(Galaxy S4)___18
Samsung GT-I9515(Galaxy S4)___13
Samsung GT-N7100(Galaxy Note II)___7
Samsung GT-P5100(Galaxy Tab 2 10.1)___3
Samsung GT-S3850___10
Samsung GT-S5280(Galaxy Star)___7
Samsung GT-S5300(Galaxy Pocket)___4
Samsung GT-S5301(Galaxy Pocket Plus)___4
Samsung GT-S5360(Galaxy Y)___19
Samsung GT-S5570(Galaxy Mini)___10
Samsung GT-S5611___3
Samsung GT-S5830(Galaxy Ace)___8
Samsung GT-S5830i(Galaxy Ace)___23
Samsung GT-S5839i(Galaxy Ace)___6
Samsung GT-S6012(Galaxy Music Duos)___25
Samsung GT-S6312(Galaxy Young)___7
Samsung GT-S6790N(Galaxy Fame Lite)___4
Samsung GT-S7262(Galaxy Star S7262)___27
Samsung GT-S7275B(Galaxy Ace 3)___21
Samsung GT-S7560(Galaxy Ace II x)___2
Samsung GT-S7562(Galaxy S Duos)___47
Samsung GT-S7580(Trend Plus)___37
Samsung GT-S7582(Galaxy S Duos 2)___94
Samsung GT-S7582L(Galaxy S Duos 2)___12
Samsung GT-S7582(Trend Plus)___9
Samsung GT S8500(Wave)___8
Samsung GT-S8530(Wave 2)___4
Samsung SC-02C(Galaxy S II SC-02C for DoCoMo)___12
Samsung SC-03D(GALAXY S II LTE SC-03D for DoCoMo)___5
Samsung SC-03E(Galaxy S III)___3
Samsung SGH-I337(Galaxy S4)___3
Samsung SGH-T399(Galaxy Light)___17
Samsung SGH-T989(Galaxy SII)___7
Samsung SM-A300F(Galaxy A3)___17
Samsung SM-A300FU(Galaxy A3)___19
Samsung SM-A500F(Galaxy A5)___7
Samsung SM-A510F(Galaxy A5 2016 Duos)___5
Samsung SM-B312E___13
Samsung SM-B350E(Metro B350E)___1
Samsung SM-B360E___3
Samsung SM-G313H(Galaxy Ace NXT)___3
Samsung SM-G313HU(Galaxy Ace NXT)___2
Samsung SM-G318HZ(Galaxy Ace 4 Neo)___6
Samsung SM-G350E(Star 2 Plus)___13
Samsung SM-G350(Galaxy Core Plus)___6
Samsung SM-G355H(Galaxy Core II)___52
Samsung SM-G357FZ(Ace Style)___7
Samsung SM-G360H(Galaxy Core Prime)___42
Samsung SM-G361H(Galaxy Core Prime TD-LTE)___109
Samsung SM-G530F(Galaxy Grand Prime)___4
Samsung SM-G530H(Galaxy Grand Prime)___104
Samsung SM-G531F(Galaxy Grand Prime)___17
Samsung SM-G531H(Galaxy Grand Prime)___20
Samsung SM-G531H(Galaxy Grand Prime Value Edition)___11
Samsung SM-G531Y(Galaxy Grand Prime)___8
Samsung SM-G5500(On5)___5
Samsung SM-G730A(Galaxy S III Mini)___23
Samsung SM-G800F(Galaxy S5 mini)___2
Samsung SM-G850A(Galaxy Alpha)___2
Samsung SM-G870A(Galaxy S5 Active)___3
Samsung SM-G900A(Galaxy S5)___1
Samsung SM-G900F(Galaxy S5)___21
Samsung SM-G900T(Galaxy S5)___8
Samsung SM-J100F(Galaxy J1)___7
Samsung SM-J100H(Galaxy J1)___52
Samsung SM-J105H(J1 mini)___4
Samsung SM-J110H(Galaxy J1)___114
Samsung SM-J120F(Galaxy J1 2016)___7
Samsung SM-J200F(Galaxy J2 (2015))___48
Samsung SM-J200H(Galaxy J2 (2015))___24
Samsung SM-J320F(Galaxy J3)___7
Samsung SM-J500F(Galaxy J5)___38
Samsung SM-J500FN(Galaxy J5)___4
Samsung SM-J500H(Galaxy J5)___102
Samsung SM-J510F(Galaxy J5 (2016))___18
Samsung SM-J700F(Galaxy J7)___3
Samsung SM-J700H(Galaxy J7)___8
Samsung SM-J710F(Galaxy J7 (2016))___30
Samsung SM-N7505(Note 3 Neo Duos)___6
Samsung SM-N9005(Galaxy Note 3)___18
Samsung SM-N910A(Galaxy Note 4)___10
Samsung SM-T111(Galaxy Tab 3 Lite)___7
Samsung SM-T116NU(Galaxy Tab 3V 3G)___6
Samsung SM-T231(Galaxy Tab 4 7.0)___14
Samsung SM-T561(Galaxy Tab E)___6
Sony C2105(Xperia L)___15
Sony C2305(Xperia C)___3
Sony C5503(Xperia ZR)___9
Sony D2403(Xperia M2 Aqua)___8
SonyEricsson LT18i(Xperia Arc)___5
SonyEricsson LT22i(Xperia P LT22i)___1
SonyEricsson ST18a(Urushi)___9
SonyEricsson ST18i(Urushi)___8
SonyEricsson ST25i(Xperia U)___13
SonyEricsson X10i(Xperia X10)___6
Sony ST21i(Xperia Tipo)___4
Star i6___11
Teclast A10___4
Tecno M3___5
Tecno N2S___12
Telego W400___2
Vodafone VF-795(Smart Speed 6)___9
Wiko Bloom___11
Wiko LENNY___15
ZTE T230___4
ZTE V816W___4
