 	389
Access NetFront Ver. 3.5	2
Acer A110(Iconia Tab A110)	7
Acer A500(Picasso)	39
Alcatel 4016X(One Touch Pop C1)	2
Alcatel 9002X	7
Alcatel I216X	3
Alcatel ONETOUCH 4024D(Pixi First)	3
Alcatel OT-4007D(One Touch Pixi 4007D)	18
Alcatel OT-6036A(Idol 2 Mini S)	8
Alcatel v860(Smart II 3G)	2
Alps 2206_jbla768_f	5
Amazon Fire Phone	5
Apple iPad	8
Apple iPhone	98
ArgomTech E500	16
BlackBerry Z10	2
BlackBerry Z30	7
Celkon A115	17
China Mobile M811	21
Diyomate A6	10
DoCoMo HW-03E(Ascend D2)	6
Dorado Wap Browser	160
Eurostar ET7183G-B13(ePad Genie)	8
Fly IQ436	3
Fly IQ4503_Quad	8
Garmin-Asus A10	9
General Mobile 4G	9
Generic Android 2.3	6
Generic Android 4.0	31
Generic Android 4.1	17
Generic Android 4.1 Tablet	2
Generic Android 4.2	170
Generic Android 4.2 Tablet	12
Generic Android 4.4	1486
Generic Android 4.4 Tablet	204
Generic Android 5.0	112
Generic Android 5.1	441
Generic Android 6.0	108
generic web browser 	15
Generic Windows Phone 8.1	1
G-Five President Smart 2	17
G-Five President Smart A98	17
Google Chrome	18
Google Nexus 4	4
Google Nexus 5	14
Google Nexus S	8
Haier Voyage G30	42
HTC 1000C(Desire C)	1
HTC A510e(Wildfire S)	19
HTC Desire 310(Desire dual sim)	2
HTC Desire 626s	2
HTC Desire HD	2
HTC EVO3D_X515m(EVO 3D)	10
HTC HTC6435LVW(Droid DNA)	37
HTC M7(One)	14
HTC One Mini2	4
HTC One V	2
HTC One XL	7
HTC PJ83100(One X)	11
HTC S510b(Rhyme)	7
Huawei ALE-L21(P8 Lite)	45
Huawei Ascend Y625-U32	38
Huawei Che2-L11(Honor 4X)	5
Huawei CHM-U01(Honor 4C)	171
Huawei CUN-U29(Y5II)	24
Huawei G510-0010(Ascend G510)	4
Huawei G610-U20(Ascend)	11
Huawei G630-U10(Ascend G630)	6
Huawei G6-U00(Ascend G6-L11)	4
Huawei Hol-U19(Honor Holly)	74
Huawei HUAWEI Y210-0200(Ascend)	9
Huawei LUA-U22(Y3II)	79
Huawei MediaPad 7	4
Huawei MediaPad T1 7.0	107
Huawei SCL-U31(Y6)	66
Huawei T1(MediaPad T1 8.0)	7
Huawei TIT-AL00(Enjoy 5)	20
Huawei Y210-0100(Ascend Y210)	8
Huawei Y220-U10(Ascend Y220)	2
Huawei Y221-U22(Ascend)	11
Huawei Y300-0100(Ascend Y 300)	9
Huawei Y330-U11(Ascend Y330)	6
Huawei Y360-U61(Y360)	114
Huawei Y511-T00(Ascend)	3
Huawei Y511-U30(Ascend)	45
Huawei Y520-U22(Ascend Y520)	55
Huawei Y530-U00(Ascend Y530)	68
Huawei Y550-L01(Ascend Y550)	2
Huawei Y560-U02(Ascend Y560)	31
Huawei Y600- U20(Ascend Y600)	2
Huawei Y610-U00	2
Huawei Y635-L21	39
Ikon IK-TPC7065P	2
i-mobile IQ X3A	3
Infinix X510(Hot 2)	57
Infinix x551(Hot Note)	3
Infinix X600 LTE(Note 2)	10
iZoom 1201	12
Jeep Z6	12
Karbonn A55	15
Karbonn A7	11
Lava iris 600	2
Lenovo A1000	17
Lenovo A2010-a(A2010)	17
Lenovo A3000-H(IdeaTab A3000-H)	1
Lenovo A319	79
Lenovo A328	20
Lenovo A3500-HV(Tab A7-50)	9
Lenovo A369i	44
Lenovo A5000	9
Lenovo A516	6
Lenovo A536	7
Lenovo A6000	11
Lenovo A606	6
Lenovo A7000	24
Lenovo A7-30HC(TAB 2)	35
Lenovo S650	17
Lenovo S850	23
Lenovo ZUK Z1	2
LG D631(G Pro2 Lite)	2
LG D722(G3 Mini)	13
LG D800(G2)	37
LG D802(G2)	2
LG D858HK(G3)	10
LG E970(Optimus G)	9
LG E980(Optimus G Pro)	21
LG F160K(Optimus LTE2)	2
LG F160L(Optimus LTE2)	1
LG F160S(Optimus LTE2)	29
LG F180L(Optimus G)	4
LG F200K(Optimus Vu II)	14
LG F200S(Optimus Vu II)	1
LG F240L(Optimus G Pro)	1
LG F320S(G2)	4
LG F350L(G Pro 2)	7
LG F460K(G3 Cat 6)	2
LG F520S(AKA)	12
LG H502(Magna)	5
LG H650(Zero)	2
LG H815(G4)	7
LG LG-F180L(Optimus G)	18
LG LS980(G2)	2
LG LU6200(Optimus LTE)	6
LG MS323(Optimus L70)	2
LG P509(Optimus T)	3
LG P760(Optimus L9)	6
LG P870(Escape)	5
LG V410(G Pad 7.0)	5
LG VS985(G3)	2
MAUI-based Generic MAUI WAP Browser	18
MediaTek MT6735	4
Microsoft Lumia 532	7
Microsoft Lumia 535(Lumia 535)	27
Microsoft Lumia 540 Dual SIM	5
Miz Z4	6
Mlais M9	32
Motorola MB855(Photon)	1
Motorola MB860(Atrix)	13
Motorola MB886(Atrix HD)	6
Motorola MOTXT912B(Droid Razr 4G)	106
Motorola XT1021(Moto E)	6
Motorola XT1030(Droid Mini)	108
Motorola XT1033(Moto G)	6
Motorola XT1058(Moto X)	15
Motorola XT1060(Moto X)	61
Motorola XT1080(Droid Ultra)	179
Motorola XT1093(Moto X (2nd Gen))	2
Motorola XT1254(Droid Turbo)	6
Motorola XT881(Electrify 2)	8
Motorola XT907(Droid RAZR M)	4
Motorola XT907(DROID RAZR M 4G LTE)	138
Motorola XT923(Droid Razr HD)	140
Mozilla Firefox for Android	12
Nokia 2700 classic	5
Nokia 305(Asha 305)	1
Nokia 311(Asha 311)	6
Nokia 500	53
Nokia 5130(XpressMusic)	6
Nokia 5230(Nuron)	2
Nokia 5233	4
Nokia 6120 classic	2
Nokia 6303i classic(Classic)	7
Nokia 6680	5
Nokia Asha 202(Asha 202)	4
Nokia Asha 300(Asha 300)	13
Nokia C1-01	6
Nokia C2-00	1
Nokia C2-01	11
Nokia C2-02	2
Nokia C2-03	4
Nokia C3-00	44
Nokia C3-01	2
Nokia C5-00(C5)	13
Nokia C5-06	1
Nokia E5	2
Nokia E52	1
Nokia E63	2
Nokia E7-00	24
Nokia Lumia 430	29
Nokia Lumia 435	43
Nokia Lumia 510	3
Nokia Lumia 520	2
Nokia Lumia 535 Dual Sim	1
Nokia Lumia 610	28
Nokia Lumia 620	4
Nokia Lumia 625	21
Nokia Lumia 630	3
Nokia Lumia 710	10
Nokia N73	5
Nokia N8-00(N8)	4
Nokia N9	6
Nokia N97 mini(N97 mini)	2
Nokia X	111
Nokia X2-01	40
Nokia X2-02	1
Nokia X2DS	79
Nokia X3-02	9
Nokia XL	56
Obi S401(Racoon S401)	6
Opera Mini 4	6636
Opera Mini 5	7252
Opera Mini 6	66
Opera Mini 7	903
Opera Mobi for Android	4
Opera Opera for Series 60	6
Opera Opera Mini for S60	3
OPPO A1601(F1s)	3
OPPO A37f	8
OPPO R1001(Joy)	47
OPPO R831K(Neo 3)	16
Pantech IM-A760S(SKY Vega Racer (SKT))	6
Pantech IM-A820L(Vega LTE EX)	24
Pantech IM-A850L(Vega R3)	8
Pantech IM-A870L(Vega Iron)	3
Pantech IM-A870VN(Vega Iron)	4
Pantech P8010(Flex)	8
Positivo X400	21
Prestigio PMP3007C3G	9
QMobile A10(Noir A10)	7
QMobile A11 Note	22
QMobile A120	73
QMobile A1	25
QMobile A20(Noir A20)	14
QMobile A290	112
QMobile A300(Noir)	35
QMobile A30	49
QMobile A34	26
QMobile A35(Noir)	18
QMobile A36	3
QMobile A600(Noir A600)	49
QMobile A75(Noir A75)	18
QMobile A8(Noir A8)	16
QMobile A900	27
QMobile A900i	9
QMobile i10	9
QMobile i12	12
QMobile i2	91
QMobile i4	31
QMobile i5i	52
QMobile i5(Noir 3G)	147
QMobile i6i(Noir i6i)	564
QMobile i6 Metal ONE	43
QMobile i7	52
QMobile i7i	39
QMobile i8	14
QMobile i9	105
QMobile L15(Linq L15)	105
QMobile Linq L10	59
QMobile LINQ X100	37
QMobile Linq X70	118
QMobile LT-150	47
QMobile M350	25
QMobile M82i	81
QMobile M88(Nitro Pro M88)	30
QMobile M90	34
QMobile M95	53
QMobile Magnus X2 Music	182
QMobile Magnus X6i	455
QMobile Noir A50	21
QMobile Noir X11	260
QMobile Noir X35	67
QMobile Noir X5	56
QMobile Noir X6	118
QMobile QTab Q100	7
QMobile QTab Q120	5
QMobile QTab Q150	8
QMobile Qtab Q300	26
QMobile QTab Q400	47
QMobile QTab Q50	8
QMobile QTab Q800	12
QMobile QTab Q850	31
QMobile QTab V10	2
QMobile QTab V6	128
QMobile S1	196
QMobile S2	112
QMobile S3	52
QMobile S5	3
QMobile T250	90
QMobile T400(Bolt T400)	17
QMobile T480 Bolt	33
QMobile T500	6
QMobile T50(Bolt)	212
QMobile T5(Bolt)	171
QMobile W50	89
QMobile X10	181
QMobile X1	3
QMobile X25	387
QMobile X2i	404
QMobile X2(Noir)	131
QMobile X30	648
QMobile X32	62
QMobile X450	31
QMobile X500	28
QMobile X700i(Noir Titan)	94
QMobile X70	28
QMobile X80	24
QMobile X900	9
QMobile X90	58
QMobile Z10(Noir)	21
QMobile Z8	6
QMobile Z8 Plus	2
QMobile Z9	6
RIM PlayBook	5
Rivo PHANTOM PZ18	4
Rivo Rhythm RX40(Rhythm RX40)	18
Rivo Rhythm RX45	18
Rivo RHYTHM RX75	12
Rivo Rhythm RX80	41
Samsung B2100i(Xplorer)	2
Samsung Galaxy Nexus	6
Samsung GT-C3222	5
Samsung GT-E2202	7
Samsung GT-E2222	6
Samsung GT-I435(Galaxy S4 Mini)	5
Samsung GT-i5500(Galaxy 5)	2
Samsung GT-I8160(Galaxy Ace 2)	4
Samsung GT-I8190(Galaxy S III Mini)	24
Samsung GT-I8200N(S III mini)	6
Samsung GT-I8262(Galaxy Duos)	8
Samsung GT-I8552(Galaxy Grand Quattro)	13
Samsung GT-I8730T(Galaxy Express)	7
Samsung GT-I9003(Galaxy SL)	5
Samsung GT-I9060(Galaxy Grand Neo)	20
Samsung GT-I9060I(Galaxy Grand Neo)	111
Samsung GT-I9060L(Galaxy Grand Neo)	27
Samsung GT- I9080(Galaxy Grand)	31
Samsung GT-I9082(Galaxy Grand Duos)	38
Samsung GT-I9100(Galaxy S II)	44
Samsung GT-I9105(Galaxy SII Plus)	113
Samsung GT-I9105P(Galaxy SII Plus)	12
Samsung GT-I9192(Galaxy S4 Mini)	36
Samsung GT-I9195(Galaxy S4 Mini)	2
Samsung GT-I9200(Galaxy Mega 6.3)	4
Samsung GT-I9260(Galaxy Premier)	8
Samsung GT-I9300(Galaxy S III)	84
Samsung GT-I9301I(Galaxy S III Neo+)	12
Samsung GT-I9500(Galaxy S4)	62
Samsung GT-I9505(Galaxy S4)	13
Samsung GT-I9515(Galaxy S4)	12
Samsung GT-N7100(Galaxy Note II)	23
Samsung GT-P3100(Galaxy Tab 2 7.0)	8
Samsung GT-P3113(Galaxy Tab 2 7.0)	2
Samsung GT-P5220(Galaxy Tab 3 10.1 LTE)	7
Samsung GT-S3350	1
Samsung GT-S5280(Galaxy Star)	3
Samsung GT-S5282(Galaxy Star)	17
Samsung GT-S5301(Galaxy Pocket Plus)	12
Samsung GT-S5310(Galaxy Pocket Neo)	12
Samsung GT-S5310I(Galaxy Pocket Neo)	12
Samsung GT-S5360(Galaxy Y)	72
Samsung GT-S5570I(Galaxy Pop Plus)	6
Samsung GT-S5660(Galaxy Gio)	3
Samsung GT-S5830(Galaxy Ace)	5
Samsung GT-S5830i(Galaxy Ace)	16
Samsung GT-S5839i(Galaxy Ace)	3
Samsung GT-S6102(Galaxy Y Duos)	11
Samsung GT-S6310N(Galaxy Young)	4
Samsung GT-S6790N(Galaxy Fame Lite)	6
Samsung GT-S6810(Galaxy Fame)	37
Samsung GT-S7262(Galaxy Star S7262)	95
Samsung GT-S7270(Galaxy Ace 3)	12
Samsung GT-S7275B(Galaxy Ace 3)	11
Samsung GT-S7390	6
Samsung GT-S7392(Galaxy Trend)	2
Samsung GT-S7560M(Galaxy Ace II x)	3
Samsung GT-S7562(Galaxy S Duos)	110
Samsung GT-S7580(Trend Plus)	35
Samsung GT-S7582(Galaxy S Duos 2)	83
Samsung GT-S7582(Trend Plus)	22
Samsung GT S8500(Wave)	11
Samsung GT-S8530(Wave 2)	6
Samsung I9506(Galaxy S4)	12
Samsung SC-01C(Galaxy Tab SC-01C for DoCoMo)	2
Samsung SC-03E(Galaxy S III)	6
Samsung SC-04E(Galaxy S4)	10
Samsung SC-05D(Galaxy Note)	20
Samsung SC-06D(Galaxy S III)	6
Samsung SCH-I535(Galaxy S III)	5
Samsung SCH i545(Galaxy S4)	5
Samsung SCH-M919(Galaxy S4)	9
Samsung SGH-I437Z(Galaxy Express)	6
Samsung SGH-I537(S 4 Active)	6
Samsung SGH-T399(Galaxy Light)	4
Samsung SHV-E120L(Galaxy S II HD)	3
Samsung SHV-E160K(Galaxy Note)	2
Samsung SHV-E160L(Galaxy Note)	2
Samsung SHV-E170S(Galaxy R)	14
Samsung SHV-E210S(Galaxy S III)	10
Samsung SHV-E220S(Galaxy Pop)	2
Samsung SHV-E330K(Galaxy S4)	23
Samsung SM-A300F(Galaxy A3)	9
Samsung SM-A5000(Galaxy A5 Duos)	2
Samsung SM-A500F(Galaxy A5)	68
Samsung SM-A510F(Galaxy A5 2016 Duos)	2
Samsung SM-B350E(Metro B350E)	6
Samsung SM-B360E	17
Samsung SM-G130H(Galaxy Young 2 Duos)	5
Samsung SM-G313H(Galaxy Ace NXT)	16
Samsung SM-G313HU(Galaxy Ace NXT)	6
Samsung SM-G313HZ(Galaxy Ace NXT)	2
Samsung SM-G318HZ(Galaxy Ace 4 Neo)	5
Samsung SM-G350E(Star 2 Plus)	5
Samsung SM-G355H(Galaxy Core II)	168
Samsung SM-G355HN(Galaxy Core II)	26
Samsung SM-G357FZ(Ace Style)	58
Samsung SM-G360H(Galaxy Core Prime)	90
Samsung SM-G361F(Galaxy Core Prime)	22
Samsung SM-G361H(Galaxy Core Prime TD-LTE)	134
Samsung SM-G3812(Galaxy Win Pro)	17
Samsung SM-G386T1(Galaxy Avant)	7
Samsung SM-G386T(Galaxy Avant)	25
Samsung SM-G5308W(Galaxy Grand Prime)	3
Samsung SM-G530F(Galaxy Grand Prime)	8
Samsung SM-G530FZ(Galaxy Grand Prime)	3
Samsung SM-G530H(Galaxy Grand Prime)	92
Samsung SM-G531F(Galaxy Grand Prime)	26
Samsung SM-G531H(Galaxy Grand Prime)	59
Samsung SM-G531H(Galaxy Grand Prime Value Edition)	32
Samsung SM-G7102(Galaxy Grand 2)	58
Samsung SM-G850S(Galaxy Alpha)	4
Samsung SM-G870A(Galaxy S5 Active)	2
Samsung SM-G900FD(Galaxy S5)	77
Samsung SM-G900F(Galaxy S5)	10
Samsung SM-G900H(Galaxy S5)	4
Samsung SM-G903F(Galaxy S5 Neo)	7
Samsung SM-G906S(Galaxy S5 LTE-A)	2
Samsung SM-G935F(Galaxy S7 Edge)	14
Samsung SM-J100F(Galaxy J1)	42
Samsung SM-J100H(Galaxy J1)	138
Samsung SM-J100ML(Galaxy J1)	6
Samsung SM-J110F(Galaxy J1 Ace)	9
Samsung SM-J110H(Galaxy J1)	291
Samsung SM-J120F(Galaxy J1 2016)	7
Samsung SM-J120H(Galaxy J1 2016)	2
Samsung SM-J200F(Galaxy J2 (2015))	36
Samsung SM-J200H(Galaxy J2 (2015))	34
Samsung SM-J320F(Galaxy J3)	8
Samsung SM-J500F(Galaxy J5)	37
Samsung SM-J500H/DS(Galaxy J5)	14
Samsung SM-J500H(Galaxy J5)	173
Samsung SM-J700F(Galaxy J7)	8
Samsung SM-J700H(Galaxy J7)	56
Samsung SM-N9005(Galaxy Note 3)	4
Samsung SM-N900A(Galaxy Note 3)	43
Samsung SM-N900K(Galaxy Note 3)	2
Samsung SM-T116NU(Galaxy Tab 3V 3G)	14
Samsung SM-T231(Galaxy Tab 4 7.0)	34
Samsung SM-T255S(Galaxy W)	11
Samsung SM-T311(Galaxy Tab 3 8.0)	5
Samsung SM-T561(Galaxy Tab E)	29
Samsung SPH-L720(Galaxy S4)	4
Samsung T807P(Galaxy Tab S TD-LTE)	20
Sony C1905(Xperia M)	12
Sony C2105(Xperia L)	5
Sony C2305(Xperia C)	4
Sony D2005(Xperia E1)	5
Sony D2212(Xperia E3 Dual)	4
Sony E2115(Xperia E4)	23
SonyEricsson J108i	2
SonyEricsson ST25i(Xperia U)	24
Sony LT25i(Xperia V)	35
Sony LT30at(Xperia T)	3
Sony ST21i(Xperia Tipo)	1
Sony Xperia D6633(Xperia Z3 Dual)	2
Star i6	61
TCL S700	2
Teclast A10	24
Tecno N2S	18
Touchmate TM-SM500	10
VGO Venture V2	2
Vodafone 985N(Smart 4 Power)	2
Vodafone VF695(Smart first 6)	18
Voice Xtreme V30	8
Wiko Bloom	7
Wiko Goa	1
Wiko LENNY	4
Wiko Sunset2	2
Xiaomi Redmi Note 3	2
ZTE V816W	14
ZTE Z933(Grand X)	21
