1 Beyond 3G	10
1 Beyond Tab 3G	7
1 SMART 3.5	209
1 Smart 3.5 Touch	356
1 SMART 3.5'' Touch+	698
1 SMART 4.0	161
1 SMART 4G 5.0	2
1 SMART 4G Plus	12
1 SMART 4G Speedy 4.0 Plus	591
1 Smart 4G Speedy 4inch	168
1 SMART 4G Speedy 5.0 Plus	21
1 SMART 4G Speedy 5 inch	35
1 SMART 5.0(Slim)	14
1 Smart MAX 4.0	590
1 SMART MAX 4.0 Plus	571
1 SMART TAB Gen ME	3
 	2280
Access NetFront Ver. 3.2	7
Access NetFront Ver. 3.5	12
Acer A110(Iconia Tab A110)	7
Acer A1-830(Iconia A1)	2
Acer A500(Picasso)	9
Acer B1-730HD(Iconia One 7)	16
Acer B1-750(Iconia One 7)	5
Acer B1-810(Iconia One 8)	2
Acer B1-850(Iconia One 8)	5
Acer Iconia B1-723(Talk 7)	33
Acer Iconia Tab A1-840FHD	4
Acer Liquid Z330 LTE(T01)	3
Acer Liquid Z500	17
Acer M220(Liquid)	8
Acer S500(CloudMobile)	4
Acer S57(Liquid Jade Z)	26
Acer S59(Liquid X2 LTE)	6
Acer T012	3
Acer T02(Liquid Z530)	10
Acer T03(Liquid Z630)	4
Acer T06(Liquid Zest)	22
Acer V360(Liquid E1)	21
Acer Z130 Z3(Liquid)	37
Acer z130 Z3(Liquid)	6
Acer Z150	8
Acer Z160(Liquid Z4)	14
Acer Z200(Liquid)	110
Acer Z205(Liquid Z205)	40
Acer Z220(Liquid Z220)	25
Acer Z410(Liquid Z410)	356
Acer Z520(Liquid Z520)	83
Advance Hl4206	12
Advance Pr5446	23
Advan S35A(Vandroid S35A)	24
Advan S35D	13
Advan S35G	5
Advan S35H	1
Advan S35i	8
Advan S3A	8
Advan S45C	28
Advan S4A	5
Advan S4C	1
Advan S4F	13
Advan S4H(Gaia Mini)	6
Advan S4i	11
Advan S4J	3
Advan S4M	9
Advan S4P	2
Advan S4Q	14
Advan S4X	24
Advan S50D	6
Advan S50G	6
Advan S5E	4
Advan Star Fit S45A	9
Advan Star Mini S4K	1
Advan T1J	2
Advan T1R	10
Advan Vandroid E1C Pro	47
Advan Vandroid S5E(S5E New)	4
AG Mobile Chrome Selfie	53
AG Mobile Chrome Swift	15
AG Mobile CHROME ULTRA	5
AG Mobile Chrome Vibe	13
AG Mobile Go Tab 7.0(AG Chrome Go Tab 7.0)	4
Ainol AX7(Flame)	4
Ainol Rainbow	22
Airis TM400	6
Airis TM421M	2
Airis TM485M	2
AIS Iris 510(LAVA 4.0)	124
AIS Iris 800(LAVA 5.0)	93
AIS Lava A1(SUPER COMBO LAVA A1)	14
Alcatel 3000X(Tribe)	2
Alcatel 3075A(Tribe)	1
Alcatel 4003A(One Touch Pixi 3 (4))	97
Alcatel 4009A	346
Alcatel 4009D	115
Alcatel 4009M	8
Alcatel 4009S	330
Alcatel 4009X	50
Alcatel 4013D	37
Alcatel 4013K	18
Alcatel 4013M(Onetouch Pixi 3)	818
Alcatel 4013X	12
Alcatel 4015A(One Touch Pop C1)	143
Alcatel 4015T(One Touch Star)	7
Alcatel 4016A(POP C1)	102
Alcatel 4016X(One Touch Pop C1)	257
Alcatel 4017A(Pixi 4 (3.5))	33
Alcatel 4018A(Pop D1)	257
Alcatel 4018D(Onetouch POP D1)	3
Alcatel 4024E(Pixi First)	17
Alcatel 4027A(Pixi 3 (4.5))	252
Alcatel 4027D(Pixi 3 (4.5))	12
Alcatel 4027x(Pixi 3)	37
Alcatel 4028S(Pixi 3 (4.5))	6
Alcatel 4032A(Pop C2)	15
Alcatel 4032D(Pop C2)	9
Alcatel 4032E(Pop C2)	2
Alcatel 4032X(Pop C2)	14
Alcatel 4035A(Onetouch POP D3)	81
Alcatel 4035D(Onetouch POP D3)	13
Alcatel 4036E(Onetouch POP D3)	6
Alcatel 5010G(Pixi 4 5.0)	154
Alcatel 5015A(One Touch Pop 3(5))	551
Alcatel 5015D(One Touch Pop 3(5))	8
Alcatel 5015E(Pixi 3(5))	5
Alcatel 5016A(One Touch Pop 3(5))	6
Alcatel 5017A(Pixi 3 (4.5))	38
Alcatel 5017B(Pixi 3 (4.5))	8
Alcatel 5017O(Pixi 3 (4.5))	33
Alcatel 5022D(ONETOUCH POP Star)	20
Alcatel 5025G(Pop 3 (5.5))	291
Alcatel 5038A	56
Alcatel 5038E	9
Alcatel 5054N(One Touch Fierce XL)	28
Alcatel 5054S(ONE TOUCH POP 3 5.5)	5
Alcatel 5056A(Pop 4+)	32
Alcatel 5056X(Pop 4+)	6
Alcatel 5065A(Pixi 3(5))	37
Alcatel 6016A(Idol 2 Mini)	40
Alcatel 6032A(One Touch Idol Alpha)	9
Alcatel 6039A(One Touch Idol 3 (4.7))	11
Alcatel 7040N(Fierce 2)	65
Alcatel 7048A(One Touch Go Play LTE)	26
Alcatel 7048X(One Touch Go Play LTE)	6
Alcatel 7055A(One Touch Hero 2C)	11
Alcatel 8050E(PIXI 4 (6))	9
Alcatel 8050G(Pixi 4 (6))	82
Alcatel 9002A	39
Alcatel 9002X	30
Alcatel 9005X(OneTouch PIXI 8)	3
Alcatel 9006W(OneTouch Pixi 3 (7))	20
Alcatel A462C	4
Alcatel Astro(OneTouch Pop Astro)	183
Alcatel Evo 7(One Touch Evo 7)	16
Alcatel Hero 8	11
Alcatel I216A	15
Alcatel I216X	18
Alcatel ONE TOUCH 4009F(Pixi 3 (3.5))	1579
Alcatel ONE TOUCH 4015D(Pop C1)	20
Alcatel ONE TOUCH 4016A(POP C1)	1360
Alcatel ONETOUCH 4024D(Pixi First)	15
Alcatel ONE TOUCH 4037N(Pixi)	25
Alcatel One Touch 4037T(Evolve 2)	4
Alcatel ONE TOUCH 5020T(Evolve)	28
Alcatel One Touch 6012A(Idol Mini)	88
Alcatel One Touch 6012D(Idol Mini)	20
Alcatel One Touch 6012X(Idol Mini)	1
Alcatel ONE TOUCH 6037B(Idol 2)	11
Alcatel One touch 6042D(Flash)	2
Alcatel ONE TOUCH 7040A(Pop C7)	107
Alcatel ONE TOUCH 7040T(Pop C7)	6
Alcatel ONE TOUCH 7041D(POP C7)	3
Alcatel ONE TOUCH 7041X(POP C7)	30
Alcatel ONE TOUCH 7042A(Pop C7)	215
Alcatel ONE TOUCH 7047A(Pop C9)	249
Alcatel ONE TOUCH 7047D(Pop C9)	3
Alcatel ONE TOUCH 7049D(Pop C9)	60
Alcatel ONETOUCH 8055(Pixi 3 (7))	2
Alcatel One Touch 890	17
Alcatel one touch 890D(one touch 890D)	5
Alcatel Onetouch Flash Plus	50
Alcatel One touch Pixi 3 7 3G 8056	3
Alcatel OT-4007A(One Touch Pixi 4007A)	110
Alcatel OT-4007D(One Touch Pixi 4007D)	160
Alcatel OT-4007X(One Touch Pixi 4007X)	52
Alcatel OT-4010A(One Touch T'Pop 4010A)	2532
Alcatel OT-4010D(One Touch T'Pop 4010D)	12
Alcatel OT-4010X(One Touch T'Pop 4010X)	6
Alcatel OT-4012A(One Touch 4012A Fire)	71
Alcatel OT-4019A(One Touch Fire C)	44
Alcatel OT-4023A(Pixi 3)	1
Alcatel OT-4030A(S-POP)	121
Alcatel OT-4030E(S-POP)	48
Alcatel OT-4033A(Pop C3)	899
Alcatel OT-4033D(Pop C3)	9
Alcatel OT-4033E(Pop C3)	20
Alcatel OT-4033X(Pop C3)	26
Alcatel OT-5020A(One Touch M'Pop)	124
Alcatel OT-5020N(One Touch M'Pop)	10
Alcatel OT-5021E(One Touch Soleil)	83
Alcatel OT-5035A(One Touch X'Pop 5035A)	39
Alcatel OT-5036A(Pop C5)	800
Alcatel OT-5036D(Pop C5)	20
Alcatel OT-5036X(Pop C5)	9
Alcatel OT-5037A(Pop C5)	6
Alcatel OT-5037E(Pop C5)	35
Alcatel OT-5037X(Pop C5)	21
Alcatel OT-5042A(One Touch POP 2)	21
Alcatel OT-5042T(One Touch POP Astro)	7
Alcatel OT-5050A(Pop S3)	26
Alcatel OT-6030A(One Touch Idol)	72
Alcatel OT-6036A(Idol 2 Mini S)	14
Alcatel OT-639G(One Touch 639G)	1
Alcatel OT-7024W(One Touch Fierce)	8
Alcatel OT-8000A(One Touch Scribe Easy)	81
Alcatel OT-8008D(Scribe HD 8008D)	32
Alcatel OT-803A	4
Alcatel OT-903D(One Touch 903D)	78
Alcatel OT-918A(One Touch 918A)	23
Alcatel OT-918N(One Touch 918N)	54
Alcatel OT-991(One Touch 991 Play)	5
Alcatel OT-992D(One Touch 992D)	6
Alcatel OT-P310A(One Touch POP 7)	5
Alcatel OT-P310X(One Touch)	7
Alcatel OT-T10(One Touch T10)	27
Allview P4(Alldro)	47
Allwinner Tablet	2
Alps 709v82_jbla198	9
Amazon Fire Phone	49
Amazon KFARWI(Fire HD 6 (4th Gen))	7
Amazon KFASWI(Fire HD 7 (4th Gen))	10
AMGOO AM516	2
AMGOO AM66	14
Antel MM5008-MX(Fir)	26
AOC E41	83
AOC S70G12	5
AOC U706G	21
Apple iPad	507
Apple iPhone	4216
Apple iPhone 4S	1
Apple iPhone 5	23
Apple iPhone 5S	3
Apple iPhone 6	24
Apple iPod Touch	35
Apple Safari	7
Archos 40d Titanium	4
Archos 50b(50b Platinum)	18
Archos 50c Neon	5
Archos 50c Platinum	21
ArgomTech E500	6
ArgomTech Serie E400	12
Asiafone Asiadroid AF79	10
Aston Infinite II	3
Asus ASUS_Z008D(ZenFone 2)	1
Asus ASUS_Z00AD(ZenFone 2)	54
Asus FE171CG(Fonepad 7)	3
Asus K00U	5
Asus K012(FonePad 7)	123
Asus P01Y(Zenpad)	21
Asus P01Z(Zenpad C 7.0)	1
Asus T00F	9
Asus T00i(Zenfone 4)	17
Asus T00J(Zenfone 5)	94
Asus T00k(Zenfone 5 Lite)	16
Asus T00P(Zenfone 5)	6
Asus T00Q(Zenfone 4S)	15
Asus X008D(Pegasus 3)	21
Asus X013D(Zenfone Go 5.5)	9
Asus X014D(Zenfone Go 4.5)	203
Asus Z002(ZenFone 6)	25
Asus Z007(Zenfone C)	59
Asus Z00ED(Zenfone 2 Laser)	22
Asus Z00LD(Zenfone 2 Laser)	25
Asus Z00SD(Zenfone Go 4.5)	4
Asus Z00UD(Zenfone Selfie)	7
Asus Z00VD(Zenfone Go)	26
Asus Z010D(Zenfone Max)	12
Asus ZenFone 2E	10
Avvio 750	76
Avvio 753	8
Avvio 765	8
Avvio 768	9
Avvio 775	9
Avvio 779	4
Avvio 786	16
Avvio 792	22
Avvio 793	19
Avvio L630	21
Avvio PAD10.1	33
Avvio PAD	13
AXCELLE W800	13
Azumi A35C Lite	72
Azumi A35S	361
Azumi A40C	45
Azumi A40 Style Lite	2
Azumi A45GL	9
Azumi A45T	6
Azumi A50	45
Azumi A50c	3
Azumi A50c Plus	78
Azumi KL40TV	6
Bassoon P2000	4
Be AW880(B.elite)	17
Bitel B8405	4
Bitel B8408	2
Bitel B8502	8
Bitel B8503	3
Bitel B8504	12
BlackBerry KBD	250
BlackBerry Z10	737
BlackBerry Z30	27
BLU 5.0 C(Studio 5.0 C)	8
BLU 5.0+(DASH 5.0)	65
BLU 5.5(Dash 5.5)	22
BLU Advance 4.0	3
BLU ADVANCE 4.0 L	135
BLU ADVANCE 4.0 L2	2
BLU Advance 4.5	16
BLU Advance 5.0	57
BLU D141T(Dash JR TV)	32
BLU Dash 3.5(Dash 3.5)	30
BLU DASH 3.5 II	5
BLU Dash 4.0 Ce	3
BLU Dash 4.0(Dash JR 4.0)	49
BLU Dash C Music	38
BLU Dash J	13
BLU Dash L	56
BLU Dash M	174
BLU Dash M2	20
BLU Dash Music 2	43
BLU Dash Music Jr.	29
BLU Dash X	20
BLU Energy X Plus	11
BLU JR(DASH JR)	57
BLU JR(DASH JR SOCIAL)	37
BLU JR K(Dash JR K)	61
BLU Life 8 XL	26
BLU Life One M	3
BLU (Life Play)	22
BLU Life Play Mini	8
BLU LIFE XL	18
BLU Neo 4.5	24
BLU Neo 5.0	57
BLU Neo 5.5	68
BLU Neo X	28
BLU SPORT 4.5	10
BLU STAR 4.5	12
BLU Studio 5.0 CE	21
BLU Studio 5.0 II	2
BLU Studio 5.0K	3
BLU Studio 5.0(Studio 5.0 C HD)	9
BLU Studio 5.5	29
BLU Studio 5.5 C	5
BLU Studio 7.0 II	14
BLU Studio C 5+5	61
BLU Studio C HD	16
BLU (Studio C Mini)	45
BLU Studio G	94
BLU STUDIO_G_HD(Studio G HD)	14
BLU Studio G Plus	10
BLU STUDIO SELFIE 2	17
BLU Studio Selfie	9
BLU Studio X	5
BLU Studio XL	12
BLU STUDIO X PLUS	11
BLU Touchbook G7	8
BLU Vivo 4.3	5
BLU W410l(WIN JR W410l)	16
BLU W410u(WIN JR W410u)	23
Bmobile AX1020	71
Bmobile AX1055	79
Bmobile AX512	33
Bmobile AX524	68
Bmobile AX535	21
Bmobile AX540	6
Bmobile AX600	18
Bmobile AX610	2
Bmobile AX620	21
Bmobile AX650	26
Bmobile AX660	25
Bmobile AX670	11
Bmobile AX680	6
Bmobile AX690	5
Bmobile AX700	55
Bmobile AX745	5
Bmobile AX800	32
Bmobile AX810	20
Bouygues Telecom BS 451	10
BQ Aquaris E4	5
BQ Aquaris E45	3
BSNL P04	13
Byd SP355AWG	19
Celkon A115	2
Cellacom T703B	3
CellAllure Value 4.5	13
Celmi Explore	4
Cherry Mobile A660B(Superion Radar)	3
Cherry Mobile A680(Superion Probe)	5
Cherry Mobile Alpha Luxe	16
Cherry Mobile Alpha_Neon	3
Cherry Mobile Alpha Style	2
Cherry Mobile Comet	133
Cherry Mobile Flare J1	348
Cherry Mobile Flare Lite 2	66
Cherry Mobile Flare S3 Power	7
Cherry Mobile Flare S4	197
Cherry Mobile Flare S4 Lite	106
Cherry Mobile Flare S4 Plus	3
Cherry Mobile Flare XL Plus	6
Cherry Mobile Fuze Mini	45
Cherry Mobile H120(Omega)	23
Cherry Mobile H520(Flare S3 Lite)	1
Cherry Mobile H600(Omega Spectrum)	36
Cherry Mobile H870	62
Cherry Mobile H940(One)	6
Cherry Mobile Life	20
Cherry Mobile MAIA Pad Plus	22
Cherry Mobile Omega HD 3	3
Cherry Mobile Q620(Flare S3 Mini)	120
Cherry Mobile Q710(Nova 2.0)	21
Cherry Mobile Q890(Flare lite)	113
Cherry Mobile Q894(Flare Lite Quad)	16
Cherry Mobile S610(Amethyst)	46
Cherry Mobile S970(Spin)	12
Cherry Mobile S971(Spin 3G)	32
Cherry Mobile Snap	22
Cherry Mobile SPIN2(Spin 2)	112
Cherry Mobile Touch HD	57
Cherry Mobile V502015(Flare Lite Quad)	21
Cherry Mobile W390	4
Cherry Mobile W720(Ruby)	46
Cherry Mobile X8	9
China Phone Q6	15
Claresta AirPhoneS5	46
Claresta AirPhoneS6	3
Cloudfone Excite 501o	33
Cloudfone Excite Prime	36
Cloudfone Q304G(Geo 403Q)	5
CMX One ME	12
Cobalt S700	4
Cobia CB514	14
Cobia CB515	43
Connect CNP5001I	4
Coolpad 3622A(Catalyst)	4
Coolpad 5219	4
Coolpad 7295A	13
Coolpad 7295C	8
Coolpad 7298D	10
Coolpad 7620L	4
Coolpad 8076D	14
Coolpad E501(Modena)	41
CSC AU401	5
Cubot Note S	11
Cubot P6	145
Dark P60(Evo)	21
Dell Venue Pro	9
Digicel DL1000	54
Digicel DL 1 Lite	2
Digicel DL750	94
Digicel DL755	36
Digicel DL800	52
Digicel DL900	22
Digicel DL910	71
Digijet Xenoon	3
Domo Slate S5	2
DOOGEE DG280(Leo)	3
DOOGEE DG310(VOYAGER2)	4
DOOGEE DG500(Discovery)	4
DOOGEE DG800(Valencia)	6
DOOGEE F1	17
DOOGEE F2	48
DOOGEE X5max	25
DOOGEE X6	6
Dorado Wap Browser	1831
dtac Joey Jet 2	182
Eken W70	8
EKT EK-3572(EKT Stardust II)	2
Elephone P8000	2
Elephone P8	21
Ellipsis QMV7A	4
Entel Own S3030D	86
Evercoss A11	3
Evercoss A200	14
Evercoss A26C	1
Evercoss A28B	2
Evercoss A33A	18
Evercoss A53B	3
Evercoss A54	9
Evercoss A5P	3
Evercoss A5T	4
Evercoss A5Z	12
Evercoss A66A(Elevate Y)	30
Evercoss A74A(Winner T)	7
Evercoss A74C	4
Evercoss A7A	3
Evercoss A7B	7
Evercoss A7E	7
Evercoss A7G	4
Evercoss A7R	14
Evercoss AT1A	1
Evercoss AT1A*	13
Evercoss AT1C	11
Evercoss AT7E	12
Evercoss AT7H(Jump Tab S3)	14
F2 Mobile AXF35	15
F2 Mobile AXF38	4
F2 Mobile F48 Sports	104
F2 Mobile F80's(F80's RETRO)	105
FCC GK715	6
Feiteng S4	4
Fero V501	2
Firefly M7505(Firefly 7 M7505)	6
Firefly Mobile GT100 S	8
Firefly Mobile INTSENSE METAL	2
Fly F45	5
Fly F50	2
Fly IQ4409(Fly ERA Life 4)	13
Fly IQ 456	7
FMT FMT-NM7058-03(Netsurfer Sharp)	27
Fondi T708B	10
Garmin-Asus A10	6
Generic Android 2.0	73
Generic Android 2.1	2
Generic Android 2.2	6
Generic Android 2.3	225
Generic Android 3.2	17
Generic Android 4.0	287
Generic Android 4.1	317
Generic Android 4.1 Tablet	10
Generic Android 4.2	1593
Generic Android 4.2 Tablet	127
Generic Android 4.3	136
Generic Android 4.3 Tablet	7
Generic Android 4.4	8169
Generic Android 4.4 Tablet	671
Generic Android 4 Tablet	9
Generic Android 5.0	585
Generic Android 5.0 Tablet	12
Generic Android 5.1	6887
Generic Android 6.0	1552
Generic Android 6.1	3
Generic Android 7.0	8
Generic Android 7.1	2
Generic Windows Mobile 6.5	3
Generic Windows Mobile (Opera)	2
Generic Windows Phone 7.5	20
Generic Windows Phone 8.1	4
G-Five A97(President)	11
G-Five GPad701(GPad 701)	19
G-Five President Smart 2	5
G-Five President Smart 5	2
G-Five President Smart A98	35
Ghia 27258N	7
Ghia 47418(QUATTRO+)	5
GIGO Fusion Emotion	13
Gionee Ctrl V1	3
Gionee Ctrl V5	62
Gionee Dream D1	13
Gionee GN708T	1
Gionee M3mini	34
Gionee M5(Marathon)	46
Gionee M5 mini(Marathon M5 mini)	52
Gionee P2S	48
Gionee P4(Pioneer P4)	229
Gionee P5 mini	38
Gionee P5W(Pioneer P5W)	47
Gionee Pioneer	6
Gionee Pioneer P2	170
Gionee Pioneer P3	107
GOCLEVER Orion	4
GO Live Dual Core	5
GO Live S1	7
GoMobile DJ Mini	36
GoMobile G0775	11
GoMobile GO984	315
Google Chrome	122
Google Nexus 4	56
Google Nexus 5	203
Google Nexus 6	7
Google Nexus 7	19
Google Nexus One(Nexus One)	16
Google Nexus S	2
G-Plus P1000	4
GTab P700+	4
G-TiDE A1	12
G-TiDE V5	5
GT M7	3
Haier G31(Voyage G31)	52
Haier HW-W910	4
Haier Voyage G30	13
Hannspree T8	20
Hasee Lingya E50	20
HDC G9200(S6)	34
Himax Polymer 2	6
Hisense D2-F	3
Hisense E270BSA(Sero 7 LT)	9
Hisense HS-U601	104
Hisense HS-U602(Glory U602)	51
Hisense HS-U820	24
Hisense HS-U939(Glory)	19
Hisense HS-U961(Pure 1 Mini)	45
Hisense U971	20
Hisense U972	47
Hitech Amaze S330	14
Hotwav Venus X8	27
HP Slate 6 Voice Tab	5
HTC 0P6A1	7
HTC 0PCV220(Desire 510)	5
HTC 0PCV2(Desire 510)	4
HTC 1000C(Desire C)	10
HTC 320(Desire 320)	35
HTC 510(Desire 510)	19
HTC 620G(Desire 620G)	18
HTC 6500LVW(One M7)	4
HTC 6515LVW(One Mini 2)	10
HTC 6525LVW(HTC One M8)	6
HTC 802D(HTC One Dual Sim)	5
HTC 820G+(Desire 820G+)	6
HTC 820s(HTC Desire)	1
HTC A310e(Explorer)	16
HTC A3333(Wildfire)	6
HTC A510e(Wildfire S)	17
HTC A810e(ChaCha)	11
HTC A8181(Desire)	1
HTC A9191(Desire HD)	4
HTC A9u(One A9)	11
HTC ADR6300(Incredible)	8
HTC ADR6325(Merge)	7
HTC C625a(Windows Phone 8X)	2
HTC D530u(Desire 530)	12
HTC D626ph(Desire 626)	4
HTC Desire 310(Desire)	4
HTC Desire 310(Desire dual sim)	27
HTC Desire	4
HTC Desire 500	30
HTC Desire 516	14
HTC Desire 526G	12
HTC Desire 526G+	14
HTC Desire 526h	4
HTC Desire 601(Zara)	3
HTC Desire 620	2
HTC Desire 626s	79
HTC Desire 728G(Desire 728G dual sim)	14
HTC Desire 816	19
HTC Desire 816G	11
HTC Desire 820	6
HTC Desire 820G PLUS dual sim(Desire 820G+)	2
HTC Desire HD	13
HTC Desire S	18
HTC E9x(One E9 Dual Sim)	15
HTC First	1
HTC Flyer	8
HTC Hero	10
HTC HTC6435LVW(Droid DNA)	2
HTC HTCD100LVWPP(Desire 526)	5
HTC HTCD200LVW(Desire 626)	8
HTC HTC Desire HD	6
HTC M7(One)	31
HTC M8(One M8)	128
HTC Magic	1
HTC One dual Sim	15
HTC One M7	36
HTC One mini	5
HTC One V	21
HTC P3700	2
HTC PJ401(One S)	44
HTC PJ83100(One X)	10
HTC PM23300(Windows Phone 8X)	8
HTC PM63100(One X+)	6
HTC PN071(One)	12
HTC Radar	24
HTC Radar 4G	16
HTC S510b(Rhyme)	17
HTC S510e(Desire S)	11
HTC S710E(Incredible S)	12
HTC Spark(7 Trophy)	17
HTC T329t(Proto)	67
HTC T528w(One SU)	4
HTC T8788(Surround)	7
HTC T9292(HD7)	8
HTC Ville(One S)	6
HTC X315e(Sensation XL with Beats Audio)	16
HTC X515(EVO 3D)	17
HTC X7510(Advantage)	5
HTC Z710(Sensation)	19
HTC Z710(Sensation 4G)	31
Huawei 302HW(Stream S)	9
Huawei 4Afrika	24
Huawei ALE-L02(P8 Lite)	99
Huawei ALE-L04(P8Lite)	7
Huawei ALE-L21(P8 Lite)	139
Huawei ALE-L23(P8 Lite)	67
Huawei Ascend P7	24
Huawei Ascend P7 L10	12
Huawei Ascend Y625-U32	135
Huawei BM-SWU300(IDEOS)	33
Huawei CAM-L21(Y6 II)	30
Huawei CHC-U01(G Play Mini)	12
Huawei CHC-U03(G Play Mini)	47
Huawei CHC-U23(G Play Mini)	13
Huawei Che2-L11(Honor 4X)	7
Huawei CHe2-UL00(Honor Play 4X)	6
Huawei CHM-U01(Honor 4C)	238
Huawei CRR-UL00(Ascend Mate 7S)	4
Huawei CUN-L03(Ascend Mate 2)	77
Huawei CUN-L21(Y5II)	3
Huawei CUN-L22 Y5ll	3
Huawei CUN-U29(Y5II)	103
Huawei EVA-L19(P9 Standard Edition)	16
Huawei G510-0010(Ascend G510)	24
Huawei G510-0100(Ascend G510)	22
Huawei G510-0251(Ascend)	57
Huawei G525-U00(Ascend G525-U00)	21
Huawei G526-L33(Ascend G526)	8
Huawei G610-T11(Ascend)	4
Huawei G610-U00(Ascend)	9
Huawei G610-U15(Ascend)	59
Huawei G610-U20(Ascend)	5
Huawei G615-U10(Ascend G615)	10
Huawei G620S-L03(Ascend G620S)	2
Huawei G620S-UL00(Ascend G620S)	25
Huawei G630-U10(Ascend G630)	2
Huawei G630-U20(Ascend G630)	46
Huawei G630-U251(Ascend G630)	5
Huawei G6-L11(Ascend G6-L11)	10
Huawei G6-U10	22
Huawei G700-U10(Ascend G700)	1
Huawei G730-U00(Ascend G730)	37
Huawei G730-U10(Ascend G730)	19
Huawei G730-U251(Ascend G730)	29
Huawei G730-U30(Ascend G730)	2
Huawei G740-L00(Ascend G740)	4
Huawei G7-L01(Ascend G760-L01)	13
Huawei G7-L03(Ascend G760-L03)	24
Huawei G7-L11(Ascend G7)	33
Huawei GRA-L09(P8)	16
Huawei GRA-UL10(P8)	3
Huawei H30-U10(Honor 3C)	8
Huawei H891L(Pronto LTE)	8
Huawei Hol-U19(Honor Holly)	41
Huawei HUAWEI U8815(Ascent G 300)	7
Huawei HUAWEI Y210-0200(Ascend)	7
Huawei KII-L21(GR5)	47
Huawei KIW-L21(Honor 5X)	6
Huawei LUA-U21(Y3II)	1
Huawei LUA-U22(Y3II)	199
Huawei MediaPad 7	3
Huawei MediaPad 7 Youth2	14
Huawei MediaPad 7 Youth	39
Huawei MediaPad M1 8.0	4
Huawei MediaPad T1 7.0	88
Huawei MT7-L09(Ascend Mate 7)	28
Huawei MT7-L10(Ascend Mate 7)	9
Huawei MT7-TL10(Ascend Mate 7)	6
Huawei P6(Ascend P6 S - L04)	74
Huawei P6-U06(Ascend P6)	25
Huawei RIO-L01(G8)	18
Huawei S7-301w(MediaPad 10 Link)	19
Huawei S7-301w(MediaPad 10 Link+)	28
Huawei S7-301w(Mediapad)	6
Huawei S7_Slim	8
Huawei SCC-U21(Honor Y6)	19
Huawei SCL-L03(Honor 4A)	35
Huawei SCL-TL00H(Honor 4A)	24
Huawei SCL-U31(Y6)	257
Huawei T1 7.0	88
Huawei T1-A21L(Mediapad 10 Link)	27
Huawei T1(MediaPad T1 8.0)	9
Huawei T1(Mediapad T1 8.0 Pro 4G)	55
Huawei T8951(Ascend G510)	30
Huawei TAG-L13(GR3)	4
Huawei TAG-L21(GR3)	11
Huawei TIT-AL00(Enjoy 5)	51
Huawei TIT-U02(Y6 Pro)	31
Huawei U8180(IDEOS X1)	26
Huawei U8185(Ascend Y100)	3
Huawei U8186(Ascend Y100)	12
Huawei U8220(Pulse)	12
Huawei U8350(Boulder)	36
Huawei U8655(Ascend Y200)	16
Huawei U8666E-51(Ascend Y201 Pro)	3
Huawei U8667	146
Huawei U8825D(Ascend G330D)	6
Huawei U9000(Ideos X6)	2
Huawei U9200(Ascend P1)	2
Huawei U9508(Honor 2)	10
Huawei VNS-L21(P9 Lite)	9
Huawei VNS-L23(P9 Lite Dual SIM LTE)	3
Huawei VNS-L31(P9 Lite)	46
Huawei Vodafone 858	2
Huawei W2-U051(Ascend W2)	19
Huawei Y210-0100(Ascend Y210)	55
Huawei Y210-0151(Ascend Y210)	46
Huawei Y210-0251(Ascend Y210)	39
Huawei Y220-U00(Ascend Y220)	356
Huawei Y220-U05(Ascend Y220)	149
Huawei Y220-U10(Ascend Y220)	181
Huawei Y221-U03(Ascend)	315
Huawei Y221-U12(Ascend)	389
Huawei Y221-U22(Ascend)	74
Huawei Y221-U33(Ascend)	11
Huawei Y300-0100(Ascend Y 300)	245
Huawei Y301-A1(Valiant)	3
Huawei Y301-A2(Vitria)	4
Huawei Y320-U10(Ascend)	22
Huawei Y320-U151(Ascend)	175
Huawei Y320-U30(Ascend)	34
Huawei Y320-U351(Ascend)	16
Huawei Y321-U051(Ascend)	17
Huawei Y330-U01(Ascend Y330)	174
Huawei Y330-U05(Ascend Y330-U05)	155
Huawei Y330-U07(Ascend Y330)	8
Huawei Y330-U11(Ascend Y330)	54
Huawei Y336-U02	178
Huawei Y340-U081	31
Huawei Y360-U03	128
Huawei Y360-U23(Y360)	555
Huawei Y360-U31(Y360)	18
Huawei Y360-U61(Y360)	107
Huawei Y360-U82(Y3 Lite)	4
Huawei Y511-U10(Ascend Y511)	15
Huawei Y511-U251(Ascend)	65
Huawei Y511-U30(Ascend)	44
Huawei Y516-T00	24
Huawei Y520-U03(Ascend Y520)	625
Huawei Y520-U12(Ascend Y520)	19
Huawei Y520-U22(Ascend Y520)	186
Huawei Y520-U33(Ascend Y520)	104
Huawei Y530-U00(Ascend Y530)	111
Huawei Y530-U051(Ascend Y530-U051)	89
Huawei Y536A1	21
Huawei Y541-U02(Honor Bee)	327
Huawei Y550(Ascend Y550)	42
Huawei Y550-L01(Ascend Y550)	2
Huawei Y560-L01(Ascend Y550)	288
Huawei Y560-L02(Ascend Y560)	42
Huawei Y560-L03(Ascend Y560)	7
Huawei Y560-U02(Ascend Y560)	65
Huawei Y600(Ascend Y600)	367
Huawei Y600- U20(Ascend Y600)	53
Huawei Y600-U351(Huawei Ascend Y600-U351)	16
Huawei Y600-U40(Ascend Y600)	31
Huawei Y610-U00	2
Huawei Y625-U13(Ascend Y625)	54
Huawei Y625-U21(Ascend Y625)	5
Huawei Y625-U43(Ascend Y625)	23
Huawei Y625-U51(Ascend Y625)	14
Huawei Y635-L03	839
Huawei Y635-L21	13
Hummer H1	1
iBall Andi 4.5 O'Buddy	11
iFound Z502	34
i-mobile IQ 1058(IQ X BLIZ)	4
i-mobile IQ 511	6
i-mobile IQ 5.1	3
i-mobile IQ5.1 Pro	32
i-mobile IQ 5.3	8
i-mobile IQ 5.5	5
i-mobile IQ 5.6	4
i-mobile IQ 5.7	17
i-mobile IQ 5.8 DTV	52
i-mobile IQ6.3	4
i-mobile IQ 6	36
i-mobile IQ6.6	4
i-mobile IQ 6.8 DTV	17
i-mobile IQ 9.2	3
i-mobile IQ BIG2	4
i-mobile IQ BIG	9
i-mobile IQ X3	29
i-mobile i-STYLE 210	9
i-mobile i-STYLE 211	3
i-mobile i-STYLE 212	23
i-mobile i-STYLE 2.1	3
i-mobile i-STYLE 215	150
i-mobile iStyle 216	8
i-mobile iStyle 217	14
i-mobile i-style 218	80
i-mobile i-STYLE 219	106
i-mobile i-style 220	40
i-mobile i-STYLE 2.2	14
i-mobile i-STYLE 2.5	10
i-mobile i-STYLE 2.6	59
i-mobile i-STYLE 2.7	32
i-mobile i-STYLE 2.8(i-STYLE 2)	9
i-mobile i-STYLE 2.9(i-STYLE Q2 DUO)	3
i-mobile i-STYLE 711	24
i-mobile i-STYLE 7.3	3
i-mobile i-STYLE 7.3A	12
i-mobile (i-STYLE 7.5)	3
i-mobile i-STYLE 7.6	84
i-mobile i-STYLE 7.7 DTV	65
i-mobile i-STYLE 7.8(DTV)	2
i-mobile i-style 810	9
i-mobile i-STYLE 8.3	36
i-mobile i-STYLE 8	5
i-mobile i-STYLE 8.5	10
Inco Bloom	19
Inco Flex 2	14
Inco MinionTab	5
iNew L4	1
iNew M2	88
iNew V.35	46
iNew V3+Plus	16
iNew V7	7
Infinix Note 2	11
Infinix Note 3	2
Infinix P5S_X403(Surf Spice)	12
Infinix SurfSmart X351	10
Infinix X506(Infinix Zero)	76
Infinix X509(Zero 2)	12
Infinix X510(Hot 2)	656
Infinix x551(Hot Note)	466
Infinix X552(Zero 3)	3
Infinix X554(HOT 3)	48
Infinix x597(Hot)	315
Infinix X600 LTE(Note 2)	10
Infinix X600(Note 2 X600)	157
InnJoo F3	9
InnJoo Fire Plus 3G	131
InnJoo Halo	6
InnJoo i1S	7
InnJoo Max2_3G(Max 2)	11
InnJoo Max2_Plus_3G	11
InnJoo Note E Dual SIM	17
InnJoo ONE 3G HD	12
Inovo I-401 Plus one	2
Inovo iTAB705D	5
Intel ECS TR10CS1	101
Intex Aqua Joy	94
Intex Aqua Q7 Pro	8
Intex Aqua Speed	6
Intex Aqua Y4	44
Intex Cloud Y3	42
Intex I4+	6
INUI U3	5
iOcean X9	29
iOne Max Find 5.0	3
IPPO Q10	41
IPPO V11	25
iPro I9403	127
iPro I9405(Elite Mini)	17
iPro Wave 3.5	12
iPro WAVE 5.0	8
iSwag Legend	2
itel iNote Beyond	7
itel IT1352	2
itel it1355	133
itel IT1403	32
itel it1403+	338
itel IT1404	56
itel IT1405	182
itel it1406	102
itel it1407	290
itel it1408	180
itel IT1451(iNote)	10
itel IT1452	36
itel IT1453	73
itel it1500	8
itel IT1501	43
itel IT1502	127
itel IT1503	345
itel It1505	3
itel it1506	194
itel It1507	92
itel it1508(Wish)	40
itel IT1550	55
itel IT1701(iNote Prime)	171
itel it1702	30
itel itl1353	6
iZoom 1201	271
Jeep Z6	2
Jiake M8	3
Jiake S6	29
Jiake V10	2
Jiayu G4	3
Jiayu JK606	5
Jintian E7	81
Joinet J13 Quad Core	7
Karbonn A12	58
Karbonn A51f	51
Karbonn A55	1
Karbonn A5S	139
Karbonn A66	5
Karbonn A99	7
Karbonn Mach One Plus	6
Karbonn S1(Titanium)	14
KATA I3s	3
Kata M2L	5
KAZAM Thunder 2 4.5L	5
Kenbo KBGW532	3
Keneksi Boost	52
Ken Xin Da A6	11
K-Fone OLA	5
KingSing lcsh82_cwet_kk	14
Kocaso M776	18
Krono NET K5	3
Kruger &amp	0
KTC 101P51C	19
K-Touch A17	10
K-Touch T619+	33
K-Touch V9	3
KT Tech KM-S300(TAKE HD)	6
Kyocera C5155(Rise C5155)	3
Kyocera C6530N(Hydro Life)	7
Kyocera C6740N(Hydro Wave)	13
Kyocera C6745(Hydro Air)	10
Kyocera E6782(Brigadier)	9
Lanix Android 4.0(Ilium S500)	5
Lanix Ilium L900	26
Lanix Ilium L950	14
Lanix Ilium LT500	383
Lanix Ilium Pad E10SI	4
Lanix Ilium S130(Ilium S130)	171
Lanix Ilium S210 Lanix	3
Lanix ILIUM S215	11
Lanix Ilium S410	21
Lanix Ilium S620	23
Lanix ILIUM S670	8
Lanix Ilium W250	22
Lanix Ilium X110	753
Lanix Ilium X200	815
Lanix Ilium X400	4
Lanix Ilium X500B	223
Lanix LX7	4
Lanix S106(Illium)	1668
Lanix S115(Ilium S115)	38
Lanix S120(Illium)	180
Lanix S130(Ilium S130)	106
Lanix S220(ILIUM S220)	77
Lanix S400(Ilium S400)	23
Lanix S420(Ilium S420)	16
Lanix S50(Ilium S50)	9
Lanix S520(Illium)	255
Lanix S700(Illium)	12
Laude S900	6
Lava 360m(Iris 360m)	331
Lava A88	6
Lava Flair P1	8
Lava Icon	76
Lava Iris 250	2
Lava Iris 353	198
Lava Iris 354	66
Lava iRIS 405+	8
Lava Iris 456	38
Lava Iris 500	49
Lava Iris 505	167
Lava iris 550	9
Lava iris 600	182
Lava Iris 700	208
Lava iris702	1
Lava Iris 708	30
Lava Iris 750	19
Lava Iris 810	27
Lava iris 820	10
Lava iris 870	11
Lava IrisX1+	40
Lava Iris X1	9
Lava Iris X1 Atom	5
Lava Iris X5	63
Lava Iris X8 Pro	6
Lava iris X9	58
Lava Pixel V2+	3
Leagoo Alfa 5	1
Leagoo Alfa 6	3
Leagoo E4	50
Leagoo Elite 5	11
Legacy Alpha G1	9
Legacy Reflect G1	11
Lenovo A1000	218
Lenovo A10-70L(TAB 2 A10)	6
Lenovo A1900	14
Lenovo A2010-1(A2010)	1
Lenovo A2010-a(A2010)	135
Lenovo A2010l36(A2010)	14
Lenovo A2010-l(A2010)	31
Lenovo A2020a40(Vibe C)	14
Lenovo A218t	1
Lenovo A269i	27
Lenovo A278t	29
Lenovo A288t	7
Lenovo A3000-F(IdeaTab A3000-F)	10
Lenovo A3000-H(IdeaTab A3000-H)	12
Lenovo A308t	6
Lenovo A316i	67
Lenovo A319	325
Lenovo A328	59
Lenovo A3300	152
Lenovo A3300-GV	10
Lenovo A3300-H	9
Lenovo A3500-HV(Tab A7-50)	26
Lenovo A369i	284
Lenovo A378t	17
Lenovo A390	15
Lenovo A399	3
Lenovo A5000	43
Lenovo A516	51
Lenovo A526	15
Lenovo A536	119
Lenovo A5500-H	3
Lenovo A6000	93
Lenovo A6000-L	3
Lenovo A6020136(Vibe K5)	14
Lenovo A6020137(Vibe K5)	19
Lenovo A6020a40(Vibe K5 Plus)	5
Lenovo A6020a46(Vibe K5 Plus)	10
Lenovo A606	16
Lenovo A60(Lephone A60)	7
Lenovo A630T	2
Lenovo A680 ROW	23
Lenovo A7000	89
Lenovo A7010a48(Vibe K4 Note)	3
Lenovo A706	22
Lenovo A7-30GC(TAB 2)	26
Lenovo A7-30HC(TAB 2)	88
Lenovo A7-30H(TAB 2)	9
Lenovo A7600-H(A10-70 A7600)	6
Lenovo A816	7
Lenovo A850	18
Lenovo A859	10
Lenovo A889	13
Lenovo B6000-HV(Yoga B6000-H)	33
Lenovo B6000-HV(Yoga B6000-HV)	37
Lenovo IdeaTab(S6000-H)	16
Lenovo K50-t5(K3 Note)	12
Lenovo K80M	4
Lenovo K900	16
Lenovo MOT-A6020l37(Vibe K5 Plus)	4
Lenovo P1ma40(Vibe P1m)	47
Lenovo P770	2
Lenovo PB1-750M(PHAB)	3
Lenovo PB1-770M(Phab Plus)	24
Lenovo S1a40(Vibe S1)	3
Lenovo S5000-H	6
Lenovo S580	5
Lenovo S60-a	11
Lenovo S650	2
Lenovo S720	10
Lenovo S720I	7
Lenovo S820	16
Lenovo S850	28
Lenovo S856	3
Lenovo S860	31
Lenovo S890	2
Lenovo S90-A(Sisley)	21
Lenovo S90-u(Sisley)	7
Lenovo TB3-710F(Tab3 7)	8
Lenovo TB3-710I(Tab3 7)	4
LG A395	1
LG AS323(Optimus L70)	15
LG C205	10
LG C660h(Optimus Pro)	18
LG C900(Quantum)	13
LG D100(L20)	195
LG D120(L30)	211
LG D125	3
LG D165(L40)	2
LG D170(L40 Dual)	7
LG D213(L50)	312
LG D280	287
LG D290g(L Fino)	28
LG D295(L Fino)	71
LG D320(Optimus L70)	467
LG D321(OPTIMUS L70)	19
LG D325(Series III L70)	14
LG D331(L Bello)	145
LG D373(L80)	182
LG D380(L80)	12
LG D390(F60)	23
LG D400	26
LG D405(L90)	4
LG D410(L90 Dual D410)	24
LG D415(Optimus L90)	8
LG D620(G2 Mini)	19
LG D625(G2 Mini)	41
LG D631(G Pro2 Lite)	6
LG D680(G Pro Lite)	388
LG D682(Pro Lite)	9
LG D690(G3)	14
LG D693n(G3)	404
LG D722(G3 Mini)	26
LG D724(G3)	24
LG D802(G2)	47
LG D850(G3)	191
LG D851(G3)	92
LG D852(G3)	12
LG D855(G3)	81
LG D858HK(G3)	7
LG E400f(Optimus L3)	419
LG E400g(Optimus L3)	43
LG E400(Optimus L3)	66
LG E405(Optimus L3)	13
LG E410g(Optimus L1X)	303
LG E410i(Optimus L1 II)	16
LG E415g(Optimus L1 II)	18
LG E425f(Optimus L3 II)	394
LG E425g(Optimus L3 II)	20
LG E425j(Optimus L3 II)	3
LG E425(Optimus L3 II)	23
LG E435G(Optimus L3 II)	13
LG E435(Optimus L3 II)	18
LG E435(Optimus L3 II Dual)	18
LG E440g(Optimus L4 II)	154
LG E440(Optimus L4 II)	3
LG E445(Optimus L4 II Dual)	8
LG E450f(Optimus L5 II)	570
LG E450g(Optimus L5 II)	82
LG E450(Optimus L5 II)	6
LG E455(Optimus L5 II Dual)	1
LG E460(Optimus L5 II)	4
LG E510(Optimus Hub)	77
LG E610(Optimus L5)	29
LG E612f(Optimus L5)	418
LG E612g(Optimus L5)	17
LG E612(Optimus L5)	18
LG E615f(Optimus L5 Dual)	3
LG E615(Optimus L5 Dual)	2
LG E720(Optimus Chic)	18
LG E980(Optimus G Pro)	10
LG F100S(Optimus Vu)	2
LG F160K(Optimus LTE2)	8
LG F180K(Optimus G)	4
LG F200K(Optimus Vu II)	15
LG F200L(Optimus Vu II)	11
LG F200(Optimus Vu II)	9
LG F200S(Optimus Vu II)	26
LG F240L(Optimus G Pro)	14
LG F240S(Optimus G Pro)	2
LG F310L(Gx)	14
LG F320L(G2)	9
LG F460K(G3 Cat 6)	10
LG F460S(G3 Cat 6)	5
LG F670S(K10)	17
LG GM360	3
LG H220(Joy)	7
LG H221(Joy)	234
LG H320(Leon)	163
LG H324(Leon)	30
LG H340(Leon 4G LTE)	7
LG H340n(Leon 4G LTE)	7
LG H343(Risio)	17
LG H420(Spirit)	75
LG H422(Spirit)	12
LG H440(Spirit 4G LTE)	9
LG H500(Magna)	197
LG H502(Magna)	2
LG H520(Magna LTE)	3
LG H540(G4 Stylus)	18
LG H542(G4 Stylus)	59
LG H631MX(Stylo)	2
LG H635A(LG Stylus)	13
LG H635(LG Stylus)	30
LG H650(Zero)	44
LG H735(G4 Beat)	7
LG H815(G4)	10
LG K120(Spree)	13
LG K-200 X Style	2
LG K350(K8)	3
LG K410(K10)	36
LG K500(X Screen)	11
LG K530(Stylus 2 Plus)	2
LG K580	12
LG KU5900(Optimus Black)	4
LG L160L(Optimus LTE2)	22
LG L40(D160)	9
LG LG-A200	3
LG LG-D950(G Flex)	12
LG LG-D958(G Flex)	4
LG LG-F490L(G3)	5
LG LG-GW305	1
LG LG-K220(X Power)	2
LG LG-P705(Optimus L7)	13
LG LG-P713(Optimus L7 II)	8
LG LG/P875/V1.0	4
LG LG-P970h(Optimus Black)	9
LG LG-P990h(Optimus 2X)	2
LG LG-T375	4
LG LG-T565(Viper T565)	11
LG LG-X180g(Zone)	256
LG LG-X210(Tribute 5)	115
LG LS620(REALM)	6
LG LS665(Tribute 2)	10
LG LS770(G Stylo)	18
LG LS980(G2)	7
LG LU6200(Optimus LTE)	2
LG MS323(Optimus L70)	120
LG MS330(K7)	45
LG MS345(Leon)	35
LG MS395(Optimus F60)	17
LG MS500(Optimus F6)	40
LG MS631(G Stylo)	25
LG MS769(Optimus L9)	13
LG P350F(Optimus Me)	29
LG P350G(Optimus Me)	11
LG P350(Optimus Me)	8
LG P500h(Optimus One)	19
LG P509(Optimus T)	10
LG P700(Optimus L7)	8
LG P708G(Optimus L7)	60
LG P708g(Optimus L7)	65
LG P710(Optimus L7 II)	13
LG P714(Optimus L7X)	367
LG P715(Optimus L7 II)	3
LG P716(Optimus L7 II)	2
LG P768(Optimus L9)	52
LG P769(Optimus L9)	8
LG P880(Optimus 4X HD)	1
LG P895(Optimus Vu)	32
LG P970h(Optimus Black)	17
LG SU640(Optimus LTE)	6
LG SU660(Optimux 2X)	3
LG T385	24
LG T395	135
LG T585	18
LG V32(Vivid)	17
LG V400(G Pad 7.0)	16
LG V410(G Pad 7.0)	8
LG VK700(G Pad 10.1)	3
LG VS980(G2)	12
LG VS985(G3)	12
LG X130g(L45)	226
LG X145(L60)	32
LG X155(Max)	24
LG X165g(Max)	393
LG X220(K5)	110
Liyang Z9	3
Logic X4.5	8
Logic X5 Lite	22
LTC A150	4
LYF LS-4503(Flame 1)	1
M4 SS4045	414
M4 SS4455(M4Excite)	27
M4Tel M4 SS4451(Believe)	115
M4Tel M4 SS4456(Evolution)	31
M4Tel SS1010	11
M4Tel SS1060(Live)	286
M4Tel SS1070(Sense)	533
M4Tel SS4020(M4Play)	125
M4Tel SS4040(M4 In Touch)	32
M4Tel SS4350(Soul)	133
M4Tel SS4452(Dream)	94
M4Tel SS4456	39
M4Tel SS880	34
M4Tel SS990	15
Madvill C50_Trendy	19
Magicon M2(Elegante)	58
Malata I50	7
Malata N400	25
Malata N402	29
Mastone G9	10
MAUI-based Generic MAUI WAP Browser	327
Maximus MAX908	11
Maximus max910	11
Maximus Vjoy_rainbow	9
Maxwest Astro 4	3
Maxwest Astro 4.5	14
Mediacom M-MP7S2D3G(SmartPad 7.0 S2 3G)	3
MediaTek MT6735	31
Medion E4002	8
Megafeis M706	11
Meizu M2mini(M2 Mini)	90
Meizu M2 Note(M2 Note)	6
Meizu M3s	8
Micromax A092(Unite A092)	8
Micromax A096(Canvas Fire 3)	3
Micromax A106(Unite 2)	3
Micromax A350(Canvas Knight)	3
Micromax A47(Bolt)	8
Micromax A79	5
Micromax AQ4501(Canvas A1)	79
Micromax AQ5000(Canvas Hue)	8
Micromax P360(Funbook P360)	3
Micromax Q301	8
Micromax Q326(Bolt Q326)	15
Micromax Q327(Unite 3)	5
Micromax Q335(Bolt)	5
Micromax Q346	6
Micromax Q412	15
Micromax W900	12
Micromax X088	2
Microsoft 640 XL(Lumia 640 XL)	8
Microsoft Lumia 532	64
Microsoft Lumia 535	76
Microsoft Lumia 535(Lumia 535)	191
Microsoft Lumia 540 Dual SIM	59
Microsoft Lumia 550	14
Microsoft Lumia 950	3
Microsoft RM-1141(Lumia 540 Dual SIM)	2
Mint M5w	9
Mito A50	27
Mlais M7	14
Mobicel Matrix	25
Mobicel Metro II	44
Mobicel Onyx	153
Mobicel Retro	100
Mobiper N4	3
Motorola Droid 2 Global	2
Motorola E2	30
Motorola MB300(Backflip)	3
Motorola MB502	8
Motorola MB511(Ruth)	20
Motorola MB520(Kobe)	12
Motorola MB525(DEFY)	39
Motorola MB526	21
Motorola MB855(Photon)	13
Motorola MB860(Atrix)	9
Motorola MB886(Atrix HD)	23
Motorola MotoG3	109
Motorola MotoG3-TE	19
Motorola Moto G (4)(Moto G4)	25
Motorola MOTXT912B(Droid Razr 4G)	66
Motorola XT1003(Moto G)	23
Motorola XT1008(Moto G Forte (Falcon))	16
Motorola XT1021(Moto E)	471
Motorola XT1022(Moto E)	129
Motorola XT1023(Moto E)	12
Motorola XT1030(Droid Mini)	6
Motorola XT1032(Moto G)	670
Motorola XT1033(Moto G)	11
Motorola XT1039(Moto G 4G)	6
Motorola XT1040(Moto G)	33
Motorola XT1053(Moto X)	2
Motorola XT1058(Moto X)	63
Motorola XT1060(Moto X)	10
Motorola XT1063(Moto G (2nd Gen))	34
Motorola XT1064(Moto G (2nd Gen))	75
Motorola XT1068(Moto G (2nd Gen))	20
Motorola XT1069(Moto G (2nd Gen))	3
Motorola XT1080(Droid Ultra)	70
Motorola XT1250(Moto Maxx)	39
Motorola XT1505(Moto E (2nd Gen))	106
Motorola XT1526(Moto E (2nd Gen))	21
Motorola XT1563(Moto X Play)	20
Motorola XT300(Spice)	9
Motorola XT303(Motosmart Me)	177
Motorola XT316(Dominoq)	8
Motorola XT320(Defy Mini)	9
Motorola XT605(Jorian)	68
Motorola XT615	19
Motorola XT621(Primus)	70
Motorola xt875(Droid Bionic 4G)	6
Motorola XT881(Electrify 2)	6
Motorola XT885(RAZR V)	4
Motorola XT885(RAZR V XT885)	8
Motorola XT890(RAZR i)	123
Motorola XT894(Droid 4)	6
Motorola XT907(DROID RAZR M 4G LTE)	99
Motorola XT910(RAZR XT910 Spider)	63
Motorola XT914(Razr D1)	527
Motorola XT918(RAZR D1)	6
Motorola XT919(RAZR D3)	20
Motorola XT923(Droid Razr HD)	15
Movi Infinit 2	25
Movka A3	6
Mozilla Firefox	14
Mozilla Firefox for Android	163
Mozilla Firefox for Android Tablet	18
Mozilla Firefox OS	63
Mpie MP707	5
MTN 5982C3	46
MTN 8978P(Steppa)	94
MTN S620(Sm@rt S620)	91
MTN S620(Sm@rt S620 mini)	2
MTN S720i(Sm@rt)	9
MTN S730	21
myPhone Agua Rain 2G	24
myPhone Agua Rio	66
myPhone Agua Rio Fun	84
myPhone Agua Rio Lite	27
myPhone Agua Storm	38
myPhone MY21	58
myPhone MY22	15
myPhone My23	12
myPhone MY 25	74
myPhone MY26	52
myPhone My27	143
myPhone MY28	67
myPhone MY28S	811
myPhone MY31	3
myPhone MY32L	19
myPhone MY33	18
myPhone my82 DTV	193
myPhone Ocean Mini	19
myPhone Rio 2	88
myPhone Rio 2 Craze	168
myPhone Rio Junior TV	21
Neuimage NIM-400	2
NGM Spirit	100
Niu 4D2 TEK	12
Niu 5D(Tek 5D)	20
Nokia 110	17
Nokia 112	6
Nokia 1680 classic	3
Nokia 2055(Asha 2055)	9
Nokia 205(Asha 205)	82
Nokia 206	44
Nokia 210(Asha 210)	20
Nokia 2330 classic	7
Nokia 2630	3
Nokia 2700 classic	26
Nokia 	3
Nokia 301.1(Asha 301)	3
Nokia 305(Asha 305)	15
Nokia 306	23
Nokia 308(Asha 308)	14
Nokia 309(Asha 309)	2
Nokia 310(Asha 310)	22
Nokia 311(Asha 311)	151
Nokia 500	107
Nokia 501.1(Asha 501.1)	1
Nokia 5130(XpressMusic)	6
Nokia 515.2	1
Nokia 5230(Nuron)	5
Nokia 5233	16
Nokia 5250	5
Nokia 530(Lumia 530)	394
Nokia 5530(5530 XpressMusic)	3
Nokia 5800 XpressMusic(5800 XpressMusic)	28
Nokia 603	69
Nokia 6120 classic	86
Nokia 6280	214
Nokia 6303(Classic)	13
Nokia 6303i classic(Classic)	30
Nokia 640(Lumia 640 LTE)	16
Nokia 640 XL(Lumia 640 XL)	22
Nokia 640 XL(Lumia 640 XL LTE)	1
Nokia 6500s(Slide)	1
Nokia 6680	3
Nokia 6720	2
Nokia 700	100
Nokia 701	83
Nokia 7020	2
Nokia 7230	6
Nokia 7610	9
Nokia Asha 202(Asha 202)	2
Nokia Asha 203(Asha 203)	1
Nokia Asha 210.3(Asha 210)	3
Nokia Asha 300(Asha 300)	5
Nokia Asha 302(Asha 302)	162
Nokia Asha 303(Asha 303)	66
Nokia Asha 500	17
Nokia Asha 503s	42
Nokia C1-01	28
Nokia C2-01	101
Nokia C2-02	20
Nokia C2-03	20
Nokia C2-05	16
Nokia C2-06	22
Nokia C3-00	169
Nokia C3-01	8
Nokia C5-00(C5)	38
Nokia C5-03(C5)	20
Nokia C6-01	19
Nokia C7-00(Astound)	45
Nokia E52	6
Nokia E5	55
Nokia E6-00(E6)	16
Nokia E63	30
Nokia E7-00	11
Nokia E71	55
Nokia E72	26
Nokia Lumia 1320	46
Nokia Lumia 430	282
Nokia Lumia 435	242
Nokia Lumia 505	117
Nokia Lumia 510	97
Nokia Lumia 520	764
Nokia Lumia 521	32
Nokia Lumia 525	10
Nokia Lumia 535 Dual Sim	16
Nokia Lumia 610	355
Nokia Lumia 620	36
Nokia Lumia 625	87
Nokia Lumia 630	210
Nokia Lumia 635	95
Nokia Lumia 710	143
Nokia Lumia 720(Lumia 720)	21
Nokia Lumia 730	24
Nokia Lumia 735	2
Nokia Lumia 800	30
Nokia Lumia 820	79
Nokia Lumia 822	24
Nokia Lumia 900	13
Nokia Lumia 920(Lumia 920)	47
Nokia Lumia 925(Lumia 925)	7
Nokia Lumia 930	23
Nokia N72	8
Nokia N8-00(N8)	208
Nokia N9	20
Nokia N95 8GB	4
Nokia N97	10
Nokia Nokia Asha 201(Asha 201)	23
Nokia RM-1099(Lumia 430)	1
Nokia X2-00	29
Nokia X2-01	168
Nokia X2-02	52
Nokia X2-05	4
Nokia X2DS	67
Nokia X3-00	2
Nokia X3-02	13
Nokia X	321
Nokia X7-00(X7)	2
Nokia XL-103Q(XL)	38
Nokia XL	249
NYX Fly	32
NYX Fly II	99
NYX Fly Mini	394
NYX JOIN	520
NYX NOBA II	73
Nyx Orbis	122
NYX SKY HD	57
NYX Vox	9
NYX Zeuz HD	83
O+ 360	24
O+ 360 Alpha	15
O+ 8.36z	23
O+ 8.92	3
OK Mobile K5	8
Ole MP145 3G(Eclipse)	5
OnePlus A0001(One)	18
OnePlus A3003(3)	10
OnePlus E1003(X)	263
OnePlus ONE A2003(2)	3
O+ O+ 8.38z	21
Opera Mini 1	47
Opera Mini 4	36464
Opera Mini 5.1	13
Opera Mini 5	42659
Opera Mini 6	5438
Opera Mini 7	3179
Opera Mobi for Android	123
Opera Opera for Series 60	35
OPPO 1206(Neo 5s)	5
OPPO 3001	4
OPPO A11w(Joy 3)	89
OPPO A1601(F1s)	18
OPPO A33f	22
Oppo A33fw Neo 7S	10
OPPO A33w(Neo 7)	38
OPPO A37f	53
OPPO F1f	18
OPPO Neo R831	25
OPPO R1001(Joy)	232
OPPO R1011(Joy Plus)	68
OPPO R2001(YoYo)	47
OPPO R7kf(R7 Lite)	28
OPPO R8113(Piano)	19
OPPO R815(Real)	19
OPPO R817(R817 Real)	2
OPPO R821(Find Muse)	8
OPPO R827(Find 5)	8
OPPO R831K(Neo 3)	72
OPPO R831L	14
OPPO R833T(Real)	9
OPPO X9006	2
Opsson IDO 5000	15
Opsson IVO 6622	4
Opsson IVO 6677	2
Orange Z10	12
Otium Z4	184
Oukitel K4000	19
OWN S3000D	97
ÖWN S3001D	75
ÖWN S3010	17
ÖWN S3010D(For Entel)	2
OWN S3020D	7
ÖWN S4025	2
ÖWN S4035 4G	5
Panasonic i2(Eluga i2)	88
Panasonic P55	7
Pantech A860(Vega No. 6)	53
Pantech IM-A760S(SKY Vega Racer (SKT))	9
Pantech IM-A840S(Vega S5)	3
Pantech IM-A850K(Vega R3)	4
Pantech IM-A870S	5
Pantech IM-T100K(Vega No 5)	2
Pantech P6030(Renue)	9
Pantech P9020	2
Philips S307(Xenium S307)	1
Pioneer P1	3
PiPO M1(Max M1)	135
PiPO W4	4
Pixel P50	4
Playphone C570	105
Plum Z514(Might Pro)	3
Plum Z621	3
Polaroid A7	3
Polaroid P5005A(Turbo C5)	77
Polaroid PMID703GK	8
Polaroid PMID704GK	14
Polaroid PSPC505(Cosmo C505)	313
Polaroid PSPC550	44
Polaroid PSPT350	446
Polaroid PSPT401(Turbo 401)	104
Polytron R2452(Rocket)	18
Polytron W7550 LITE	12
Posh Mobile C353A(Primo Plus)	18
Posh Mobile Orion Max X550A	4
Posh Mobile S500A(Revel)	3
Posh Mobile S510A(Icon S510)	5
Posh Mobile X510B(Revel Pro)	2
Posh Mobile X510(Revel Pro)	14
Positivo X400	3
Powerlead M776G4	3
Premier TAB-5743-8G3G	10
Prestigio PAP3350DUO(MultiPhone 3350 DUO)	4
Prestigio PAP3540DUO(MultiPhone 3540 Duo)	10
Prestigio PMT5001 3G	5
Proline H10882M	6
Proline XM-502	6
Pulsare 777	84
QMobile A120	10
QMobile A1	9
QMobile A20(Noir A20)	5
QMobile A290	43
QMobile A30	16
QMobile A35(Noir)	8
QMobile A600(Noir A600)	32
QMobile A75(Noir A75)	13
QMobile A8(Noir A8)	8
QMobile A900	8
QMobile i10	3
QMobile i12	11
QMobile i2	66
QMobile i4	14
QMobile i5i	33
QMobile i5(Noir 3G)	82
QMobile i6i(Noir i6i)	237
QMobile i6 Metal ONE	25
QMobile i7	4
QMobile i7i	90
QMobile i9	10
QMobile Linq L10	10
QMobile LINQ X100	25
QMobile Linq X70	34
QMobile LT-150	16
QMobile M350	21
QMobile M82i	23
QMobile M88(Nitro Pro M88)	8
QMobile M90	8
QMobile M95	37
QMobile M99	14
QMobile Magnus X2 Music	45
QMobile Magnus X6i	99
QMobile Noir A50	18
QMobile Noir X11	60
QMobile Noir X200	13
QMobile Noir X35	55
QMobile Noir X5	22
QMobile Noir X6	7
QMobile Q850	10
QMobile QTab Q50	20
QMobile QTab Q800	2
QMobile QTab Q850	10
QMobile S1	52
QMobile S2	16
QMobile S3	31
QMobile S5	3
QMobile T250	12
QMobile T480 Bolt	18
QMobile T50(Bolt)	97
QMobile T5(Bolt)	67
QMobile W50	53
QMobile X10	30
QMobile X150	6
QMobile X250	3
QMobile X25	46
QMobile X2i	104
QMobile X2(Noir)	10
QMobile X30	142
QMobile X32	35
QMobile X450	15
QMobile X500	29
QMobile X700i(Noir Titan)	18
QMobile X70	9
QMobile X80	104
QMobile X90	30
QMobile Z10(Noir)	3
QMobile Z8	18
Qnet Mobile Luxgen	3
Quick QS401	2
RCA Viking Pro 10	7
Revel R.45	40
RIM BlackBerry 8520(Curve 8520)	4
RIM BlackBerry 9220(Curve 9220)	49
RIM BlackBerry 9300(Curve 3G)	5
RIM BlackBerry 9320(BlackBerry Curve 9320)	121
RIM BlackBerry 9360(Curve 9360)	11
RIM BlackBerry 9380(Curve 9380)	9
RIM BlackBerry 9620(Patagonia 9620)	14
RIM BlackBerry 9700(Bold 9700)	2
RIM BlackBerry 9720(Samoa)	11
RIM BlackBerry 9780(Bold 9780)	18
RIM BlackBerry 9790(BlackBerry Bold 9790)	15
RIM BlackBerry 9810(Torch 4G)	57
RIM Blackberry 9860(Torch 9860)	2
RIM Blackberry 9900(Bold Touch 9900)	33
RIM PlayBook	4
Rivo Phantom PZ10	25
Rivo PHANTOM PZ18	3
Rivo Rhythm RX40(Rhythm RX40)	96
Rivo Rhythm RX80	14
Samsung C3053	11
Samsung Galaxy Nexus	22
Samsung GT-3770M(Champ 3.5G)	16
Samsung GT-B2700	4
Samsung GT B3210(CorbyTXT)	4
Samsung GT-B5330(Galaxy Chat)	9
Samsung GT-B5330L(Galaxy Chat)	6
Samsung GT-B5510(Galaxy Y)	4
Samsung GT-B5512	4
Samsung GT B5722	4
Samsung GT-B7510(Galaxy Pro)	28
Samsung GT-B7510L(Galaxy Pro)	18
Samsung GT-B7722	15
Samsung GT-C3200	17
Samsung GT-C3222	18
Samsung GT-C3262	33
Samsung GT C3300K	9
Samsung GT-C3303	22
Samsung GT-C3303K	7
Samsung GT-C3310(Rex 60 Duos)	5
Samsung GT-C3312(Rex 60 Duos)	111
Samsung GT-C3312R(Rex 60 Duos)	7
Samsung GT-C3322i(Metro Duos)	24
Samsung GT-C3520	10
Samsung GT-C3592	17
Samsung GT-E1282T	8
Samsung GT-E2152	5
Samsung GT-E2202	161
Samsung GT-E2220(Chat 222)	213
Samsung GT-E2222	32
Samsung GT-E2232	7
Samsung GT-E2652W	22
Samsung GT-E3210	5
Samsung GT-I435(Galaxy S4 Mini)	3
Samsung GT-i5500(Galaxy 5)	4
Samsung GT i5700(Galaxy Spica)	16
Samsung GT-I5800L(Apollo)	11
Samsung GT-I8150(Galaxy W)	5
Samsung GT-I8160(Galaxy Ace 2)	93
Samsung GT-I8160P(Galaxy Ace 2)	2
Samsung GT-I8190(Galaxy S III Mini)	403
Samsung GT-I8190L(Galaxy S III Mini)	378
Samsung GT-I8190N(Galaxy S III Mini)	116
Samsung GT-I8200L(Galaxy S III Mini Value Edition)	29
Samsung GT-I8200N(S III mini)	375
Samsung GT-I8260(Galaxy Core)	2
Samsung GT-I8260L(Galaxy Core)	9
Samsung GT-I8262B(Galaxy Duos)	6
Samsung GT-I8262(Galaxy Duos)	234
Samsung GT-i8350(Omnia W)	3
Samsung GT-I8552B(Galaxy Grand Quattro)	136
Samsung GT-I8552(Galaxy Grand Quattro)	117
Samsung GT-I8730(Galaxy Express)	8
Samsung GT-I9000(Galaxy S)	64
Samsung GT-I9001(Galaxy S Plus)	15
Samsung GT-I9003(Galaxy SL)	14
Samsung GT-I9060C(Galaxy Grand Neo)	81
Samsung GT-I9060(Galaxy Grand Neo)	276
Samsung GT-I9060I(Galaxy Grand Neo)	555
Samsung GT-I9060L(Galaxy Grand Neo)	21
Samsung GT-I9060M(Galaxy Grand Neo Plus)	90
Samsung GT-I9070(Galaxy S Advance)	36
Samsung GT- I9080(Galaxy Grand)	19
Samsung GT- I9080L(Galaxy Grand)	6
Samsung GT-I9082(Galaxy Grand Duos)	312
Samsung GT-I9082L(Galaxy Grand Duos)	2
Samsung GT-I9100(Galaxy S II)	422
Samsung GT-I9100G(Galaxy S II)	12
Samsung GT-I9100P(Galaxy S II NFC)	2
Samsung GT-I9100T(Galaxy S II)	5
Samsung GT-I9105(Galaxy SII Plus)	61
Samsung GT-I9105P(Galaxy SII Plus)	275
Samsung GT-I9128(Galaxy Grand)	4
Samsung GT-I9152(Galaxy Mega 5.8)	20
Samsung GT-I9190(Galaxy S4 Mini)	282
Samsung GT-I9192(Galaxy S4 Mini)	167
Samsung GT-I9195(Galaxy S4 Mini)	84
Samsung GT-I9195L(Galaxy S4 Mini)	122
Samsung GT-I9200(Galaxy Mega 6.3)	35
Samsung GT-I9205(Galaxy Mega 6.3)	17
Samsung GT-I9300(Galaxy S III)	1269
Samsung GT-I9300I(Galaxy S III)	74
Samsung GT-I9300T(Galaxy S III)	7
Samsung GT-I9301I(Galaxy S III Neo+)	955
Samsung GT-I9305(Galaxy S III)	34
Samsung GT-I9500(Galaxy S4)	762
Samsung GT-I9505(Galaxy S4)	385
Samsung GT-I9515(Galaxy S4)	74
Samsung GT-N5100(Galaxy Note 8.0)	43
Samsung GT-N7000(Galaxy Note)	110
Samsung GT-N7100(Galaxy Note II)	192
Samsung GT-N7105(Galaxy Note II)	26
Samsung GT-N8000(Galaxy Note 10.1)	22
Samsung GT-P1000(Galaxy Tab)	33
Samsung GT-P3100(Galaxy Tab 2 7.0)	54
Samsung GT-P3110(Galaxy Tab 2 7.0)	7
Samsung GT-P3113(Galaxy Tab 2 7.0)	6
Samsung GT-P5100(Galaxy Tab 2 10.1)	28
Samsung GT-P5110(Galaxy Tab 2 10.1)	4
Samsung GT-P5200(Galaxy Tab 3 10.1 3G)	16
Samsung GT-P5210(Galaxy Tab 3 10.1)	3
Samsung GT-P5210(Galaxy Tab 3 10.1 3G)	8
Samsung GT-P5220(Galaxy Tab 3 10.1 LTE)	7
Samsung GT-P7300(Galaxy Tab 8.9)	1
Samsung GT-P7500(Galaxy Tab 10.1)	2
Samsung GT-P7500M(Galaxy Tab 10.1)	13
Samsung GT-S3350	22
Samsung GT-S3570(Ch@t)	13
Samsung GT-S3778V	90
Samsung GT-S3850	24
Samsung GT-S5222(Star III Duos)	8
Samsung GT-S5230(Star)	8
Samsung GT S5233A(Star)	5
Samsung GT-S5233T	13
Samsung GT-S5250(Wave 2)	8
Samsung GT-S5270L(Ch@t 527)	14
Samsung GT-S5280(Galaxy Star)	141
Samsung GT-S5282(Galaxy Star)	63
Samsung GT-S5300B(Galaxy Pocket)	38
Samsung GT-S5300(Galaxy Pocket)	225
Samsung GT-S5300L(Galaxy Pocket)	2
Samsung GT-S5301(Galaxy Pocket Plus)	310
Samsung GT-S5301L(Galaxy Pocket Plus)	61
Samsung GT-S5302(Galaxy Pocket Duos)	7
Samsung GT-S5303(Galaxy Y Plus)	10
Samsung GT-S5310B(Galaxy Pocket Neo)	22
Samsung GT-S5310(Galaxy Pocket Neo)	169
Samsung GT-S5310I(Galaxy Pocket Neo)	394
Samsung GT-S5310L(Galaxy Pocket Neo)	947
Samsung GT-S5310M(Galaxy Pocket Neo)	4
Samsung GT-S5312(Galaxy Pocket Neo)	78
Samsung GT-S5360B(Galaxy Y)	93
Samsung GT-S5360(Galaxy Y)	782
Samsung GT-S5360L(Galaxy Y)	568
Samsung GT-S5360T(Galaxy Y)	17
Samsung GT-S5367(Galaxy Y TV)	7
Samsung GT-S5369(Galaxy Y)	11
Samsung GT-S5570B(Galaxy Mini)	2
Samsung GT-S5570(Galaxy Mini)	278
Samsung GT-S5570I(Galaxy Pop Plus)	7
Samsung GT-S5570L(Galaxy Mini)	28
Samsung GT S5603	3
Samsung GT-S5610K(Primo)	11
Samsung GT-S5611	3
Samsung GT S5620	6
Samsung GT-S5660(Galaxy Gio)	64
Samsung GT-S5670(Galaxy Fit)	44
Samsung GT-S5690L(Xcover)	4
Samsung GT-S5690(Xcover)	13
Samsung GT-S5830(Galaxy Ace)	83
Samsung GT-S5830i(Galaxy Ace)	164
Samsung GT-S5830L(Galaxy Ace)	214
Samsung GT-S5830M(Galaxy Ace)	464
Samsung GT-S5830V(Galaxy Ace)	12
Samsung GT-S5839i(Galaxy Ace)	39
Samsung GT-S6010(Galaxy Music)	30
Samsung GT-S6012(Galaxy Music Duos)	25
Samsung GT-S6102(Galaxy Y Duos)	63
Samsung GT-S6310(Galaxy Young)	96
Samsung GT-S6310N(Galaxy Young)	78
Samsung GT-S6312(Galaxy Young)	33
Samsung GT-S6312L(Galaxy Young)	33
Samsung GT-S6500D(Galaxy Mini 2)	4
Samsung GT-S6500(Galaxy Mini 2)	4
Samsung GT-S6500L(Galaxy Mini 2)	20
Samsung GT-S6790(Galaxy Fame Lite)	161
Samsung GT-S6790L(Galaxy Fame Lite)	5
Samsung GT-S6790N(Galaxy Fame Lite)	4
Samsung GT-S6792L(Galaxy Fame Lite Duos)	4
Samsung GT-S6802(Galaxy Ace Duos)	6
Samsung GT-S6810(Galaxy Fame)	55
Samsung GT-S6810L(Galaxy Fame)	63
Samsung GT-S6810M(Galaxy Fame)	520
Samsung GT-S6810P(Galaxy Fame)	77
Samsung GT-S7262(Galaxy Star S7262)	649
Samsung GT-S7270(Galaxy Ace 3)	91
Samsung GT-S7270L(Galaxy Ace 3)	60
Samsung GT-S7272(Galaxy Ace 3)	14
Samsung GT-S7275B(Galaxy Ace 3)	21
Samsung GT-S7275R(Galaxy Ace 3)	14
Samsung GT-S7390	23
Samsung GT-S7390G	20
Samsung GT-S7390L	6
Samsung GT-S7392(Galaxy Trend)	91
Samsung GT-S7392L(Galaxy Trend)	10
Samsung GT-S7500(Galaxy Ace Plus)	59
Samsung GT-S7500L(Galaxy Ace Plus)	187
Samsung GT-S7560(Galaxy Ace II x)	19
Samsung GT-S7560M(Galaxy Ace II x)	54
Samsung GT-S7562(Galaxy S Duos)	548
Samsung GT-S7562i(Galaxy Trend Duos)	99
Samsung GT-S7562L(Galaxy S Duos)	8
Samsung GT-S7580L(Trend Plus)	49
Samsung GT-S7580(Trend Plus)	223
Samsung GT-S7582(Galaxy S Duos 2)	1188
Samsung GT-S7582L(Galaxy S Duos 2)	56
Samsung GT-S7582(Trend Plus)	126
Samsung GT-S7583T(Trend Plus)	3
Samsung GT-S7710(Galaxy Xcover 2)	10
Samsung GT S8500(Wave)	11
Samsung GT-S8530(Wave 2)	4
Samsung I9506(Galaxy S4)	7
Samsung N9106(Galaxy Tab 10.1)	9
Samsung S3330(Ch@t)	6
Samsung SC-02B(Galaxy S SC-02B for DoCoMo)	3
Samsung SC-02C(Galaxy S II SC-02C for DoCoMo)	12
Samsung SC-03D(GALAXY S II LTE SC-03D for DoCoMo)	5
Samsung SC-03E(Galaxy S III)	3
Samsung SC-04E(Galaxy S4)	4
Samsung SC-04F(S5 LTE-A)	2
Samsung SC-06D(Galaxy S III)	7
Samsung SCH-I435(Galaxy S4 Mini)	6
Samsung SCH-I535(Galaxy S III)	80
Samsung SCH i545(Galaxy S4)	45
Samsung SCH-I605(Galaxy Note II)	13
Samsung SCH-I747(Galaxy S III)	4
Samsung SCH-I747M(Galaxy S III)	63
Samsung SCH I869	2
Samsung SCH-M919(Galaxy S4)	14
Samsung SCH-R720(Admire)	2
Samsung SGH A837(Rugby)	1
Samsung SGH-A847(Rugby II)	3
Samsung SGH-D780	3
Samsung SGH-E370	1
Samsung SGH F480i	4
Samsung SGH-I317(Galaxy Note II 4G LTE)	9
Samsung SGH-I317(Galaxy Note II)	8
Samsung SGH-I337(Galaxy S4)	31
Samsung SGH-I337M(Galaxy S4)	53
Samsung SGH-I337Z(Galaxy S4)	12
Samsung SGH-I527(Galaxy Mega 6.3)	16
Samsung SGH-I537(Galaxy S4 Active)	26
Samsung SGH-I537(S 4 Active)	6
Samsung SGH-I547(Galaxy Rugby Pro)	8
Samsung SGH-i667(Focus 2)	25
Samsung SGH-I727(Galaxy S II Skyrocket)	10
Samsung SGH-I747(Galaxy S III)	8
Samsung SGH-I777(Galaxy S II)	3
Samsung SGH-I857(DoubleTime)	11
Samsung SGH-I897(Galaxy S Captivate)	7
Samsung SGH-I927(Captivate Glide)	2
Samsung SGH-i927R(Captivate Glide)	5
Samsung SGH-I997(Infuse)	8
Samsung SGH-I997R(Infuse)	7
Samsung SGH-L700	1
Samsung SGH-M819N(Galaxy Mega 6.3)	58
Samsung SGH-M919V(Galaxy S4)	6
Samsung SGH-S100	7
Samsung SGH-S730G(Galaxy Discover)	14
Samsung SGH-S730M(Galaxy Discover)	14
Samsung SGH-T399(Galaxy Light)	41
Samsung SGH-T399N(Galaxy Light)	15
Samsung SGH-T479(Gravity 3)	1
Samsung SGH-T589(Gravity Smart)	6
Samsung SGH T599N(Galaxy Exhibit)	147
Samsung SGH-T759(Exhibit 4G)	4
Samsung SGH-T769(Galaxy S Blaze 4G)	36
Samsung SGH-T889(Galaxy Note II)	12
Samsung SGH-T959V(Galaxy S)	9
Samsung SGH-T959(Vibrant)	32
Samsung SGH-T989(Galaxy SII)	47
Samsung SGH-T999(Galaxy S III)	33
Samsung SHV-E110S(Galaxy S II LTE)	10
Samsung SHV-E120K(Galaxy SII HD)	3
Samsung SHV-E160L(Galaxy Note)	14
Samsung SHV-E160S(Galaxy Note)	4
Samsung SHV-E170K(Galaxy R)	8
Samsung SHV-E210K(Galaxy S III)	8
Samsung SHV-E210S(Galaxy S III)	4
Samsung SHV-E220S(Galaxy Pop)	13
Samsung SHV-E250K(Galaxy Note II)	61
Samsung SHV-E250L(Galaxy Note II)	6
Samsung SHV-E250S(Galaxy Note II)	19
Samsung SHV-E270S(Galaxy Grand)	20
Samsung SHV-E300L(Galaxy S4)	2
Samsung SHV-E330S(Galaxy S4)	53
Samsung SHW-M110S(Galaxy S)	18
Samsung SHW-M180S(GALAXY Tab (SKT))	10
Samsung SM-A300F(Galaxy A3)	65
Samsung SM-A300FU(Galaxy A3)	28
Samsung SM-A300H(Galaxy A3)	193
Samsung SM-A310F(Galaxy A3)	77
Samsung SM-A5000(Galaxy A5)	6
Samsung SM-A500F(Galaxy A5)	25
Samsung SM-A500G(Galaxy A5)	2
Samsung SM-A500H(Galaxy A5 Duos)	200
Samsung SM-A500M(Galaxy A5)	6
Samsung SM-A510F(Galaxy A5 2016 Duos)	141
Samsung SM-A7000(Galaxy A7 Duos)	3
Samsung SM-A700FD(Galaxy A7)	18
Samsung SM-A700H(Galaxy A7 Duos)	4
Samsung SM-A700YD(Galaxy A7)	10
Samsung SM-A710F(Galaxy A7 Duos)	43
Samsung SM-A8000(Galaxy A8)	3
Samsung SM-A800F(Galaxy A8)	12
Samsung SM-B312E	31
Samsung SM-B350E(Metro B350E)	121
Samsung SM-B360E	14
Samsung SM-C101(GALAXY S4 Zoom)	3
Samsung SM-C105(Galaxy S4 Zoom)	2
Samsung SM-C111(Galaxy K Zoom)	9
Samsung SM-C115(Galaxy K Zoom)	3
Samsung SM-E500F(Galaxy E5)	2
Samsung SM-E500H(Galaxy E5)	77
Samsung SM-E700H(Galaxy E7)	5
Samsung SM-G110H(Galaxy Pocket 2 Duos)	11
Samsung SM-G110M(Galaxy Pocket 2 Duos)	32
Samsung SM-G130E(Galaxy Young 2 Duos)	9
Samsung SM-G130H(Galaxy Young 2 Duos)	259
Samsung SM-G130HN(Galaxy Young 2 Duos)	45
Samsung SM-G130M(Galaxy Young 2 Duos)	14
Samsung SM-G3131F(Galaxy Ace 4 LTE)	12
Samsung SM-G313H(Galaxy Ace NXT)	271
Samsung SM-G313HU(Galaxy Ace NXT)	78
Samsung SM-G313HZ(Galaxy Ace NXT)	360
Samsung SM-G313M(Galaxy Ace NXT)	84
Samsung SM-G313MU(Galaxy Ace NXT)	590
Samsung SM-G316HU(Gakaxy S Duos 3)	113
Samsung SM-G316M(Gakaxy S Duos 3)	143
Samsung SM-G316ML(Gakaxy S Duos 3)	53
Samsung SM-G318H(Galaxy Ace 4 Neo)	638
Samsung SM-G318HZ(Galaxy Ace 4 Neo)	167
Samsung SM-G318ML(Galaxy Ace 4 LTE)	447
Samsung SM-G31MZ(Galaxy Ace 4 Neo)	116
Samsung SM-G3502I(Galaxy Trend 3)	4
Samsung SM-G3508(Galaxy Trend 3)	7
Samsung SM-G350E(Star 2 Plus)	365
Samsung SM-G350(Galaxy Core Plus)	13
Samsung SM-G350M(Galaxy Core Plus)	27
Samsung SM-G355H(Galaxy Core II)	377
Samsung SM-G355HN(Galaxy Core II)	2
Samsung SM-G355M(Galaxy Core II Duos)	879
Samsung SM-G357FZ(Ace Style)	38
Samsung SM-G357M(Ace Style)	15
Samsung SM-G360F(Galaxy Core Prime)	21
Samsung SM-G360H(Galaxy Core Prime)	511
Samsung SM-G360HU(Galaxy Core Prime TD-LTE)	144
Samsung SM-G360M(Galaxy Core Prime TD-LTE)	49
Samsung SM-G360T1(Galaxy Core Prime TD-LTE)	101
Samsung SM-G360T(Galaxy Core Prime TD-LTE)	5
Samsung SM-G361F(Galaxy Core Prime)	45
Samsung SM-G361H(Galaxy Core Prime TD-LTE)	530
Samsung SM-G36M(Galaxy Core Prime TD-LTE)	42
Samsung SM-G3815(Galaxy Express 2)	1
Samsung SM-G386T1(Galaxy Avant)	39
Samsung SM-G530A(Galaxy Grand Prime)	6
Samsung SM-G530AZ(Galaxy Grand Prime)	13
Samsung SM-G530F(Galaxy Grand Prime)	49
Samsung SM-G530H(Galaxy Grand Prime)	1022
Samsung SM-G530M(Galaxy Grand Prime)	20
Samsung SM-G530T1(Galaxy Grand Prime)	31
Samsung SM-G530Y(Galaxy Grand Prime)	20
Samsung SM-G531F(Galaxy Grand Prime)	49
Samsung SM-G531H(Galaxy Grand Prime)	844
Samsung SM-G531H(Galaxy Grand Prime Value Edition)	579
Samsung SM-G531Y(Galaxy Grand Prime)	28
Samsung SM-G5500(On5)	5
Samsung SM-G550T1(On5)	4
Samsung SM-G570F(J5 Prime)	4
Samsung SM-G600FY(Galaxy On7)	3
Samsung SM-G610F(J7 Prime)	31
Samsung SM-G7102(Galaxy Grand 2)	411
Samsung SM-G710(Galaxy Grand 2)	4
Samsung SM-G720AX(Galaxy Grand 3 LTE)	4
Samsung SM-G730A(Galaxy S III Mini)	28
Samsung SM-G750A(Galaxy Mega 2)	5
Samsung SM-G800A(Galaxy S5 Mini)	60
Samsung SM-G800F(Galaxy S5 mini)	15
Samsung SM-G800F(Galaxy S5 Mini)	8
Samsung SM-G800H(Galaxy S5 Mini)	40
Samsung SM-G800M(Galaxy S5 Mini)	1
Samsung SM-G850A(Galaxy Alpha)	2
Samsung SM-G850F(Galaxy Alpha)	38
Samsung SM-G870A(Galaxy S5 Active)	14
Samsung SM-G900A(Galaxy S5)	74
Samsung SM-G900AZ(Galaxy S5)	16
Samsung SM-G900FD(Galaxy S5)	90
Samsung SM-G900F(Galaxy S5)	272
Samsung SM-G900H(Galaxy S5)	349
Samsung SM-G900K/KTU1CPC2(Galaxy S5)	6
Samsung SM-G900M(Galaxy S5)	34
Samsung SM-G900P(Galaxy S5)	31
Samsung SM-G900T(Galaxy S5)	40
Samsung SM-G900V(Galaxy S5)	90
Samsung SM-G903F(Galaxy S5 Neo)	4
Samsung SM-G906K(Galaxy S5 LTE-A)	12
Samsung SM-G920F(Galaxy S6)	78
Samsung SM-G920I(Galaxy S6)	6
Samsung SM-G920P(Galaxy S6)	39
Samsung SM-G920V(Galaxy S6)	7
Samsung SM-G925F(Galaxy S6 Edge)	83
Samsung SM-G928A(Galaxy S6 Edge Plus)	4
Samsung SM-G928C(Galaxy S6 Edge Plus)	6
Samsung SM-G928F(Galaxy S6 Edge Plus)	74
Samsung SM-G930A(Galaxy S7)	10
Samsung SM-G930F(Galaxy S7)	9
Samsung SM-G930T(Galaxy S7)	4
Samsung SM-G935F(Galaxy S7 Edge)	27
Samsung SM-J100F(Galaxy J1)	38
Samsung SM-J100H(Galaxy J1)	1037
Samsung SM-J100M(Galaxy J1)	108
Samsung SM-J100ML(Galaxy J1)	515
Samsung SM-J100MU(Galaxy J1)	27
Samsung SM-J100Y(Galaxy J1)	8
Samsung SM-J105B(J1 mini)	496
Samsung SM-J105F(J1 mini)	125
Samsung SM-J105H(J1 mini)	91
Samsung SM-J110F(Galaxy J1 Ace)	824
Samsung SM-J110G(Galaxy J1)	91
Samsung SM-J110H(Galaxy J1)	853
Samsung SM-J111F(Galaxy J1 Ace)	88
Samsung SM-J111M(Galaxy J1 Ace)	64
Samsung SM-J120A(Galaxy J1 2016)	9
Samsung SM-J120AZ(Galaxy J1 2016)	4
Samsung SM-J120F(Galaxy J1 2016)	55
Samsung SM-J120G(Galaxy J1 2016)	1
Samsung SM-J120H(Galaxy J1 2016)	577
Samsung SM-J120M(Galaxy J1 2016)	75
Samsung SM-J200BT(Galaxy J2 (2015))	48
Samsung SM-J200F(Galaxy J2 (2015))	201
Samsung SM-J200G(Galaxy J2 (2015))	14
Samsung SM-J200GU(Galaxy J2 (2015))	407
Samsung SM-J200H(Galaxy J2 (2015))	1112
Samsung SM-J200M(Galaxy J2 (2015))	79
Samsung SM-J210F(Galaxy J2 (2016))	16
Samsung SM-J320A(Galaxy J3 Duos)	19
Samsung SM-J320F(Galaxy J3)	31
Samsung SM-J320FN(Galaxy J3 Duos)	28
Samsung SM-J320G(Galaxy J3 Duos)	8
Samsung SM-J320H(Galaxy J3 Duos)	94
Samsung SM-J320M(Galaxy J3 Duos)	44
Samsung SM-J321AZ	6
Samsung SM-J5007(Galaxy J5)	1
Samsung SM-J500F(Galaxy J5)	189
Samsung SM-J500FN(Galaxy J5)	10
Samsung SM-J500G(Galaxy J5)	50
Samsung SM-J500H(Galaxy J5)	736
Samsung SM-J500M(Galaxy J5)	27
Samsung SM-J5108(Galaxy J5 2016)	3
Samsung SM-J510F(Galaxy J5 (2016))	18
Samsung SM-J510FN(Galaxy J5 (2016))	3
Samsung SM-J700F(Galaxy J7)	497
Samsung SM-J700H(Galaxy J7)	438
Samsung SM-J710F(Galaxy J7 (2016))	151
Samsung SM-J710GN(Galaxy J7 (2016))	6
Samsung SM-N7502(Note 3 Neo Duos)	18
Samsung SM-N7505(Note 3 Neo Duos)	27
Samsung SM-N750(Note 3 Neo Duos)	2
Samsung SM-N9005(Galaxy Note 3)	213
Samsung SM-N900A(Galaxy Note 3)	18
Samsung SM-N900(Galaxy Note 3)	64
Samsung SM-N900T(Galaxy Note 3)	91
Samsung SM-N900V(Galaxy Note 3)	44
Samsung SM-N9100(Galaxy Note 4 Dual Sim)	5
Samsung SM-N910A(Galaxy Note 4)	18
Samsung SM-N910C(Galaxy Note 4)	70
Samsung SM-N910G(Galaxy Note 4)	18
Samsung SM-N910H(Galaxy Note 4)	39
Samsung SM-N910P(Galaxy Note 4)	6
Samsung SM-N910T3(Galaxy Note 4)	10
Samsung SM-N910T(Galaxy Note 4)	2
Samsung SM-N910U(Galaxy Note 4)	5
Samsung SM-N915A(Galaxy Note Edge)	14
Samsung SM-N916L(Galaxy Note 4)	19
Samsung SM-N9208(Galaxy Note 5)	3
Samsung SM-N920A(Galaxy Note 5)	3
Samsung SM-N920C(Galaxy Note 5)	5
Samsung SM-N920G(Galaxy Note 5)	6
Samsung SM-N920V 4G(Galaxy Note 5)	7
Samsung SM-P555(Galaxy Tab A 9.7)	3
Samsung SM-T110(Galaxy Tab 3 Lite)	24
Samsung SM-T111(Galaxy Tab 3 Lite)	24
Samsung SM-T113(Galaxy Tab 3)	8
Samsung SM-T113NU(Galaxy Tab 3)	35
Samsung SM-T116BU(Galaxy Tab 3V 3G)	38
Samsung SM-T116(Galaxy Tab 3V 3G)	80
Samsung SM-T116NU(Galaxy Tab 3V 3G)	54
Samsung SM-T210(Galaxy Tab 3 7.0)	10
Samsung SM-T210R(Galaxy Tab 3 7.0)	7
Samsung SM-T211(Galaxy Tab 3 7.0 3G)	20
Samsung SM-T211(Galaxy Tab 3 7.0)	40
Samsung SM-T217A(Galaxy Tab 3 7.0)	8
Samsung SM-T217S(Galaxy Tab 3 7.0)	17
Samsung SM-T231(Galaxy Tab 4 7.0)	151
Samsung SM-T235Y(Galaxy Tab 4)	3
Samsung SM-T2397(Galaxy Tab 4 Lite)	7
Samsung SM-T285(Galaxy Tab A 7.0 LTE)	20
Samsung SM-T325(Galaxy Tab Pro 8.4)	4
Samsung SM-T331(Galaxy Tab 4 8.0)	4
Samsung SM-T531(Galaxy Tab 4 10.1)	24
Samsung SM-T535(Galaxy Tab 4 10.1)	24
Samsung SM-T555(Galaxy Tab A 9.7)	4
Samsung SM-T561(Galaxy Tab E)	96
Samsung SM-Z130H(Z1)	56
Samsung SM-Z200Y(Z2)	44
Samsung SPH-L720(Galaxy S4)	16
Samsung T599(Galaxy Exhibit)	50
Selecline 854599	1
Selfix EC713(Metal)	30
Sendtel Bang 2	6
Sendtel Bang	4
Sendtel Rocket	22
Sendtel Wink	19
Sendtel Wise Evolution(Wise Evolution)	8
Sendtel Wise+(Wise+)	43
Senwa S605	75
Senwa S615	21
Senwa V705B	4
SFR STARXTREM II	25
Sharp SH631W	9
Shenzhen 360Navi V552015	23
Sinotec M735	6
Sinotec S7200	24
SKK chronos_ace	10
Sky Devices 4.0D(4.0D)	2
Sky Devices 5.0LM	90
Sky Devices 5.0W	22
Sky Devices 6.0Q	7
Sky Devices IM-T100K/2.21(Vega No 5)	2
Smartfren AD681H(Andromax AD681H)	2
Smartfren AD688G(Andromax C2)	3
SmartQ T20	3
Snokor Z5000(Rocket)	23
Softbank 001DL(Dell Streak 5)	6
Solone A47	3
Solone S4001(GREK)	64
Solone SL-K40	50
Solone SL-KA4	20
Solone SL-KA4 Plus(KA4 PLus)	4
Solone SL-SA4C	5
Solone SL-SA5	2
Solotab S7	6
Sony C1504(Xperia E)	1038
Sony C1505(Xperia E)	44
Sony C1604(Xperia E Dual)	12
Sony C1605(Xperia E Dual)	5
Sony C1904(Xperia M)	110
Sony C1905(Xperia M)	24
Sony C2004(Xperia M)	2
Sony C2005(Xperia M)	10
Sony C2104(Xperia L)	188
Sony C2105(Xperia L)	33
Sony C2305(Xperia C)	39
Sony C5302(Xperia SP)	17
Sony C5303(Xperia SP)	18
Sony C5306(Xperia SP LTE)	76
Sony C5503(Xperia ZR)	9
Sony C6503(Xperia ZL)	19
Sony C6506(Xperia ZL)	5
Sony C6616(Xperia Z)	47
Sony C6883(Xperia Z Ultra)	12
Sony C6902(Xperia Z1)	49
Sony C6903(Xperia Z1)	72
Sony C6906(Xperia Z1)	9
Sony D2004(Xperia E1)	463
Sony D2005(Xperia E1)	189
Sony D2203(Xperia E3)	24
Sony D2206(Xperia E3)	19
Sony D2302(Xperia M2 Dual)	11
Sony D2303(Xperia M2)	14
Sony D2306(Xperia M2)	69
Sony D2403(Xperia M2 Aqua)	20
Sony D2406(Xperia M2 Aqua)	16
Sony D2502(Xperia C3)	38
Sony D5102(Xperia T3)	14
Sony D5103(Xperia T3)	6
Sony D5306(Xperia T2 Ultra)	138
Sony D5316(Xperia T2 Ultra)	19
Sony D5322(Xperia T2 Ultra)	2
Sony D5503(Xperia Z1 Compact)	54
Sony D5803(Xperia Z3 Compact)	4
Sony D6502(Xperia Z2)	43
Sony D6503(Xperia Z2)	35
Sony D6603(Xperia Z3)	16
Sony E2003(Xperia E4g)	65
Sony E2006(Xperia E4g)	21
Sony e2104(Xperia E4)	59
Sony E2105(Xperia E4)	4
Sony E2115(Xperia E4)	24
Sony E2303(Xperia M4 Aqua)	9
Sony E2306(Xperia M4 Aqua)	76
Sony E2333(Xperia M4 Aqua Dual)	10
Sony E2353(Xperia M4 Aqua)	6
Sony E2363(Xperia M4 Aqua Dual)	3
Sony E5306(Xperia C4)	16
Sony E5333(Xperia C4 Dual)	12
Sony E5506(C5 Ultra)	24
Sony E6603(Xperia Z5)	19
Sony E6833(Experia Z5 Premium)	3
SonyEricsson C510a	5
SonyEricsson C6603(Xperia Z)	23
SonyEricsson C702	2
SonyEricsson CK13i(TXT)	7
SonyEricsson CK15i	4
SonyEricsson E10a(Xperia X10 Mini)	7
SonyEricsson E10a(Xperia X10 Mini pro)	13
SonyEricsson E10i(Xperia X10 Mini)	54
SonyEricsson E15a(Xperia X8)	70
SonyEricsson E15i(Xperia X8)	25
SonyEricsson E16i(Walkman 8)	9
SonyEricsson IS11S(Xperia acro)	9
SonyEricsson J108a(Cedar)	12
SonyEricsson J108i	11
SonyEricsson J10i2(Elm)	5
SonyEricsson K530i	1
SonyEricsson K700c	14
SonyEricsson K770i	3
SonyEricsson LT15i(Xperia Arc)	43
SonyEricsson LT18a(Xperia Arc)	3
SonyEricsson LT18i(Xperia Arc)	179
SonyEricsson LT22i(Xperia P LT22i)	48
SonyEricsson LT26i(Xperia Arc HD)	62
SonyEricsson LT28i(Xperia Ion)	12
SonyEricsson MK16i(Xperia Pro)	2
SonyEricsson MT11i(Xperia Neo V)	21
SonyEricsson MT15a(Xperia Neo)	11
SonyEricsson MT15i(Xperia Neo)	11
SonyEricsson MT25i(Xperia neo L)	9
SonyEricsson SK17a(Xperia Mini Pro)	13
SonyEricsson SO-01B(Xperia SO-01B for DoCoMo)	16
SonyEricsson ST15a(Xperia Mini)	13
SonyEricsson ST15i(Xperia Mini)	7
SonyEricsson ST18a(Urushi)	21
SonyEricsson ST18i(Urushi)	29
SonyEricsson ST25a(Xperia U)	11
SonyEricsson ST25i(Xperia U)	30
SonyEricsson ST27a(Xperia Go)	73
SonyEricsson ST27i(Xperia Go)	15
SonyEricsson U20i(Xperia X10 Mini pro)	8
SonyEricsson W508a	5
SonyEricsson W595	9
SonyEricsson W705a	6
SonyEricsson WT19a(Live)	11
SonyEricsson WT19i(Live)	24
SonyEricsson X10a(Xperia X10)	12
SonyEricsson X10i(Xperia X10)	15
SonyEricsson X10(Xperia X10)	1
Sony F3313(Xperia E5)	27
Sony LT25i(Xperia V)	14
Sony LT29i(Xperia GX)	20
Sony LT30a(Xperia T)	22
Sony LT30p(Xperia T)	25
Sony PlayStation Vita	6
Sony S55t(Xperia C3)	3
Sony SGP321(Xperia Tablet Z LTE)	7
Sony ST21a(Xperia Tipo)	112
Sony ST21i2(Xperia Tipo Dual)	5
Sony ST21i(Xperia Tipo)	23
Sony ST23a(Xperia miro)	104
Sony ST23i(Xperia miro)	12
Sony ST26a(Xperia J)	181
Sony ST26i-o(Xperia J)	9
Sony ST26i(Xperia J)	58
Sony XM50t(Xperia T2 Ultra)	5
Sony xperia c3	1
Sony Xperia C6906(Xperia Z1)	28
Sony Xperia D6633(Xperia Z3 Dual)	8
Sony Xperia D6653(Xperia Z3)	58
Sony Xperia E3	6
Sony Xperia Z1	6
Sony Xperia Z3	60
Spice Mi-349(Smart Flo)	18
Spreadtrum 6530	7
Star i6	11
Starmobile Play	16
Starmobile PLAY Click	226
Starmobile Play Neo	20
Starmobile Play Spark	54
Starmobile UP Lite	114
Starmobile Vida	2
Star N9330(Note 2)	16
Star P8 Plus	5
Startimes Solar 5	12
Star W450	27
STF Slay	30
Stuffactory Spirit Plus	19
Stylus M7023G(ETAB M7023G)	115
Sunsky P5	14
Symphony E12	67
Symphony E58	79
Symphony E60	29
Symphony E75	33
Symphony E78	72
Symphony E79	68
Symphony Explorer W22	34
Symphony Explorer W71i	60
Symphony H100	3
Symphony H175	63
Symphony H250	9
Symphony H520(Xplorer H520)	13
Symphony H58	15
Symphony H60	94
Symphony i10	115
Symphony Play W17	8
Symphony Roar A50	19
Symphony Roar V25	54
Symphony T7 Pro	34
Symphony V30	69
Symphony V40(Xplorer V40)	50
Symphony V46	20
Symphony V49	168
Symphony V55 Xplorer	2
Symphony V60	96
Symphony V75	191
Symphony W130	70
Symphony W150	2
Symphony W18	9
Symphony W65	6
Symphony W65i	38
Symphony W66	4
Symphony W68Q(Xplorer)	4
Symphony W68(Xplorer)	112
Symphony W72	8
Symphony W91	1
Symphony W94	2
Symphony Xplorer E10	33
Symphony Xplorer E76	47
Symphony Xplorer H50	6
Symphony Xplorer P6 PRO	26
Symphony Xplorer V28	70
Symphony Xplorer V45	21
Symphony Xplorer V52	40
Symphony xplorer V80	250
Symphony Xplorer V85	95
Symphony Xplorer W16	45
Symphony Xplorer W21	15
Symphony Xplorer W31	36
Symphony Xplorer W32	28
Symphony Xplorer W35	27
Symphony Xplorer W67	36
Symphony Xplorer W68Q	37
Symphony Xplorer W69	15
Symphony Xplorer W69Q	95
Symphony Xplorer W70Q	30
Symphony Xplorer W71	10
Symphony Xplorer w72 MT6572/V1	106
Symphony Xplorer W75	19
Symphony Xplorer W82	23
Symphony Xplorer W85	12
Symphony Xplorer W95	2
Symphony Xplorer ZV	9
Symphony ZV Pro(Xplorer ZV Pro)	15
Tatop W858	14
TCL A464BG	76
TCL S700	37
TechPad 3Gi	17
Teclast A10	4
Tecno 7C	149
Tecno 8H(DroiPad 8)	62
Tecno A7	51
Tecno Boom J8	45
Tecno C5	42
Tecno C7S	6
Tecno C-8(Camon C8)	578
Tecno C9	11
Tecno D1	10
Tecno D1E	49
Tecno D9	22
Tecno DP7CPRO(DroiPad 7C Pro)	24
Tecno f5	59
Tecno F7(Phantom A Plus)	117
Tecno F8	13
Tecno G9(Phantom PAD II)	17
Tecno h3	206
Tecno H5	394
Tecno H6	139
Tecno H7	77
Tecno J5	71
Tecno J7	33
Tecno L3	84
Tecno L5	113
Tecno L6	145
Tecno L7	47
Tecno L8	119
Tecno L8 Plus	61
Tecno M3	617
Tecno M3S	8
Tecno M5	33
Tecno M6	46
Tecno M7	38
Tecno M9	50
Tecno N2S	52
Tecno N3	25
Tecno N3S	10
Tecno N7	13
Tecno N9(Phantom PAD)	27
Tecno P3	46
Tecno P5	475
Tecno P5+	98
Tecno P5S	6
Tecno P9	46
Tecno PTM-Z-mini(Phantom Z Mini)	2
Tecno Q1	48
Tecno R5	9
Tecno R7	45
Tecno S3+	10
Tecno S3	101
Tecno S5	13
Tecno S7	86
Tecno S9	30
Tecno S9S	18
Tecno W3	195
Tecno W4	33
Tecno Y2	560
Tecno Y3+	21
Tecno Y3	412
Tecno Y3S	96
Tecno Y4	232
Tecno Y5	3
Tecno Y6	149
Telefunken TEL73GI	4
Telego W400	2
Tengda V3+	61
ThL T5(T5)	30
ThL T6S	30
ThL V12	37
Tiger S55	15
T-Mobile C800(myTouch Q)	4
T-Mobile myTouch4G	7
T-Mobile (Prism II)	6
T-Mobile Pulse	26
T-Mobile U8651T(Prism)	3
Torque DROIDZ One TV	25
Toshiba AT100	25
Touch Plus ST7701	10
Touch + ST 7705G	3
Trio AXS	17
Trio AXS 4G	3
TWZ A559	54
UCWeb UCBrowser	25
Ufone U509	4
UIN N820	8
Ulefone Be Pro 2	10
Ulefone Paris	2
UMI C1	82
Unnecto U510(Drone X)	4
Uoogou Q7	6
Verssed Motion E1.1	8
Verssed Motion E1	51
verykool Cyprus s6001	6
verykool Leo 3G Jr s4005	29
verykool Lynx	10
verykool Lynx_II_s3503	35
verykool S3501(Lynx)	27
verykool s3503(Lynx II)	8
verykool S354	4
verykool s4006(Leo 3G)	15
verykool S401	23
verykool S4509	5
verykool S4510(Luna)	4
verykool S5004(Lotus JR. S5004)	35
verykool s5017Q(Dorado)	8
verykool S5510(Juno)	5
verykool s5518(Maverick)	14
verykool Sol Jr S5002	10
verykool Sol s5013	8
ViewSonic S600	13
Virgin Mobile Chaser	267
Vivo X7 Plus	21
Vivo Y15	162
Vivo Y15S	6
Vivo Y21	37
Vivo Y21L	3
Vivo Y22	32
Vivo Y27	13
Vivo Y28	3
Vivo Y31	8
Vivo Y31L	20
Vivo Y35	8
Vivo Y51	3
Vivo Y613	7
Vodacom Power Tab 10	106
Vodafone 785(Smart 4 Mini)	118
Vodafone 875(Smart Mini)	22
Vodafone Smart Tab 3G	586
Vodafone VF685(Smart Kicka)	2031
Vodafone VF695(Smart first 6)	126
Vodafone VF-696(Smart Grand)	150
Vodafone VF-795(Smart Speed 6)	19
Vodafone VFD 1100(Tab Mini 7)	105
Vodafone VFD 200(Smart first 7)	124
Vodafone VFD 300	63
Vodafone VFD 500(Smart Turbo 7)	14
Vodafone VFD 600(Smart Prime 7)	8
Vorago CELL-300	10
VOX KICK K4	20
VOYO X7	17
Vulcan CP4051I(Culcan Phone 4.5" Intel Dual Core Phone)	25
Vulcan VTA0701S(Cruiser)	3
Walton G4	5
Walton Primo C4	19
Walton Primo D5	43
Walton Primo D7	8
Walton Primo E2	4
Walton Primo E3	37
Walton Primo E7 Plus	44
Walton Primo EF2	47
Walton Primo EF3	85
Walton Primo F2	8
Walton Primo F4	12
Walton Primo F6	18
Walton Primo G5	5
Walton Primo GF	2
Walton Primo GF4	148
Walton Primo GH2	44
Walton Primo GH3	9
Walton Primo GH4	11
Walton Primo GH5	2
Walton Primo GH5 Plus	3
Walton Primo GH6	32
Walton Primo GM	15
Walton Primo H4	33
Walton Primo_HM	1
Walton Primo HM2	7
Walton Primo HM mini	37
Walton Primo-N	8
Walton Primo NH Lite	25
Walton Primo RH	11
Walton Primo RM	21
Walton Primo RM2	44
Walton Primo RM2 mini	21
Walton Primo RX2	6
Walton Primo RX4	2
Wiko Bloom	11
Wiko Getaway	18
Wiko Goa	27
Wiko JERRY	25
Wiko Lenny 2	76
Wiko LENNY	28
Wiko LENNY3(Lenny 3)	36
Wiko Pulp	3
Wiko Pulp Fab 4G	6
Wiko Rainbow	3
Wiko Rainbow Jam	7
Wiko Ridge 4G	3
Wiko ROBBY	38
Wiko Slide 2	42
Wiko Sunny	3
Wiko Sunset	21
Wiko Sunset2	59
Wiko U FEEL	2
Wiko Wax	4
Wing V50	33
Winmax XC4	4
Wintouch M502	2
WOO SP-6020	7
WOO SP-6022(ORION)	22
X-BO M9+	9
X-BO O1	1
X-BO V7	17
X-BO V8+	55
X-BO V9+	6
X-BQ P10s	14
X-BQ P11s	5
X-BQ P12s	17
Xgody A96	21
Xgody T93Q	73
Xgody X200	15
Xgody X300	49
Xiaomi 2014811(Hongmi (Redmi) 2 4G)	6
Xiaomi 2014813(Hongmi 2 4G / Redmi 2 Dual SIM)	6
Xiaomi 2014819(Redmi 2A)	15
Xiaomi MI-3W	17
Xiaomi Mi-4c(Mi 4c)	4
Xiaomi Mi Max	16
Xiaomi Note 1LTE(Redmi Note 4G)	6
Xiaomi Redmi 2 2014817	41
Xiaomi Redmi 3(Redmi 3)	81
Xiaomi Redmi 3S	2
Xiaomi Redmi Note 2(Redmi Note 2)	51
Xiaomi Redmi Note 3	41
Xolo One HD	34
Xolo Q500	2
Xolo Q900	15
XTOUCH A1 LTE	9
XTOUCH A2 LTE	5
YES MPY48	3
YES MPY52	12
YES MPY54	17
Yezz 4EI(Andy 4EI)	6
Yezz 5EI(Andy 5EI)	6
Yezz Andy 3.5EI	7
Yezz Andy 4.5 EL	6
Yezz Andy A3.5EI	4
Yezz Andy C4EI(Andy 4EI)	2
Zenek Chile Z401	6
Zenek Cocodrilo Z501	8
Zenek Koala Z553	2
Zenek Tigre Z508	4
Zentality C-723	10
Zest T1	18
ZH&amp	0
Zonda Runner ZA935	20
Zonda ZA400	35
Zonda ZA450	31
Zonda ZA500	24
Zonda ZA501	12
Zonda Za940(Joy)	84
Zonda ZA990	11
ZOWEE M1092R-1	4
ZOWEE M1092R	45
ZTE A450(Blade A450)	55
ZTE BLADE A110(Optus ZIP)	69
ZTE Blade A310	26
ZTE Blade A460	283
ZTE Blade A475	7
ZTE Blade A510	65
ZTE Blade Apex2	20
ZTE Blade C341	11
ZTE Blade D6 Lite	70
ZTE BLADE L110	585
ZTE Blade L2	726
ZTE Blade L2 Plus	1220
ZTE Blade L3	15
ZTE Blade L3 Plus	74
ZTE Blade L5	117
ZTE Blade Q1	4
ZTE Blade V6	220
ZTE Blade V6 Plus	17
ZTE C2(Blade C2)	1
ZTE C2 Plus	8
ZTE C310(Blade)	686
ZTE F102	3
ZTE F555	1
ZTE Grand XMax	60
ZTE K97	6
ZTE KIS	2
ZTE Kis II	13
ZTE Kis II Max	462
ZTE Kis II Max plus	12
ZTE Kis II Max Plus	49
ZTE Kis Q(Morado)	31
ZTE LEO Q1	14
ZTE N9130(Speed)	7
ZTE Nova3.5(Nova 3.5)	15
ZTE Open II	48
ZTE Switch X2	10
ZTE T230	4
ZTE T620(Blade D2)	9
ZTE V769M	11
ZTE V779M	29
ZTE V790(Kis Lite)	29
ZTE V791	143
ZTE V793(Kis Flex)	142
ZTE V795(Warp)	3119
ZTE V797(Joey Jump 3.5)	33
ZTE V809(Blade C2)	73
ZTE V815W(Blade Buzz)	211
ZTE V816W	203
ZTE V817	1
ZTE V829(Blade G Pro)	54
ZTE V830W(Blade G Lux)	281
ZTE V831W	66
ZTE V880E(Blade)	3
ZTE V889S	15
ZTE V955	6
ZTE V972M(Leo S1)	13
ZTE V9A	3
ZTE X1(Switch X1)	927
ZTE X850(Racer)	7
ZTE Z667T(Zinger)	6
ZTE Z740G(Radiant)	9
ZTE Z792(Fanfare)	3
ZTE Z812(Maven)	53
ZTE Z820(Obsidian)	4
ZTE Z828(Avid Plus)	43
ZTE Z958(Zmax 2)	5
ZTE Z970(Olympia)	20
ZTE Z981(ZMax Pro)	2
ZTE Z987(Grand X Max+)	25
ZTE Z992(Avail 2)	26
Zuum A309w	30
Zuum CITI I	44
Zuum E40	127
Zuum E60	17
Zuum M50	15
ZXD X11	1
ZYQ Q638	3
