31.13.90.36
31.13.90.37
31.13.90.40
162.213.33.48
66.155.40.249
66.155.40.250
31.13.90.36
31.13.90.37
31.13.90.40
66.155.40.249
66.155.40.250
31.13.90.36
31.13.90.37
31.13.90.40
66.155.40.250
31.13.90.36
31.13.90.37
31.13.90.40
66.155.40.249
66.155.40.250
31.13.90.36
31.13.90.37
31.13.90.40
66.155.40.249
66.155.40.250
