31.13.93.37 173.252.90.231 149.202 178.735
31.13.93.37 173.252.90.98 149.202 155.803
31.13.93.37 31.13.110.97 149.202 227.379
31.13.93.37 31.13.113.186 149.202 229.693
31.13.93.37 173.252.90.124 149.202 149.533
31.13.93.37 173.252.90.245 149.202 152.159
31.13.93.37 31.13.110.111 149.202 239.903
31.13.93.37 31.13.114.65 149.202 227.586
31.13.93.37 173.252.90.122 149.202 155.632
31.13.93.37 173.252.90.244 149.202 174.511
31.13.93.37 31.13.110.105 149.202 227.517
31.13.93.37 31.13.114.64 149.202 228.553
31.13.93.37 173.252.90.120 149.202 153.623
31.13.93.37 173.252.90.240 149.202 153.208
31.13.93.37 31.13.110.122 149.202 241.799
31.13.93.37 31.13.113.191 149.202 226.146
31.13.93.37 173.252.90.102 149.202 156.200
31.13.93.37 173.252.90.244 149.202 174.511
31.13.93.37 31.13.110.97 149.202 227.379
31.13.93.37 31.13.113.180 149.202 242.820
31.13.93.37 173.252.90.236 149.202 151.846
31.13.93.37 173.252.90.96 149.202 151.421
31.13.93.37 31.13.110.103 149.202 227.929
31.13.93.37 31.13.114.71 149.202 228.353
31.13.93.37 173.252.90.249 149.202 149.468
31.13.93.37 173.252.90.96 149.202 151.421
31.13.93.37 31.13.110.104 149.202 251.009
31.13.93.37 31.13.114.73 149.202 227.619
31.13.93.37 173.252.90.126 149.202 175.352
31.13.93.37 173.252.90.240 149.202 153.208
31.13.93.37 31.13.110.111 149.202 239.903
31.13.93.37 31.13.113.188 149.202 225.969
31.13.93.37 173.252.90.101 149.202 155.367
31.13.93.37 173.252.90.234 149.202 153.489
31.13.93.37 31.13.110.109 149.202 226.738
31.13.93.37 31.13.114.74 149.202 225.878
