"Phone","GSM","GPRS","EDGE","HSDPA","HSCSD","LTE","WAP","XHTML","SyncML"
"EVERCOSS Elevate Y Power A75L","Yes","Yes","Yes","Yes","No","No","Yes","Yes","No",
"EVERCOSS A10Q","Yes","Yes","Yes","Yes","No","No","Yes","Yes","No",
"EVERCOSS A12B","Yes","Yes","Yes","Yes","No","No","Yes","Yes","No",
"EVERCOSS A28B","Yes","Yes","Yes","Yes","No","No","Yes","Yes","No",
"EVERCOSS A33A","Yes","Yes","Yes","No","No","No","Yes","Yes","No",
"EVERCOSS A5P","Yes","Yes","Yes","Yes","No","No","Yes","Yes","No",
"EVERCOSS A66V","Yes","Yes","Yes","Yes","No","No","Yes","Yes","No",
"EVERCOSS A74C","No","Yes","Yes","Yes","No","No","Yes","Yes","No",
"EVERCOSS A7T","Yes","Yes","Yes","Yes","No","No","Yes","Yes","No",
"EVERCOSS C8","Yes","Yes","No","No","No","No","Yes","Yes","No",
"EVERCOSS C9","Yes","Yes","Yes","No","No","No","Yes","Yes","No",
"EVERCOSS CG1","Yes","Yes","Yes","No","No","No","Yes","Yes","No",
"EVERCOSS Elevate A66S","Yes","Yes","Yes","Yes","No","No","Yes","Yes","No",
"EVERCOSS Elevate X A74B","Yes","Yes","Yes","Yes","No","No","Yes","Yes","No",
"EVERCOSS Elevate Y2 A80A","Yes","Yes","Yes","Yes","No","No","Yes","Yes","No",
"EVERCOSS Elevate Y3 Plus B75","Yes","Yes","Yes","Yes","No","Yes","Yes","Yes","No",
"EVERCOSS G7T","Yes","Yes","Yes","No","No","No","Yes","Yes","No",
"EVERCOSS L7C","Yes","Yes","No","No","No","No","Yes","Yes","No",
"EVERCOSS L9C","Yes","Yes","No","No","No","No","Yes","Yes","No",
"EVERCOSS One X","Yes","Yes","Yes","Yes","No","No","Yes","Yes","No",
"EVERCOSS S5","Yes","Yes","No","No","No","No","Yes","Yes","No",
"EVERCOSS TC1","No","No","No","No","No","No","Yes","Yes","No",
"EVERCOSS TC2","No","Yes","Yes","No","No","No","Yes","Yes","No",
"EVERCOSS TC3","No","No","No","No","No","No","Yes","Yes","No",
"EVERCOSS V15","Yes","Yes","Yes","No","No","No","Yes","Yes","No",
"EVERCOSS V16","No","No","No","No","No","No","Yes","Yes","No",
"EVERCOSS V1A","Yes","Yes","Yes","No","No","No","Yes","Yes","No",
"EVERCOSS V1M","Yes","Yes","No","No","No","No","Yes","Yes","No",
"EVERCOSS Winner T Compo A74E","Yes","Yes","Yes","Yes","No","No","Yes","Yes","No",
"EVERCOSS Winner Y Power A75U","Yes","Yes","Yes","Yes","No","No","Yes","Yes","No",
"EVERCOSS Winner Y Ultra A75A","Yes","Yes","Yes","Yes","No","No","Yes","Yes","No",
"EVERCOSS Winner Y1 A75W","Yes","Yes","Yes","Yes","No","No","Yes","Yes","No",
