"Phone","GSM","GPRS","EDGE","HSDPA","HSCSD","LTE","WAP","XHTML","SyncML"
"SONY CM-Z200","No","No","No","No","No","No","No","No","No",
"SONY CMD-C1","Yes","No","No","No","No","No","No","No","No",
"SONY CMD-CD5","Yes","No","No","No","No","No","No","No","No",
"SONY CMD-J5","Yes","No","No","No","No","No","Yes","No","No",
"SONY CMD-J6","Yes","No","No","No","No","No","Yes","Yes","No",
"SONY CMD-J7","Yes","No","No","No","No","No","Yes","No","No",
"SONY CMD-J70","Yes","No","No","No","No","No","Yes","No","No",
"SONY CMD-MZ5","Yes","No","No","No","No","No","Yes","No","No",
"SONY CMD-X1000","Yes","No","No","No","No","No","No","No","No",
"SONY CMD-X2000","Yes","No","No","No","No","No","No","No","No",
"SONY CMD-Z1","Yes","No","No","No","No","No","No","No","No",
"SONY CMD-Z1 Plus","Yes","No","No","No","No","No","No","No","No",
"SONY CMD-Z5","Yes","No","No","No","No","No","Yes","No","No",
"SONY CMD-Z7","Yes","No","No","No","No","No","Yes","No","No",
"SONY E6603 Sony Xperia Z5","Yes","Yes","Yes","Yes","No","Yes","Yes","Yes","No",
"SONY E6633 Xperia Z5 Dual","Yes","Yes","Yes","Yes","No","Yes","Yes","Yes","No",
"SONY E6653 Xperia Z5","Yes","Yes","Yes","Yes","No","Yes","Yes","Yes","No",
"SONY M1300","No","No","No","No","No","No","No","No","No",
"SONY SO-02C Xperia Acro ","Yes","Yes","Yes","Yes","No","No","Yes","Yes","No",
"SONY SOI12 Xperia Acro HD","Yes","Yes","Yes","Yes","No","Yes","Yes","Yes","No",
"SONY ST26a Xperia J","Yes","Yes","Yes","Yes","No","No","Yes","Yes","No",
"SONY WT18i","Yes","Yes","Yes","No","No","No","Yes","Yes","No",
"SONY Xperia A SO-04E","Yes","Yes","Yes","Yes","No","Yes","Yes","Yes","No",
"SONY Xperia A2 SO-04F","Yes","Yes","Yes","Yes","No","Yes","Yes","Yes","No",
"SONY Xperia A4 SO-04G","Yes","Yes","Yes","Yes","No","Yes","Yes","Yes","No",
"SONY Xperia Acro HD IS12 SO-03D ","Yes","Yes","Yes","Yes","No","Yes","Yes","Yes","No",
"SONY Xperia Arco S","Yes","Yes","Yes","Yes","No","No","Yes","Yes","No",
"SONY Xperia AX SO-01E","Yes","Yes","Yes","Yes","No","Yes","Yes","Yes","No",
"SONY Xperia C  C2305 S39h","Yes","Yes","Yes","Yes","No","No","Yes","Yes","Yes",
"SONY Xperia C3 D2533","Yes","Yes","Yes","Yes","No","Yes","Yes","Yes","No",
"SONY Xperia C3 Dual D2502","Yes","Yes","Yes","Yes","No","No","Yes","Yes","No",
"SONY Xperia C4 Dual E5333","Yes","Yes","Yes","Yes","No","Yes","Yes","Yes","No",
"SONY Xperia C4 Dual E5343","Yes","Yes","Yes","Yes","No","Yes","Yes","Yes","No",
"SONY Xperia C4 Dual E5363","Yes","Yes","Yes","Yes","No","Yes","Yes","Yes","No",
"SONY Xperia C4 E5303","Yes","Yes","Yes","Yes","No","Yes","Yes","Yes","No",
"SONY Xperia C4 E5306","Yes","Yes","Yes","Yes","No","Yes","Yes","Yes","No",
"SONY Xperia C4 E5353","Yes","Yes","Yes","Yes","No","Yes","Yes","Yes","No",
"SONY Xperia C5 Ultra Dual E5533","Yes","Yes","Yes","Yes","No","Yes","Yes","Yes","Yes",
"SONY Xperia C5 Ultra Dual E5563","Yes","Yes","Yes","Yes","No","Yes","Yes","Yes","Yes",
"SONY Xperia C5 Ultra E5506","Yes","Yes","Yes","Yes","No","Yes","Yes","Yes","Yes",
"SONY Xperia C5 Ultra E5553","Yes","Yes","Yes","Yes","No","Yes","Yes","Yes","Yes",
"SONY Xperia E  C1505","Yes","Yes","Yes","Yes","No","No","Yes","Yes","No",
"SONY Xperia E Dual C1605","Yes","Yes","Yes","Yes","No","No","Yes","Yes","No",
"SONY Xperia E1 D2005","Yes","Yes","Yes","Yes","No","No","Yes","Yes","No",
"SONY Xperia E1 Dual D2104","Yes","Yes","Yes","Yes","No","No","Yes","Yes","No",
"SONY Xperia E3 D2202","Yes","Yes","Yes","Yes","No","No","Yes","Yes","No",
"SONY Xperia E3 D2203","Yes","Yes","Yes","Yes","No","Yes","Yes","Yes","No",
"SONY Xperia E3 D2206","Yes","Yes","Yes","Yes","No","Yes","Yes","Yes","No",
"SONY Xperia E3 D2243","Yes","Yes","Yes","Yes","No","Yes","Yes","Yes","No",
"SONY Xperia E3 Dual D2212","Yes","Yes","Yes","Yes","No","No","Yes","Yes","No",
"SONY Xperia E4 Dual E2124","Yes","Yes","Yes","Yes","No","No","Yes","Yes","No",
"SONY Xperia E4 E2104","Yes","Yes","Yes","Yes","No","No","Yes","Yes","No",
"SONY Xperia E4 E2105","Yes","Yes","Yes","Yes","No","No","Yes","Yes","No",
"SONY Xperia E4 E2114","Yes","Yes","Yes","Yes","No","No","Yes","Yes","No",
"SONY Xperia E4 E2115","Yes","Yes","Yes","Yes","No","No","Yes","Yes","No",
"SONY Xperia E4g Dual E2033","Yes","Yes","Yes","Yes","No","Yes","Yes","Yes","No",
"SONY Xperia E4g E2003","Yes","Yes","Yes","Yes","No","Yes","Yes","Yes","No",
"SONY Xperia E5","Yes","Yes","Yes","Yes","No","Yes","Yes","Yes","No",
"SONY Xperia Go ST27i ","Yes","Yes","Yes","Yes","No","No","Yes","Yes","No",
"SONY Xperia GX","Yes","Yes","Yes","Yes","No","Yes","Yes","Yes","No",
"SONY Xperia Ion Aoba LT28 ","Yes","Yes","Yes","Yes","No","Yes","Yes","Yes","No",
"SONY XPERIA ION HSPA","Yes","Yes","Yes","Yes","No","Yes","Yes","Yes","No",
"SONY Xperia ION LTE","Yes","Yes","Yes","Yes","No","Yes","Yes","Yes","No",
"SONY Xperia J ST26i ","Yes","Yes","Yes","Yes","No","No","Yes","Yes","No",
"SONY Xperia J1 Compact D5788","Yes","Yes","Yes","Yes","No","Yes","Yes","Yes","No",
"SONY Xperia L C2105","Yes","Yes","Yes","Yes","No","Yes","Yes","Yes","Yes",
"SONY Xperia M C1904","Yes","Yes","Yes","Yes","No","No","Yes","Yes","No",
"SONY Xperia M C1905","Yes","Yes","Yes","Yes","No","No","Yes","Yes","No",
"SONY Xperia M Dual C2004","Yes","Yes","Yes","Yes","No","No","Yes","Yes","No",
"SONY Xperia M Dual C2005","Yes","Yes","Yes","Yes","No","No","Yes","Yes","No",
"SONY Xperia M2 Aqua D2403","Yes","Yes","Yes","Yes","No","Yes","Yes","Yes","Yes",
"SONY Xperia M2 Aqua D2406","Yes","Yes","Yes","Yes","No","Yes","Yes","Yes","Yes",
"SONY Xperia M2 dual D2302","Yes","Yes","Yes","Yes","No","No","Yes","Yes","No",
"SONY Xperia M2 dual D2303","Yes","Yes","Yes","Yes","No","No","Yes","Yes","No",
"SONY Xperia M4 Aqua Dual E2312","Yes","Yes","Yes","Yes","No","No","Yes","Yes","No",
"SONY Xperia M4 Aqua Dual E2333","Yes","Yes","Yes","Yes","No","Yes","Yes","Yes","No",
"SONY Xperia M4 Aqua Dual E2363","Yes","Yes","Yes","Yes","No","Yes","Yes","Yes","No",
"SONY Xperia M4 Aqua E2303","Yes","Yes","Yes","Yes","No","Yes","Yes","Yes","No",
"SONY Xperia M5 Dual E5633","Yes","Yes","Yes","Yes","No","Yes","Yes","Yes","Yes",
"SONY Xperia M5 Dual E5643","Yes","Yes","Yes","Yes","No","Yes","Yes","Yes","Yes",
"SONY Xperia M5 Dual E5663","Yes","Yes","Yes","Yes","No","Yes","Yes","Yes","Yes",
"SONY Xperia M5 E5603","Yes","Yes","Yes","Yes","No","Yes","Yes","Yes","Yes",
"SONY Xperia M5 E5606","Yes","Yes","Yes","Yes","No","Yes","Yes","Yes","Yes",
"SONY Xperia M5 E5653","Yes","Yes","Yes","Yes","No","Yes","Yes","Yes","Yes",
"SONY Xperia Miro ST23i ","Yes","Yes","Yes","Yes","No","No","Yes","Yes","Yes",
"SONY Xperia Neo L  MT25i","Yes","Yes","Yes","Yes","No","No","Yes","Yes","Yes",
"SONY Xperia NX SO-02D ","Yes","Yes","Yes","Yes","No","No","Yes","Yes","No",
"SONY Xperia P LT22 ","Yes","Yes","Yes","Yes","No","No","Yes","Yes","No",
"SONY Xperia Premium Dual E6833","Yes","Yes","Yes","Yes","No","Yes","Yes","Yes","No",
"SONY Xperia S LT26i ","Yes","Yes","Yes","Yes","No","No","Yes","Yes","No",
"SONY Xperia SL LT26ii ","Yes","Yes","Yes","Yes","No","No","Yes","Yes","No",
"SONY Xperia Sola MT27i ","Yes","Yes","Yes","Yes","No","No","Yes","Yes","No",
"SONY Xperia SP C5303","Yes","Yes","Yes","Yes","No","Yes","Yes","Yes","Yes",
"SONY Xperia SP M35C","Yes","Yes","Yes","No","No","No","Yes","Yes","Yes",
"SONY Xperia SP TD-LTE M35T-CS","Yes","Yes","Yes","Yes","No","Yes","Yes","Yes","Yes",
"SONY Xperia SX","Yes","Yes","Yes","Yes","No","Yes","Yes","Yes","No",
"SONY XPERIA SX SO-05D","Yes","Yes","Yes","Yes","No","Yes","Yes","Yes","No",
"SONY Xperia T LT30p ","Yes","Yes","Yes","Yes","No","No","Yes","Yes","Yes",
"SONY Xperia T2 Ultra D5303","Yes","Yes","Yes","Yes","No","Yes","Yes","Yes","Yes",
"SONY Xperia T2 Ultra Dual D5322","Yes","Yes","Yes","Yes","No","No","Yes","Yes","Yes",
"SONY Xperia T2 Ultra XM50T","Yes","Yes","Yes","Yes","No","Yes","Yes","Yes","Yes",
"SONY Xperia T3 D5102","Yes","Yes","Yes","Yes","No","No","Yes","Yes","No",
"SONY Xperia T3 D5103","Yes","Yes","Yes","Yes","No","Yes","Yes","Yes","No",
"SONY Xperia T3 D5106","Yes","Yes","Yes","Yes","No","Yes","Yes","Yes","No",
"SONY Xperia Tipo Dual ST21i2 ","Yes","Yes","Yes","Yes","No","No","Yes","Yes","Yes",
"SONY Xperia Tipo ST21a","Yes","Yes","Yes","Yes","No","No","Yes","Yes","Yes",
"SONY Xperia Tipo ST21i ","Yes","Yes","Yes","Yes","No","No","Yes","Yes","Yes",
"SONY Xperia TL LT30at ","Yes","Yes","Yes","Yes","No","No","Yes","Yes","Yes",
"SONY Xperia TX LT29i ","Yes","Yes","Yes","Yes","No","No","Yes","Yes","Yes",
"SONY Xperia U ST25 ","Yes","Yes","Yes","Yes","No","No","Yes","Yes","No",
"SONY Xperia UL SOL22","Yes","Yes","Yes","Yes","No","Yes","Yes","Yes","No",
"SONY Xperia V LT25i ","Yes","Yes","Yes","Yes","No","Yes","Yes","Yes","Yes",
"SONY Xperia VL SOL21","Yes","Yes","Yes","Yes","No","Yes","Yes","Yes","Yes",
"SONY Xperia X Compact F5321","Yes","Yes","Yes","Yes","No","Yes","Yes","Yes","No",
"SONY Xperia X F5121","Yes","Yes","Yes","Yes","No","Yes","Yes","Yes","No",
"SONY Xperia X F5122","Yes","Yes","Yes","Yes","No","Yes","Yes","Yes","No",
"SONY Xperia X Performance","Yes","Yes","Yes","Yes","No","Yes","Yes","Yes","No",
"SONY Xperia XA Dual F3112","Yes","Yes","Yes","Yes","No","Yes","Yes","Yes","No",
"SONY Xperia XA Dual F3116","Yes","Yes","Yes","Yes","No","Yes","Yes","Yes","No",
"SONY Xperia XA F3111","Yes","Yes","Yes","Yes","No","Yes","Yes","Yes","No",
"SONY Xperia XA F3113","Yes","Yes","Yes","Yes","No","Yes","Yes","Yes","No",
"SONY Xperia XA F3115","Yes","Yes","Yes","Yes","No","Yes","Yes","Yes","No",
"SONY Xperia XA Ultra","Yes","Yes","Yes","Yes","No","Yes","Yes","Yes","No",
"SONY Xperia XA Ultra Dual F3212","Yes","Yes","Yes","Yes","No","Yes","Yes","Yes","No",
"SONY Xperia XA Ultra Dual F3216","Yes","Yes","Yes","Yes","No","Yes","Yes","Yes","No",
"SONY Xperia XZ Dual SIM FZ8332","Yes","Yes","Yes","Yes","No","Yes","Yes","Yes","No",
"SONY Xperia XZ FZ8331","Yes","Yes","Yes","Yes","No","Yes","Yes","Yes","No",
"SONY Xperia Z C6602","Yes","Yes","Yes","Yes","No","No","Yes","Yes","No",
"SONY Xperia Z C6603","Yes","Yes","Yes","Yes","No","Yes","Yes","Yes","No",
"SONY Xperia Z C6616","Yes","Yes","Yes","Yes","No","Yes","Yes","Yes","No",
"SONY Xperia Z L36a C6606 ","Yes","Yes","Yes","Yes","No","Yes","Yes","Yes","No",
"SONY Xperia Z Ultra C6802","Yes","Yes","Yes","Yes","No","No","Yes","Yes","No",
"SONY Xperia Z Ultra C6806","Yes","Yes","Yes","Yes","No","Yes","Yes","Yes","No",
"SONY Xperia Z Ultra C6833","Yes","Yes","Yes","Yes","No","Yes","Yes","Yes","No",
"SONY Xperia Z1 C6903","Yes","Yes","Yes","Yes","No","Yes","Yes","Yes","No",
"SONY Xperia Z1 C6943","Yes","Yes","Yes","Yes","No","Yes","Yes","Yes","No",
"SONY Xperia Z1 Colorful Edition M51W","Yes","Yes","Yes","Yes","No","No","Yes","Yes","No",
"SONY Xperia Z1 Compact D5503","Yes","Yes","Yes","Yes","No","Yes","Yes","Yes","Yes",
"SONY Xperia Z1 TD-LTE L39T","Yes","Yes","Yes","Yes","No","Yes","Yes","Yes","No",
"SONY Xperia Z1 TD-LTE L39U","Yes","Yes","Yes","Yes","No","Yes","Yes","Yes","No",
"SONY Xperia Z1s C6916","Yes","Yes","Yes","Yes","No","Yes","Yes","Yes","Yes",
"SONY Xperia Z2 D6502","Yes","Yes","Yes","Yes","No","No","Yes","Yes","No",
"SONY Xperia Z2 D6503","Yes","Yes","Yes","Yes","No","Yes","Yes","Yes","No",
"SONY Xperia Z2 TD-LTE L50T","Yes","Yes","Yes","Yes","No","Yes","Yes","Yes","No",
"SONY Xperia Z2a D6563","Yes","Yes","Yes","Yes","No","Yes","Yes","Yes","No",
"SONY Xperia Z3 Compact D5803","Yes","Yes","Yes","Yes","No","Yes","Yes","Yes","No",
"SONY Xperia Z3 Compact D5833","Yes","Yes","Yes","Yes","No","Yes","Yes","Yes","No",
"SONY Xperia Z3 D6603","Yes","Yes","Yes","Yes","No","Yes","Yes","Yes","No",
"SONY Xperia Z3 D6616 ","Yes","Yes","Yes","Yes","No","Yes","Yes","Yes","No",
"SONY Xperia Z3 D6633","Yes","Yes","Yes","Yes","No","Yes","Yes","Yes","No",
"SONY Xperia Z3 D6643 ","Yes","Yes","Yes","Yes","No","Yes","Yes","Yes","No",
"SONY Xperia Z3 D6653 ","Yes","Yes","Yes","Yes","No","No","Yes","Yes","No",
"SONY Xperia Z3 TD-LTE 401SO","Yes","Yes","Yes","Yes","No","Yes","Yes","Yes","No",
"SONY Xperia Z3 TD-LTE L55T","Yes","Yes","Yes","Yes","No","Yes","Yes","Yes","No",
"SONY Xperia Z3+ Dual E6533","Yes","Yes","Yes","Yes","No","Yes","Yes","Yes","No",
"SONY Xperia Z3+ E6553","Yes","Yes","Yes","Yes","No","Yes","Yes","Yes","No",
"SONY Xperia Z4","Yes","Yes","Yes","Yes","No","Yes","Yes","Yes","No",
"SONY Xperia Z4v","Yes","Yes","Yes","Yes","No","Yes","Yes","Yes","No",
"SONY Xperia Z5","Yes","Yes","Yes","Yes","No","Yes","Yes","Yes","No",
"SONY Xperia Z5 Compact E5803","Yes","Yes","Yes","Yes","No","Yes","Yes","Yes","No",
"SONY Xperia Z5 Compact E5823","Yes","Yes","Yes","Yes","No","Yes","Yes","Yes","No",
"SONY Xperia Z5 Premium Dual E6883","Yes","Yes","Yes","Yes","No","Yes","Yes","Yes","No",
"SONY Xperia Z5 Premium E6853","Yes","Yes","Yes","Yes","No","Yes","Yes","Yes","No",
"SONY Xperia ZL","Yes","Yes","Yes","Yes","No","Yes","Yes","Yes","No",
"SONY Xperia ZL2 SOL25","Yes","Yes","Yes","Yes","No","Yes","Yes","Yes","No",
"SONY Xperia ZR C5503","Yes","Yes","Yes","Yes","No","No","Yes","Yes","No",
"SONY Z28","Yes","No","No","No","No","No","No","No","No",
