"Phone","GSM","GPRS","EDGE","HSDPA","HSCSD","LTE","WAP","XHTML","SyncML"
"VODAFONE 1210","Yes","Yes","No","No","No","No","Yes","Yes","No",
"VODAFONE 1230","Yes","Yes","Yes","No","No","No","Yes","Yes","No",
"VODAFONE 1231","Yes","Yes","Yes","No","Yes","No","Yes","Yes","No",
"VODAFONE 125","Yes","No","No","No","No","No","No","No","No",
"VODAFONE 150","Yes","No","No","No","No","No","No","No","No",
"VODAFONE 155","Yes","No","No","No","No","No","No","No","No",
"VODAFONE 225","Yes","No","No","No","No","No","No","No","No",
"VODAFONE 225FM","Yes","No","No","No","No","No","No","No","No",
"VODAFONE 226","Yes","No","No","No","No","No","No","No","No",
"VODAFONE 226FM","Yes","No","No","No","No","No","No","No","No",
"VODAFONE 227","Yes","No","No","No","No","No","No","No","No",
"VODAFONE 228","Yes","No","No","No","No","No","No","No","No",
"VODAFONE 231","Yes","No","No","No","No","No","No","No","No",
"VODAFONE 235","Yes","No","No","No","No","No","No","No","No",
"VODAFONE 236","Yes","No","No","No","No","No","No","No","No",
"VODAFONE 246","Yes","No","No","No","No","No","No","No","No",
"VODAFONE 247 Solar","Yes","No","No","No","No","No","No","No","No",
"VODAFONE 248","Yes","No","No","No","No","No","No","No","No",
"VODAFONE 250","Yes","No","No","No","No","No","No","No","No",
"VODAFONE 255","Yes","No","No","No","No","No","No","No","No",
"VODAFONE 331","Yes","Yes","No","No","No","No","Yes","Yes","No",
"VODAFONE 340","Yes","Yes","No","No","No","No","Yes","Yes","No",
"VODAFONE 345 Text","Yes","No","No","No","No","No","No","No","No",
"VODAFONE 350 Messaging","Yes","Yes","Yes","No","No","No","Yes","Yes","No",
"VODAFONE 351","Yes","Yes","No","No","No","No","Yes","No","No",
"VODAFONE 353 Fortune","Yes","Yes","Yes","No","No","No","Yes","No","No",
"VODAFONE 354","Yes","Yes","Yes","No","No","No","Yes","Yes","No",
"VODAFONE 355","Yes","Yes","Yes","No","No","No","Yes","Yes","No",
"VODAFONE 360 H2","Yes","Yes","Yes","Yes","No","No","No","No","No",
"VODAFONE 360 M1","Yes","Yes","Yes","Yes","Yes","No","Yes","Yes","Yes",
"VODAFONE 526","Yes","Yes","No","No","No","No","Yes","Yes","No",
"VODAFONE 527","Yes","Yes","No","No","No","No","Yes","Yes","No",
"VODAFONE 533","Yes","Yes","Yes","No","Yes","No","Yes","Yes","No",
"VODAFONE 533 Crystal","Yes","Yes","Yes","No","Yes","No","Yes","Yes","No",
"VODAFONE 540","Yes","Yes","No","No","No","No","Yes","Yes","No",
"VODAFONE 541","Yes","Yes","No","No","No","No","Yes","Yes","No",
"VODAFONE 543","Yes","Yes","Yes","No","No","No","Yes","Yes","No",
"VODAFONE 546","Yes","Yes","Yes","No","No","No","Yes","Yes","No",
"VODAFONE 547","Yes","Yes","Yes","No","No","No","Yes","Yes","No",
"VODAFONE 550","Yes","Yes","Yes","No","No","No","Yes","Yes","No",
"VODAFONE 553","Yes","Yes","Yes","No","No","No","Yes","Yes","No",
"VODAFONE 555 Blue","Yes","Yes","Yes","No","No","No","Yes","Yes","No",
"VODAFONE 575","Yes","Yes","Yes","No","No","No","Yes","Yes","No",
"VODAFONE 655 Chat","Yes","Yes","Yes","Yes","No","No","Yes","Yes","No",
"VODAFONE 710","Yes","Yes","No","No","No","No","Yes","Yes","No",
"VODAFONE 715","Yes","Yes","Yes","No","No","No","Yes","Yes","Yes",
"VODAFONE 716","Yes","Yes","No","No","No","No","Yes","Yes","No",
"VODAFONE 725","Yes","Yes","No","No","No","No","Yes","Yes","No",
"VODAFONE 735","Yes","Yes","Yes","No","No","No","Yes","Yes","No",
